%!PS-Adobe-2.0 EPSF-2.0
%% This is a Stata generated postscript file
%%BoundingBox: 0 0 396 288
%%HiResBoundingBox: 0.000 0.000 396.000 288.000
%%DocumentNeededResources: font Helvetica
/xratio 0.012375 def
/yratio 0.012375 def
/Sbgfill {
	/y1 exch def
	/x1 exch def
	/y0 exch def
	/x0 exch def
	x0 y0 moveto
	x0 y1 lineto x1 y1 lineto x1 y0 lineto x0 y0 lineto
	fill
} def
/Spt {
	yratio mul
	/yp exch def
	xratio mul
	/xp exch def
	Slrgb setrgbcolor
	xp yp .5 0 360 arc fill
} def
/Sln {
	yratio mul
	/y1p exch def
	xratio mul
	/x1p exch def
	yratio mul
	/y0p exch def
	xratio mul
	/x0p exch def
	Slw setlinewidth
	Slrgb setrgbcolor
	x0p y0p M x1p y1p lineto S
} def
/Scrv {
	yratio mul
	/y3p exch def
	xratio mul
	/x3p exch def
	yratio mul
	/y2p exch def
	xratio mul
	/x2p exch def
	yratio mul
	/y1p exch def
	xratio mul
	/x1p exch def
	Slw setlinewidth
	Slrgb setrgbcolor
	x1p y1p x2p y2p x3p y3p curveto
	stroke
} def
/Stxtl {
	/sp exch def
	yratio mul
	/sizep exch def
	dup
	/anglep exch def
	0 exch sub
	/angle2p exch def
	yratio mul
	/y0p exch def
	xratio mul
	/x0p exch def
	Strgb setrgbcolor
	x0p y0p M anglep rotate sizep fntsize sp show stroke angle2p rotate
} def
/Stxtc {
	/sp exch def
	yratio mul
	/sizep exch def
	dup
	/anglep exch def
	0 exch sub
	/angle2p exch def
	yratio mul
	/y0p exch def
	xratio mul
	/x0p exch def
	Strgb setrgbcolor
	x0p y0p M anglep rotate sizep fntsize sp stringwidth exch -2 div exch rm sp show stroke angle2p rotate
} def
/Stxtr {
	/sp exch def
	yratio mul
	/sizep exch def
	dup
	/anglep exch def
	0 exch sub
	/angle2p exch def
	yratio mul
	/y0p exch def
	xratio mul
	/x0p exch def
	Strgb setrgbcolor
	x0p y0p M anglep rotate sizep fntsize sp stringwidth 1 index -1 mul exch rm pop sp show stroke angle2p rotate
} def
/Srect {
	/sfill exch def
	yratio mul
	/y1 exch def
	xratio mul
	/x1 exch def
	yratio mul
	/y0 exch def
	xratio mul
	/x0 exch def
	newpath x0 y0 moveto x0 y1 lineto x1 y1 lineto x1 y0 lineto x0 y0 lineto closepath
	sfill 1 eq {
		Ssrgb setrgbcolor
		gsave
		fill
		grestore
	} if
	Slw setlinewidth
	Slrgb setrgbcolor
	stroke
} def
/Sellipse {
	/sfill exch def
	yratio mul
	/yrad exch def
	xratio mul
	/xrad exch def
	yratio mul
	/y exch def
	xratio mul
	/x exch def
	/savematrix matrix currentmatrix def
	x y translate
	xrad yrad scale
	0 0 1 0 360 arc
	savematrix setmatrix
	sfill 1 eq {
		Ssrgb setrgbcolor
		gsave
		fill
		grestore
	} if
	Slw setlinewidth
	Slrgb setrgbcolor
	stroke
} def
/Stri {
	/sfill exch def
	xratio mul
	/r exch def
	yratio mul
	/y0 exch def
	xratio mul
	/x0 exch def
	/xcen x0 def
	y0 r add
	/ytop exch def
	r 2 div
	y0 exch sub
	/ybot exch def
	r 3 sqrt 2 div mul dup
	xcen exch sub
	/xleft exch def
	xcen add
	/xright exch def
	newpath xcen ytop moveto xright ybot lineto xleft ybot lineto xcen ytop lineto closepath
	sfill 1 eq {
		Ssrgb setrgbcolor
		gsave
		fill
		grestore
	} if
	Slw setlinewidth
	Slrgb setrgbcolor
	stroke
} def
/Soldtri {
	/sfill exch def
	xratio mul
	/r exch def
	yratio mul
	/y0 exch def
	xratio mul
	/x0 exch def
	x0 r sub
	/x1 exch def
	y0 r sub
	/y1 exch def
	x0 r add
	/x2 exch def
	y0 r sub
	/y2 exch def
	/x3 x0 def
	y0 r add
	/y3 exch def
	newpath x1 y1 moveto x2 y2 lineto x3 y3 lineto x1 y1 lineto closepath
	sfill 1 eq {
		Ssrgb setrgbcolor
		gsave
		fill
		grestore
	} if
	Slw setlinewidth
	Slrgb setrgbcolor
	stroke
} def
/Sdia {
	/sfill exch def
	xratio mul
	/r exch def
	yratio mul
	/y exch def
	xratio mul
	/x exch def
	x r sub
	/x0 exch def
	/y0 y def
	/x1 x def
	y r sub
	/y1 exch def
	x r add
	/x2 exch def
	/y2 y def
	/x3 x def
	y r add
	/y3 exch def
	newpath x0 y0 moveto x1 y1 lineto x2 y2 lineto x3 y3 lineto x0 y0 lineto closepath
	sfill 1 eq {
		Ssrgb setrgbcolor
		gsave
		fill
		grestore
	} if
	Slw setlinewidth
	Slrgb setrgbcolor
	stroke
} def
/Scc {
	/sfill exch def
	xratio mul
	/r0 exch def
	yratio mul
	/y0 exch def
	xratio mul
	/x0 exch def
	x0 y0 r0 0 360 arc closepath
	sfill 1 eq {
		Ssrgb setrgbcolor
		gsave
		fill
		grestore
	} if
	Slw setlinewidth
	Slrgb setrgbcolor
	stroke
} def
/Spie {
	/sfill exch def
	/a1 exch def
	/a0 exch def
	xratio mul
	/r exch def
	yratio mul
	/y exch def
	xratio mul
	/x exch def
	newpath x y moveto x y r a0 a1 arc closepath
	sfill 1 eq {
		Ssrgb setrgbcolor
		gsave
		fill
		grestore
	} if
	Slw setlinewidth
	Slrgb setrgbcolor
	stroke
} def
/Splu {
	xratio mul
	/r exch def
	yratio mul
	/y exch def
	xratio mul
	/x exch def
	x r sub
	/x0 exch def
	x r add
	/x1 exch def
	x0 y M x1 y L
	y r sub
	/y0 exch def
	y r add
	/y1 exch def
	x y0 M x y1 L
} def
/Scro {
	xratio mul
	/r exch def
	yratio mul
	/y exch def
	xratio mul
	/x exch def
	x r sub
	/x0 exch def
	y r sub
	/y0 exch def
	x r add
	/x1 exch def
	y r add
	/y1 exch def
	x0 y0 M x1 y1 L
	x r add
	/x0 exch def
	y r sub
	/y0 exch def
	x r sub
	/x1 exch def
	y r add
	/y1 exch def
	x0 y0 M x1 y1 L
} def
/Sm {
	yratio mul
	/y exch def
	xratio mul
	/x exch def
	x y M
} def
/Sl {
	yratio mul
	/y exch def
	xratio mul
	/x exch def
	x y L
} def
/SPl {
	yratio mul
	/y exch def
	xratio mul
	/x exch def
	x y PL
} def
/Lcs {
	currentlinecap
	1 setlinecap
} def
/Lcr {
	setlinecap
} def
/Sbp {
	newpath
} def
/Sep {
	/sfill exch def
	closepath
	sfill 1 eq  {
		Ssrgb setrgbcolor
		gsave
		fill
		grestore
	} if
	Slw setlinewidth
	Slrgb setrgbcolor
	Lcs
	stroke
	Lcr
} def
/cp {currentpoint} def 
/M {moveto} def 
/rm {rmoveto} def 
/S {stroke} def 
/L {Slw setlinewidth Slrgb setrgbcolor lineto Lcs S Lcr} def 
/PL {Slw setlinewidth Slrgb setrgbcolor lineto} def 
/MF-Helvetica {
  /newfontname exch def
  /fontname exch def
  /fontdict fontname findfont def
  /newfont fontdict maxlength dict def
  fontdict {
  exch dup /FID eq {pop pop} {exch newfont 3 1 roll put} ifelse
  } forall
  newfont /FontName newfontname put
  newfont /Encoding ISOLatin1Encoding put
  newfontname newfont definefont pop
} def
/Helvetica /Helvetica-0 MF-Helvetica
/Slw 0.120 def
1.000 1.000 1.000 setrgbcolor
0 0 396.000 288.000 Sbgfill
/Slrgb {1.000 1.000 1.000} def
/Strgb {1.000 1.000 1.000} def
/Ssrgb {1.000 1.000 1.000} def
/Slw 0.576 def
0 0 31999 23272 1 Srect
2350 4415 31184 21047 1 Srect
/Slrgb {0.000 0.000 0.000} def
/Strgb {0.000 0.000 0.000} def
/Slw 0.864 def
/Slrgb {0.910 0.910 0.910} def
2350 4926 31184 4926 Sln
/Slw 0.576 def
/Slrgb {0.000 0.000 0.000} def
/Slw 0.864 def
/Slrgb {0.910 0.910 0.910} def
2350 8048 31184 8048 Sln
/Slw 0.576 def
/Slrgb {0.000 0.000 0.000} def
/Slw 0.864 def
/Slrgb {0.910 0.910 0.910} def
2350 11170 31184 11170 Sln
/Slw 0.576 def
/Slrgb {0.000 0.000 0.000} def
/Slw 0.864 def
/Slrgb {0.910 0.910 0.910} def
2350 14292 31184 14292 Sln
/Slw 0.576 def
/Slrgb {0.000 0.000 0.000} def
/Slw 0.864 def
/Slrgb {0.910 0.910 0.910} def
2350 17413 31184 17413 Sln
/Slw 0.576 def
/Slrgb {0.000 0.000 0.000} def
/Slw 0.864 def
/Slrgb {0.910 0.910 0.910} def
2350 20535 31184 20535 Sln
/Slw 0.576 def
/Slrgb {0.000 0.000 0.000} def
/Slw 0.864 def
9906 4415 9906 4880 Sln
9906 5113 9906 5578 Sln
9906 5811 9906 6276 Sln
9906 6509 9906 6975 Sln
9906 7207 9906 7673 Sln
9906 7905 9906 8371 Sln
9906 8604 9906 9069 Sln
9906 9302 9906 9767 Sln
9906 10000 9906 10465 Sln
9906 10698 9906 11163 Sln
9906 11396 9906 11861 Sln
9906 12094 9906 12559 Sln
9906 12792 9906 13257 Sln
9906 13490 9906 13955 Sln
9906 14188 9906 14654 Sln
9906 14886 9906 15352 Sln
9906 15584 9906 16050 Sln
9906 16283 9906 16748 Sln
9906 16981 9906 17446 Sln
9906 17679 9906 18144 Sln
9906 18377 9906 18842 Sln
9906 19075 9906 19540 Sln
9906 19773 9906 20238 Sln
9906 20471 9906 20936 Sln
18597 4415 18597 4880 Sln
18597 5113 18597 5578 Sln
18597 5811 18597 6276 Sln
18597 6509 18597 6975 Sln
18597 7207 18597 7673 Sln
18597 7905 18597 8371 Sln
18597 8604 18597 9069 Sln
18597 9302 18597 9767 Sln
18597 10000 18597 10465 Sln
18597 10698 18597 11163 Sln
18597 11396 18597 11861 Sln
18597 12094 18597 12559 Sln
18597 12792 18597 13257 Sln
18597 13490 18597 13955 Sln
18597 14188 18597 14654 Sln
18597 14886 18597 15352 Sln
18597 15584 18597 16050 Sln
18597 16283 18597 16748 Sln
18597 16981 18597 17446 Sln
18597 17679 18597 18144 Sln
18597 18377 18597 18842 Sln
18597 19075 18597 19540 Sln
18597 19773 18597 20238 Sln
18597 20471 18597 20936 Sln
2861 17413 Sm
2953 17059 Sl
2953 17059 Sm
3044 16996 Sl
3044 16996 Sm
3136 16929 Sl
3136 16929 Sm
3227 17078 Sl
3227 17078 Sm
3319 17133 Sl
3319 17133 Sm
3410 17236 Sl
3410 17236 Sm
3502 17280 Sl
3502 17280 Sm
3593 17392 Sl
3593 17392 Sm
3685 17399 Sl
3685 17399 Sm
3776 17283 Sl
3776 17283 Sm
3868 17285 Sl
3868 17285 Sm
3959 17057 Sl
3959 17057 Sm
4051 17119 Sl
4051 17119 Sm
4142 17159 Sl
4142 17159 Sm
4233 17281 Sl
4233 17281 Sm
4325 17365 Sl
4325 17365 Sm
4416 17394 Sl
4416 17394 Sm
4508 17294 Sl
4508 17294 Sm
4599 17456 Sl
4599 17456 Sm
4691 17648 Sl
4691 17648 Sm
4782 17661 Sl
4782 17661 Sm
4874 17727 Sl
4874 17727 Sm
4965 17736 Sl
4965 17736 Sm
5057 17857 Sl
5057 17857 Sm
5148 17741 Sl
5148 17741 Sm
5240 17714 Sl
5240 17714 Sm
5331 17803 Sl
5331 17803 Sm
5423 17784 Sl
5423 17784 Sm
5514 17770 Sl
5514 17770 Sm
5606 17825 Sl
5606 17825 Sm
5697 18058 Sl
5697 18058 Sm
5789 18009 Sl
5789 18009 Sm
5880 18056 Sl
5880 18056 Sm
5972 18178 Sl
5972 18178 Sm
6063 18114 Sl
6063 18114 Sm
6155 18094 Sl
6155 18094 Sm
6246 18131 Sl
6246 18131 Sm
6338 18051 Sl
6338 18051 Sm
6429 17786 Sl
6429 17786 Sm
6521 17805 Sl
6521 17805 Sm
6612 17869 Sl
6612 17869 Sm
6704 17689 Sl
6704 17689 Sm
6795 17807 Sl
6795 17807 Sm
6886 17710 Sl
6886 17710 Sm
6978 17669 Sl
6978 17669 Sm
7069 17727 Sl
7069 17727 Sm
7161 17855 Sl
7161 17855 Sm
7252 17912 Sl
7252 17912 Sm
7344 18054 Sl
7344 18054 Sm
7435 17900 Sl
7435 17900 Sm
7527 17982 Sl
7527 17982 Sm
7618 18073 Sl
7618 18073 Sm
7710 17981 Sl
7710 17981 Sm
7801 18055 Sl
7801 18055 Sm
7893 18149 Sl
7893 18149 Sm
7984 18201 Sl
7984 18201 Sm
8076 18194 Sl
8076 18194 Sm
8167 18259 Sl
8167 18259 Sm
8259 18242 Sl
8259 18242 Sm
8350 18235 Sl
8350 18235 Sm
8442 18323 Sl
8442 18323 Sm
8533 18479 Sl
8533 18479 Sm
8625 18786 Sl
8625 18786 Sm
8716 18844 Sl
8716 18844 Sm
8808 18823 Sl
8808 18823 Sm
8899 18813 Sl
8899 18813 Sm
8991 18883 Sl
8991 18883 Sm
9082 18828 Sl
9082 18828 Sm
9174 18895 Sl
9174 18895 Sm
9265 18920 Sl
9265 18920 Sm
9357 18926 Sl
9357 18926 Sm
9448 18751 Sl
9448 18751 Sm
9539 18707 Sl
9539 18707 Sm
9631 18779 Sl
9631 18779 Sm
9722 18842 Sl
9722 18842 Sm
9814 18875 Sl
9814 18875 Sm
9905 18973 Sl
9905 18973 Sm
9997 18596 Sl
9997 18596 Sm
10088 18417 Sl
10088 18417 Sm
10180 18108 Sl
10180 18108 Sm
10271 18082 Sl
10271 18082 Sm
10363 18051 Sl
10363 18051 Sm
10454 18017 Sl
10454 18017 Sm
10546 16402 Sl
10546 16402 Sm
10637 15876 Sl
10637 15876 Sm
10729 15616 Sl
10729 15616 Sm
10820 15594 Sl
10820 15594 Sm
10912 15674 Sl
10912 15674 Sm
11003 15755 Sl
11003 15755 Sm
11095 15836 Sl
11095 15836 Sm
11186 15404 Sl
11186 15404 Sm
11278 14905 Sl
11278 14905 Sm
11369 15113 Sl
11369 15113 Sm
11461 15133 Sl
11461 15133 Sm
11552 14588 Sl
11552 14588 Sm
11644 14752 Sl
11644 14752 Sm
11735 14575 Sl
11735 14575 Sm
11827 14542 Sl
11827 14542 Sm
11918 14294 Sl
11918 14294 Sm
12010 14282 Sl
12010 14282 Sm
12101 14394 Sl
12101 14394 Sm
12192 14395 Sl
12192 14395 Sm
12284 14364 Sl
12284 14364 Sm
12375 14518 Sl
12375 14518 Sm
12467 14518 Sl
12467 14518 Sm
12558 14447 Sl
12558 14447 Sm
12650 14461 Sl
12650 14461 Sm
12741 14517 Sl
12741 14517 Sm
12833 14095 Sl
12833 14095 Sm
12924 13938 Sl
12924 13938 Sm
13016 13979 Sl
13016 13979 Sm
13107 13919 Sl
13107 13919 Sm
13199 13971 Sl
13199 13971 Sm
13290 13841 Sl
13290 13841 Sm
13382 13923 Sl
13382 13923 Sm
13473 14003 Sl
13473 14003 Sm
13565 13589 Sl
13565 13589 Sm
13656 13705 Sl
13656 13705 Sm
13748 13658 Sl
13748 13658 Sm
13839 13706 Sl
13839 13706 Sm
13931 13656 Sl
13931 13656 Sm
14022 13681 Sl
14022 13681 Sm
14114 13734 Sl
14114 13734 Sm
14205 13944 Sl
14205 13944 Sm
14297 14051 Sl
14297 14051 Sm
14388 13954 Sl
14388 13954 Sm
14480 13975 Sl
14480 13975 Sm
14571 13681 Sl
14571 13681 Sm
14663 13335 Sl
14663 13335 Sm
14754 12585 Sl
14754 12585 Sm
14845 12637 Sl
14845 12637 Sm
14937 12738 Sl
14937 12738 Sm
15028 12731 Sl
15028 12731 Sm
15120 12736 Sl
15120 12736 Sm
15211 11759 Sl
15211 11759 Sm
15303 11642 Sl
15303 11642 Sm
15394 11626 Sl
15394 11626 Sm
15486 11761 Sl
15486 11761 Sm
15577 11881 Sl
15577 11881 Sm
15669 11875 Sl
15669 11875 Sm
15760 11862 Sl
15760 11862 Sm
15852 11239 Sl
15852 11239 Sm
15943 10724 Sl
15943 10724 Sm
16035 10717 Sl
16035 10717 Sm
16126 10860 Sl
16126 10860 Sm
16218 10873 Sl
16218 10873 Sm
16309 10836 Sl
16309 10836 Sm
16401 11049 Sl
16401 11049 Sm
16492 11063 Sl
16492 11063 Sm
16584 11036 Sl
16584 11036 Sm
16675 10751 Sl
16675 10751 Sm
16767 11034 Sl
16767 11034 Sm
16858 11187 Sl
16858 11187 Sm
16950 11349 Sl
16950 11349 Sm
17041 11098 Sl
17041 11098 Sm
17133 11009 Sl
17133 11009 Sm
17224 11094 Sl
17224 11094 Sm
17316 10917 Sl
17316 10917 Sm
17407 10784 Sl
17407 10784 Sm
17498 10898 Sl
17498 10898 Sm
17590 10904 Sl
17590 10904 Sm
17681 10253 Sl
17681 10253 Sm
17773 9753 Sl
17773 9753 Sm
17864 9515 Sl
17864 9515 Sm
17956 9294 Sl
17956 9294 Sm
18047 8918 Sl
18047 8918 Sm
18139 8982 Sl
18139 8982 Sm
18230 8866 Sl
18230 8866 Sm
18322 7996 Sl
18322 7996 Sm
18413 6959 Sl
18413 6959 Sm
18505 7038 Sl
18505 7038 Sm
18596 6815 Sl
18596 6815 Sm
18688 7027 Sl
18688 7027 Sm
18779 7096 Sl
18779 7096 Sm
18871 7114 Sl
18871 7114 Sm
18962 7131 Sl
18962 7131 Sm
19054 7131 Sl
19054 7131 Sm
19145 7327 Sl
19145 7327 Sm
19237 7354 Sl
19237 7354 Sm
19328 7426 Sl
19328 7426 Sm
19420 7562 Sl
19420 7562 Sm
19511 7563 Sl
19511 7563 Sm
19603 7561 Sl
19603 7561 Sm
19694 7681 Sl
19694 7681 Sm
19786 8079 Sl
19786 8079 Sm
19877 8067 Sl
19877 8067 Sm
19969 8154 Sl
19969 8154 Sm
20060 8232 Sl
20060 8232 Sm
20151 8244 Sl
20151 8244 Sm
20243 8286 Sl
20243 8286 Sm
20334 8255 Sl
20334 8255 Sm
20426 8354 Sl
20426 8354 Sm
20517 8329 Sl
20517 8329 Sm
20609 8446 Sl
20609 8446 Sm
20700 8498 Sl
20700 8498 Sm
20792 8542 Sl
20792 8542 Sm
20883 8493 Sl
20883 8493 Sm
20975 8511 Sl
20975 8511 Sm
21066 8503 Sl
21066 8503 Sm
21158 8544 Sl
21158 8544 Sm
21249 8665 Sl
21249 8665 Sm
21341 8644 Sl
21341 8644 Sm
21432 8571 Sl
21432 8571 Sm
21524 8610 Sl
21524 8610 Sm
21615 8572 Sl
21615 8572 Sm
21707 8614 Sl
21707 8614 Sm
21798 8627 Sl
21798 8627 Sm
21890 8560 Sl
21890 8560 Sm
21981 8680 Sl
21981 8680 Sm
22073 8701 Sl
22073 8701 Sm
22164 8537 Sl
22164 8537 Sm
22256 8598 Sl
22256 8598 Sm
22347 8557 Sl
22347 8557 Sm
22439 8588 Sl
22439 8588 Sm
22530 8737 Sl
22530 8737 Sm
22622 8975 Sl
22622 8975 Sm
22713 8946 Sl
22713 8946 Sm
22804 9028 Sl
22804 9028 Sm
22896 8961 Sl
22896 8961 Sm
22987 8891 Sl
22987 8891 Sm
23079 8845 Sl
23079 8845 Sm
23170 8753 Sl
23170 8753 Sm
23262 8782 Sl
23262 8782 Sm
23353 8940 Sl
23353 8940 Sm
23445 8924 Sl
23445 8924 Sm
23536 9039 Sl
23536 9039 Sm
23628 9009 Sl
23628 9009 Sm
23719 8980 Sl
23719 8980 Sm
23811 8990 Sl
23811 8990 Sm
23902 9031 Sl
23902 9031 Sm
23994 8915 Sl
23994 8915 Sm
24085 8916 Sl
24085 8916 Sm
24177 8911 Sl
24177 8911 Sm
24268 8980 Sl
24268 8980 Sm
24360 9022 Sl
24360 9022 Sm
24451 9140 Sl
24451 9140 Sm
24543 9200 Sl
24543 9200 Sm
24634 8520 Sl
24634 8520 Sm
24726 8441 Sl
24726 8441 Sm
24817 8476 Sl
24817 8476 Sm
24909 8500 Sl
24909 8500 Sm
25000 8550 Sl
25000 8550 Sm
25092 8634 Sl
25092 8634 Sm
25183 8713 Sl
25183 8713 Sm
25275 8930 Sl
25275 8930 Sm
25366 9026 Sl
25366 9026 Sm
25457 8982 Sl
25457 8982 Sm
25549 9123 Sl
25549 9123 Sm
25640 9152 Sl
25640 9152 Sm
25732 9236 Sl
25732 9236 Sm
25823 9351 Sl
25823 9351 Sm
25915 9357 Sl
25915 9357 Sm
26006 9389 Sl
26006 9389 Sm
26098 9301 Sl
26098 9301 Sm
26189 9364 Sl
26189 9364 Sm
26281 9370 Sl
26281 9370 Sm
26372 9538 Sl
26372 9538 Sm
26464 9601 Sl
26464 9601 Sm
26555 9636 Sl
26555 9636 Sm
26647 9616 Sl
26647 9616 Sm
26738 9468 Sl
26738 9468 Sm
26830 9484 Sl
26830 9484 Sm
26921 9549 Sl
26921 9549 Sm
27013 9041 Sl
27013 9041 Sm
27104 9112 Sl
27104 9112 Sm
27196 8987 Sl
27196 8987 Sm
27287 9149 Sl
27287 9149 Sm
27379 9125 Sl
27379 9125 Sm
27470 9227 Sl
27470 9227 Sm
27562 9164 Sl
27562 9164 Sm
27653 9225 Sl
27653 9225 Sm
27745 9299 Sl
27745 9299 Sm
27836 9311 Sl
27836 9311 Sm
27928 9396 Sl
27928 9396 Sm
28019 9641 Sl
28019 9641 Sm
28110 9648 Sl
28110 9648 Sm
28202 9676 Sl
28202 9676 Sm
28293 9392 Sl
28293 9392 Sm
28385 9408 Sl
28385 9408 Sm
28476 9485 Sl
28476 9485 Sm
28568 9060 Sl
28568 9060 Sm
28659 9046 Sl
28659 9046 Sm
28751 8937 Sl
28751 8937 Sm
28842 8915 Sl
28842 8915 Sm
28934 9007 Sl
28934 9007 Sm
29025 9063 Sl
29025 9063 Sm
29117 9081 Sl
29117 9081 Sm
29208 9038 Sl
29208 9038 Sm
29300 9074 Sl
29300 9074 Sm
29391 8796 Sl
29391 8796 Sm
29483 8848 Sl
29483 8848 Sm
29574 8688 Sl
29574 8688 Sm
29666 8776 Sl
29666 8776 Sm
29757 8811 Sl
29757 8811 Sm
29849 8875 Sl
29849 8875 Sm
29940 8877 Sl
29940 8877 Sm
30032 8871 Sl
30032 8871 Sm
30123 8894 Sl
30123 8894 Sm
30215 8961 Sl
30215 8961 Sm
30306 9062 Sl
30306 9062 Sm
30398 9123 Sl
30398 9123 Sm
30489 9250 Sl
30489 9250 Sm
30581 9354 Sl
30581 9354 Sm
30672 9285 Sl
2861 17413 2953 17413 Sln
2953 17413 3044 17413 Sln
3044 17413 3136 17413 Sln
3136 17413 3227 17413 Sln
3227 17413 3319 17413 Sln
3319 17413 3326 17413 Sln
3559 17413 3593 17413 Sln
3593 17413 3685 17413 Sln
3685 17413 3776 17413 Sln
3776 17413 3868 17413 Sln
3868 17413 3959 17413 Sln
3959 17413 4024 17413 Sln
4257 17413 4325 17413 Sln
4325 17413 4416 17413 Sln
4416 17413 4508 17413 Sln
4508 17413 4599 17413 Sln
4599 17413 4691 17413 Sln
4691 17413 4722 17413 Sln
4955 17413 4965 17413 Sln
4965 17413 5057 17413 Sln
5057 17413 5148 17413 Sln
5148 17413 5240 17413 Sln
5240 17413 5331 17413 Sln
5331 17413 5420 17413 Sln
5608 17460 5634 17925 Sln
5647 18157 5673 18622 Sln
5686 18854 5697 19052 Sln
5697 19052 5789 19052 Sln
5789 19052 5880 19052 Sln
5880 19052 5964 19052 Sln
6197 19052 6246 19052 Sln
6246 19052 6338 19052 Sln
6338 19052 6429 19052 Sln
6429 19052 6521 19052 Sln
6521 19052 6612 19052 Sln
6612 19052 6662 19052 Sln
6895 19052 6978 19052 Sln
6978 19052 7069 19052 Sln
7069 19052 7161 19052 Sln
7161 19052 7252 19052 Sln
7252 19052 7344 19052 Sln
7344 19052 7360 19052 Sln
7593 19052 7618 19052 Sln
7618 19052 7710 19052 Sln
7710 19052 7801 19052 Sln
7801 19052 7893 19052 Sln
7893 19052 7984 19052 Sln
7984 19052 8058 19052 Sln
8291 19052 8350 19052 Sln
8350 19052 8442 19052 Sln
8442 19052 8465 18739 Sln
8481 18506 8515 18043 Sln
8532 17810 8533 17799 Sln
8533 17799 8625 17799 Sln
8625 17799 8716 17799 Sln
8716 17799 8808 17799 Sln
8808 17799 8899 17799 Sln
8899 17799 8987 17799 Sln
9220 17799 9265 17799 Sln
9265 17799 9357 17799 Sln
9357 17799 9448 17799 Sln
9448 17799 9539 17799 Sln
9539 17799 9631 17799 Sln
9631 17799 9685 17799 Sln
9918 17799 9997 17799 Sln
9997 17799 10088 17799 Sln
10088 17799 10180 17799 Sln
10180 17799 10271 17799 Sln
10271 17799 10363 17799 Sln
10363 17799 10383 17799 Sln
10616 17799 10637 17799 Sln
10637 17799 10729 17799 Sln
10729 17799 10820 17799 Sln
10820 17799 10912 17799 Sln
10912 17799 11003 17799 Sln
11003 17799 11081 17799 Sln
11213 17674 11278 17367 Sln
11278 17367 11369 17367 Sln
11369 17367 11429 17367 Sln
11662 17367 11735 17367 Sln
11735 17367 11827 17367 Sln
11827 17367 11918 17367 Sln
11918 17367 12010 17367 Sln
12010 17367 12101 17367 Sln
12101 17367 12128 17367 Sln
12360 17367 12375 17367 Sln
12375 17367 12467 17367 Sln
12467 17367 12558 17367 Sln
12558 17367 12650 17367 Sln
12650 17367 12741 17367 Sln
12741 17367 12826 17367 Sln
13058 17367 13107 17367 Sln
13107 17367 13199 17367 Sln
13199 17367 13290 17367 Sln
13290 17367 13382 17367 Sln
13382 17367 13473 17367 Sln
13473 17367 13524 17367 Sln
13757 17367 13839 17367 Sln
13839 17367 13931 17367 Sln
13931 17367 14022 17367 Sln
14022 17367 14028 17167 Sln
14035 16934 14048 16469 Sln
14055 16236 14069 15771 Sln
14076 15538 14089 15073 Sln
14096 14840 14109 14375 Sln
14185 14214 14205 14214 Sln
14205 14214 14297 14214 Sln
14297 14214 14388 14214 Sln
14388 14214 14480 14214 Sln
14480 14214 14571 14214 Sln
14571 14214 14651 14214 Sln
14883 14214 14937 14214 Sln
14937 14214 15028 14214 Sln
15028 14214 15120 14214 Sln
15120 14214 15211 14214 Sln
15211 14214 15303 14214 Sln
15303 14214 15349 14214 Sln
15582 14214 15669 14214 Sln
15669 14214 15760 14214 Sln
15760 14214 15852 14214 Sln
15852 14214 15943 14214 Sln
15943 14214 16035 14214 Sln
16035 14214 16047 14214 Sln
16280 14214 16309 14214 Sln
16309 14214 16401 14214 Sln
16401 14214 16492 14214 Sln
16492 14214 16584 14214 Sln
16584 14214 16675 14214 Sln
16675 14214 16745 14214 Sln
16770 14003 16778 13538 Sln
16781 13305 16788 12840 Sln
16792 12607 16799 12142 Sln
16802 11909 16810 11444 Sln
16813 11211 16821 10746 Sln
16824 10513 16831 10048 Sln
16834 9815 16842 9349 Sln
16845 9117 16853 8651 Sln
16856 8418 16858 8297 Sln
16858 8297 16950 8297 Sln
16950 8297 17041 8297 Sln
17041 8297 17133 8297 Sln
17133 8297 17202 8297 Sln
17435 8297 17498 8297 Sln
17498 8297 17590 8297 Sln
17590 8297 17681 8297 Sln
17681 8297 17773 8297 Sln
17773 8297 17864 8297 Sln
17864 8297 17900 8297 Sln
18133 8297 18139 8297 Sln
18139 8297 18230 8297 Sln
18230 8297 18322 8297 Sln
18322 8297 18413 8297 Sln
18413 8297 18505 8297 Sln
18505 8297 18596 8297 Sln
18596 8297 18598 8297 Sln
18831 8297 18871 8297 Sln
18871 8297 18962 8297 Sln
18962 8297 19054 8297 Sln
19054 8297 19145 8297 Sln
19145 8297 19237 8297 Sln
19237 8297 19296 8297 Sln
19529 8297 19603 8297 Sln
19603 8297 19615 7906 Sln
19621 7673 19635 7208 Sln
19642 6975 19655 6510 Sln
19662 6277 19675 5812 Sln
19682 5579 19694 5162 Sln
19694 5162 19742 5162 Sln
19974 5162 20060 5162 Sln
20060 5162 20151 5162 Sln
20151 5162 20243 5162 Sln
20243 5162 20334 5162 Sln
20334 5162 20426 5162 Sln
20426 5162 20440 5162 Sln
20672 5162 20700 5162 Sln
20700 5162 20792 5162 Sln
20792 5162 20883 5162 Sln
20883 5162 20975 5162 Sln
20975 5162 21066 5162 Sln
21066 5162 21138 5162 Sln
21371 5162 21432 5162 Sln
21432 5162 21524 5162 Sln
21524 5162 21615 5162 Sln
21615 5162 21707 5162 Sln
21707 5162 21798 5162 Sln
21798 5162 21836 5162 Sln
22069 5162 22073 5162 Sln
22073 5162 22164 5162 Sln
22164 5162 22256 5162 Sln
22256 5162 22347 5162 Sln
22347 5162 22439 5162 Sln
22439 5162 22445 5257 Sln
22462 5489 22494 5953 Sln
22510 6186 22530 6468 Sln
22530 6468 22622 6468 Sln
22622 6468 22713 6468 Sln
22945 6468 22987 6468 Sln
22987 6468 23079 6468 Sln
23079 6468 23170 6468 Sln
23170 6468 23262 6468 Sln
23262 6468 23353 6468 Sln
23353 6468 23411 6468 Sln
23644 6468 23719 6468 Sln
23719 6468 23811 6468 Sln
23811 6468 23902 6468 Sln
23902 6468 23994 6468 Sln
23994 6468 24085 6468 Sln
24085 6468 24109 6468 Sln
24342 6468 24360 6468 Sln
24360 6468 24451 6468 Sln
24451 6468 24543 6468 Sln
24543 6468 24634 6468 Sln
24634 6468 24726 6468 Sln
24726 6468 24807 6468 Sln
25002 6508 25031 6972 Sln
25045 7204 25074 7669 Sln
25088 7901 25092 7966 Sln
25092 7966 25183 7966 Sln
25183 7966 25275 7966 Sln
25275 7966 25366 7966 Sln
25366 7966 25457 7966 Sln
25457 7966 25492 7966 Sln
25725 7966 25732 7966 Sln
25732 7966 25823 7966 Sln
25823 7966 25915 7966 Sln
25915 7966 26006 7966 Sln
26006 7966 26098 7966 Sln
26098 7966 26189 7966 Sln
26189 7966 26190 7966 Sln
26423 7966 26464 7966 Sln
26464 7966 26555 7966 Sln
26555 7966 26647 7966 Sln
26647 7966 26738 7966 Sln
26738 7966 26830 7966 Sln
26830 7966 26888 7966 Sln
27121 7966 27196 7966 Sln
27196 7966 27287 7966 Sln
27287 7966 27379 7966 Sln
27379 7966 27470 7966 Sln
27470 7966 27562 7966 Sln
27562 7966 27586 7966 Sln
27819 7966 27836 7966 Sln
27836 7966 27892 8411 Sln
27921 8642 27928 8702 Sln
27928 8702 28019 8702 Sln
28019 8702 28110 8702 Sln
28110 8702 28202 8702 Sln
28202 8702 28293 8702 Sln
28293 8702 28333 8702 Sln
28566 8702 28568 8702 Sln
28568 8702 28659 8702 Sln
28659 8702 28751 8702 Sln
28751 8702 28842 8702 Sln
28842 8702 28934 8702 Sln
28934 8702 29025 8702 Sln
29025 8702 29031 8702 Sln
29264 8702 29300 8702 Sln
29300 8702 29391 8702 Sln
29391 8702 29483 8702 Sln
29483 8702 29574 8702 Sln
29574 8702 29666 8702 Sln
29666 8702 29729 8702 Sln
29962 8702 30032 8702 Sln
30032 8702 30123 8702 Sln
30123 8702 30215 8702 Sln
30215 8702 30306 8702 Sln
30306 8702 30398 8702 Sln
30398 8702 30427 8702 Sln
30591 8780 30646 9242 Sln
11187 19628 0
/Helvetica-0 findfont 808 yratio mul scalefont setfont
(09/16) stringwidth pop add
2 div xratio div
dup 4 3 roll exch 0.000 cos mul sub 3 1 roll 0.000 sin mul sub 2 copy
/fntsize {/Helvetica-0 findfont exch scalefont setfont } def
0.000 808
(09/16) Stxtl
(09/16) stringwidth pop xratio div
dup 4 3 roll exch 0.000 cos mul add 3 1 roll 0.000 sin mul add 2 copy
pop pop pop pop
19695 19628 0
/Helvetica-0 findfont 808 yratio mul scalefont setfont
(12/16) stringwidth pop add
2 div xratio div
dup 4 3 roll exch 0.000 cos mul sub 3 1 roll 0.000 sin mul sub 2 copy
/fntsize {/Helvetica-0 findfont exch scalefont setfont } def
0.000 808
(12/16) Stxtl
(12/16) stringwidth pop xratio div
dup 4 3 roll exch 0.000 cos mul add 3 1 roll 0.000 sin mul add 2 copy
pop pop pop pop
/Slw 0.576 def
2350 4415 2350 21047 Sln
2350 4926 2027 4926 Sln
1623 4926 0
/Helvetica-0 findfont 808 yratio mul scalefont setfont
(96) stringwidth pop add
2 div xratio div
dup 4 3 roll exch 90.000 cos mul sub 3 1 roll 90.000 sin mul sub 2 copy
/fntsize {/Helvetica-0 findfont exch scalefont setfont } def
90.000 808
(96) Stxtl
(96) stringwidth pop xratio div
dup 4 3 roll exch 90.000 cos mul add 3 1 roll 90.000 sin mul add 2 copy
pop pop pop pop
2350 8048 2027 8048 Sln
1623 8048 0
/Helvetica-0 findfont 808 yratio mul scalefont setfont
(97) stringwidth pop add
2 div xratio div
dup 4 3 roll exch 90.000 cos mul sub 3 1 roll 90.000 sin mul sub 2 copy
/fntsize {/Helvetica-0 findfont exch scalefont setfont } def
90.000 808
(97) Stxtl
(97) stringwidth pop xratio div
dup 4 3 roll exch 90.000 cos mul add 3 1 roll 90.000 sin mul add 2 copy
pop pop pop pop
2350 11170 2027 11170 Sln
1623 11170 0
/Helvetica-0 findfont 808 yratio mul scalefont setfont
(98) stringwidth pop add
2 div xratio div
dup 4 3 roll exch 90.000 cos mul sub 3 1 roll 90.000 sin mul sub 2 copy
/fntsize {/Helvetica-0 findfont exch scalefont setfont } def
90.000 808
(98) Stxtl
(98) stringwidth pop xratio div
dup 4 3 roll exch 90.000 cos mul add 3 1 roll 90.000 sin mul add 2 copy
pop pop pop pop
2350 14292 2027 14292 Sln
1623 14292 0
/Helvetica-0 findfont 808 yratio mul scalefont setfont
(99) stringwidth pop add
2 div xratio div
dup 4 3 roll exch 90.000 cos mul sub 3 1 roll 90.000 sin mul sub 2 copy
/fntsize {/Helvetica-0 findfont exch scalefont setfont } def
90.000 808
(99) Stxtl
(99) stringwidth pop xratio div
dup 4 3 roll exch 90.000 cos mul add 3 1 roll 90.000 sin mul add 2 copy
pop pop pop pop
2350 17413 2027 17413 Sln
1623 17413 0
/Helvetica-0 findfont 808 yratio mul scalefont setfont
(100) stringwidth pop add
2 div xratio div
dup 4 3 roll exch 90.000 cos mul sub 3 1 roll 90.000 sin mul sub 2 copy
/fntsize {/Helvetica-0 findfont exch scalefont setfont } def
90.000 808
(100) Stxtl
(100) stringwidth pop xratio div
dup 4 3 roll exch 90.000 cos mul add 3 1 roll 90.000 sin mul add 2 copy
pop pop pop pop
2350 20535 2027 20535 Sln
1623 20535 0
/Helvetica-0 findfont 808 yratio mul scalefont setfont
(101) stringwidth pop add
2 div xratio div
dup 4 3 roll exch 90.000 cos mul sub 3 1 roll 90.000 sin mul sub 2 copy
/fntsize {/Helvetica-0 findfont exch scalefont setfont } def
90.000 808
(101) Stxtl
(101) stringwidth pop xratio div
dup 4 3 roll exch 90.000 cos mul add 3 1 roll 90.000 sin mul add 2 copy
pop pop pop pop
2350 4415 31184 4415 Sln
2862 4415 2862 4091 Sln
2862 3364 0
/Helvetica-0 findfont 808 yratio mul scalefont setfont
(Jul-2008) stringwidth pop add
2 div xratio div
dup 4 3 roll exch 0.000 cos mul sub 3 1 roll 0.000 sin mul sub 2 copy
/fntsize {/Helvetica-0 findfont exch scalefont setfont } def
0.000 808
(Jul-2008) Stxtl
(Jul-2008) stringwidth pop xratio div
dup 4 3 roll exch 0.000 cos mul add 3 1 roll 0.000 sin mul add 2 copy
pop pop pop pop
11278 4415 11278 4091 Sln
11278 3364 0
/Helvetica-0 findfont 808 yratio mul scalefont setfont
(Oct-2008) stringwidth pop add
2 div xratio div
dup 4 3 roll exch 0.000 cos mul sub 3 1 roll 0.000 sin mul sub 2 copy
/fntsize {/Helvetica-0 findfont exch scalefont setfont } def
0.000 808
(Oct-2008) Stxtl
(Oct-2008) stringwidth pop xratio div
dup 4 3 roll exch 0.000 cos mul add 3 1 roll 0.000 sin mul add 2 copy
pop pop pop pop
19695 4415 19695 4091 Sln
19695 3364 0
/Helvetica-0 findfont 808 yratio mul scalefont setfont
(Jan-2009) stringwidth pop add
2 div xratio div
dup 4 3 roll exch 0.000 cos mul sub 3 1 roll 0.000 sin mul sub 2 copy
/fntsize {/Helvetica-0 findfont exch scalefont setfont } def
0.000 808
(Jan-2009) Stxtl
(Jan-2009) stringwidth pop xratio div
dup 4 3 roll exch 0.000 cos mul add 3 1 roll 0.000 sin mul add 2 copy
pop pop pop pop
27928 4415 27928 4091 Sln
27928 3364 0
/Helvetica-0 findfont 808 yratio mul scalefont setfont
(Apr-2009) stringwidth pop add
2 div xratio div
dup 4 3 roll exch 0.000 cos mul sub 3 1 roll 0.000 sin mul sub 2 copy
/fntsize {/Helvetica-0 findfont exch scalefont setfont } def
0.000 808
(Apr-2009) Stxtl
(Apr-2009) stringwidth pop xratio div
dup 4 3 roll exch 0.000 cos mul add 3 1 roll 0.000 sin mul add 2 copy
pop pop pop pop
/Slrgb {1.000 1.000 1.000} def
10469 1094 23066 2600 1 Srect
/Slw 0.864 def
/Slrgb {0.000 0.000 0.000} def
10818 1847 13843 1847 Sln
17816 1847 18281 1847 Sln
18514 1847 18979 1847 Sln
19212 1847 19678 1847 Sln
19910 1847 20376 1847 Sln
20608 1847 20841 1847 Sln
14328 1564 2 copy
/fntsize {/Helvetica-0 findfont exch scalefont setfont } def
0.000 808
(Online) Stxtl
(Online) stringwidth pop xratio div
dup 4 3 roll exch 0.000 cos mul add 3 1 roll 0.000 sin mul add 2 copy
pop pop pop pop
21326 1564 2 copy
/fntsize {/Helvetica-0 findfont exch scalefont setfont } def
0.000 808
(CPI) Stxtl
(CPI) stringwidth pop xratio div
dup 4 3 roll exch 0.000 cos mul add 3 1 roll 0.000 sin mul add 2 copy
pop pop pop pop
16767 21526 0
/Helvetica-0 findfont 1131 yratio mul scalefont setfont
(Price Index) stringwidth pop add
2 div xratio div
dup 4 3 roll exch 0.000 cos mul sub 3 1 roll 0.000 sin mul sub 2 copy
/fntsize {/Helvetica-0 findfont exch scalefont setfont } def
0.000 1131
(Price Index) Stxtl
(Price Index) stringwidth pop xratio div
dup 4 3 roll exch 0.000 cos mul add 3 1 roll 0.000 sin mul add 2 copy
pop pop pop pop
S showpage
%%EOF
