%!PS-Adobe-2.0 EPSF-2.0
%% This is a Stata generated postscript file
%%BoundingBox: 0 0 396 288
%%HiResBoundingBox: 0.000 0.000 396.000 288.000
%%DocumentNeededResources: font Helvetica
/xratio 0.012375 def
/yratio 0.012375 def
/Sbgfill {
	/y1 exch def
	/x1 exch def
	/y0 exch def
	/x0 exch def
	x0 y0 moveto
	x0 y1 lineto x1 y1 lineto x1 y0 lineto x0 y0 lineto
	fill
} def
/Spt {
	yratio mul
	/yp exch def
	xratio mul
	/xp exch def
	Slrgb setrgbcolor
	xp yp .5 0 360 arc fill
} def
/Sln {
	yratio mul
	/y1p exch def
	xratio mul
	/x1p exch def
	yratio mul
	/y0p exch def
	xratio mul
	/x0p exch def
	Slw setlinewidth
	Slrgb setrgbcolor
	x0p y0p M x1p y1p lineto S
} def
/Scrv {
	yratio mul
	/y3p exch def
	xratio mul
	/x3p exch def
	yratio mul
	/y2p exch def
	xratio mul
	/x2p exch def
	yratio mul
	/y1p exch def
	xratio mul
	/x1p exch def
	Slw setlinewidth
	Slrgb setrgbcolor
	x1p y1p x2p y2p x3p y3p curveto
	stroke
} def
/Stxtl {
	/sp exch def
	yratio mul
	/sizep exch def
	dup
	/anglep exch def
	0 exch sub
	/angle2p exch def
	yratio mul
	/y0p exch def
	xratio mul
	/x0p exch def
	Strgb setrgbcolor
	x0p y0p M anglep rotate sizep fntsize sp show stroke angle2p rotate
} def
/Stxtc {
	/sp exch def
	yratio mul
	/sizep exch def
	dup
	/anglep exch def
	0 exch sub
	/angle2p exch def
	yratio mul
	/y0p exch def
	xratio mul
	/x0p exch def
	Strgb setrgbcolor
	x0p y0p M anglep rotate sizep fntsize sp stringwidth exch -2 div exch rm sp show stroke angle2p rotate
} def
/Stxtr {
	/sp exch def
	yratio mul
	/sizep exch def
	dup
	/anglep exch def
	0 exch sub
	/angle2p exch def
	yratio mul
	/y0p exch def
	xratio mul
	/x0p exch def
	Strgb setrgbcolor
	x0p y0p M anglep rotate sizep fntsize sp stringwidth 1 index -1 mul exch rm pop sp show stroke angle2p rotate
} def
/Srect {
	/sfill exch def
	yratio mul
	/y1 exch def
	xratio mul
	/x1 exch def
	yratio mul
	/y0 exch def
	xratio mul
	/x0 exch def
	newpath x0 y0 moveto x0 y1 lineto x1 y1 lineto x1 y0 lineto x0 y0 lineto closepath
	sfill 1 eq {
		Ssrgb setrgbcolor
		gsave
		fill
		grestore
	} if
	Slw setlinewidth
	Slrgb setrgbcolor
	stroke
} def
/Sellipse {
	/sfill exch def
	yratio mul
	/yrad exch def
	xratio mul
	/xrad exch def
	yratio mul
	/y exch def
	xratio mul
	/x exch def
	/savematrix matrix currentmatrix def
	x y translate
	xrad yrad scale
	0 0 1 0 360 arc
	savematrix setmatrix
	sfill 1 eq {
		Ssrgb setrgbcolor
		gsave
		fill
		grestore
	} if
	Slw setlinewidth
	Slrgb setrgbcolor
	stroke
} def
/Stri {
	/sfill exch def
	xratio mul
	/r exch def
	yratio mul
	/y0 exch def
	xratio mul
	/x0 exch def
	/xcen x0 def
	y0 r add
	/ytop exch def
	r 2 div
	y0 exch sub
	/ybot exch def
	r 3 sqrt 2 div mul dup
	xcen exch sub
	/xleft exch def
	xcen add
	/xright exch def
	newpath xcen ytop moveto xright ybot lineto xleft ybot lineto xcen ytop lineto closepath
	sfill 1 eq {
		Ssrgb setrgbcolor
		gsave
		fill
		grestore
	} if
	Slw setlinewidth
	Slrgb setrgbcolor
	stroke
} def
/Soldtri {
	/sfill exch def
	xratio mul
	/r exch def
	yratio mul
	/y0 exch def
	xratio mul
	/x0 exch def
	x0 r sub
	/x1 exch def
	y0 r sub
	/y1 exch def
	x0 r add
	/x2 exch def
	y0 r sub
	/y2 exch def
	/x3 x0 def
	y0 r add
	/y3 exch def
	newpath x1 y1 moveto x2 y2 lineto x3 y3 lineto x1 y1 lineto closepath
	sfill 1 eq {
		Ssrgb setrgbcolor
		gsave
		fill
		grestore
	} if
	Slw setlinewidth
	Slrgb setrgbcolor
	stroke
} def
/Sdia {
	/sfill exch def
	xratio mul
	/r exch def
	yratio mul
	/y exch def
	xratio mul
	/x exch def
	x r sub
	/x0 exch def
	/y0 y def
	/x1 x def
	y r sub
	/y1 exch def
	x r add
	/x2 exch def
	/y2 y def
	/x3 x def
	y r add
	/y3 exch def
	newpath x0 y0 moveto x1 y1 lineto x2 y2 lineto x3 y3 lineto x0 y0 lineto closepath
	sfill 1 eq {
		Ssrgb setrgbcolor
		gsave
		fill
		grestore
	} if
	Slw setlinewidth
	Slrgb setrgbcolor
	stroke
} def
/Scc {
	/sfill exch def
	xratio mul
	/r0 exch def
	yratio mul
	/y0 exch def
	xratio mul
	/x0 exch def
	x0 y0 r0 0 360 arc closepath
	sfill 1 eq {
		Ssrgb setrgbcolor
		gsave
		fill
		grestore
	} if
	Slw setlinewidth
	Slrgb setrgbcolor
	stroke
} def
/Spie {
	/sfill exch def
	/a1 exch def
	/a0 exch def
	xratio mul
	/r exch def
	yratio mul
	/y exch def
	xratio mul
	/x exch def
	newpath x y moveto x y r a0 a1 arc closepath
	sfill 1 eq {
		Ssrgb setrgbcolor
		gsave
		fill
		grestore
	} if
	Slw setlinewidth
	Slrgb setrgbcolor
	stroke
} def
/Splu {
	xratio mul
	/r exch def
	yratio mul
	/y exch def
	xratio mul
	/x exch def
	x r sub
	/x0 exch def
	x r add
	/x1 exch def
	x0 y M x1 y L
	y r sub
	/y0 exch def
	y r add
	/y1 exch def
	x y0 M x y1 L
} def
/Scro {
	xratio mul
	/r exch def
	yratio mul
	/y exch def
	xratio mul
	/x exch def
	x r sub
	/x0 exch def
	y r sub
	/y0 exch def
	x r add
	/x1 exch def
	y r add
	/y1 exch def
	x0 y0 M x1 y1 L
	x r add
	/x0 exch def
	y r sub
	/y0 exch def
	x r sub
	/x1 exch def
	y r add
	/y1 exch def
	x0 y0 M x1 y1 L
} def
/Sm {
	yratio mul
	/y exch def
	xratio mul
	/x exch def
	x y M
} def
/Sl {
	yratio mul
	/y exch def
	xratio mul
	/x exch def
	x y L
} def
/SPl {
	yratio mul
	/y exch def
	xratio mul
	/x exch def
	x y PL
} def
/Lcs {
	currentlinecap
	1 setlinecap
} def
/Lcr {
	setlinecap
} def
/Sbp {
	newpath
} def
/Sep {
	/sfill exch def
	closepath
	sfill 1 eq  {
		Ssrgb setrgbcolor
		gsave
		fill
		grestore
	} if
	Slw setlinewidth
	Slrgb setrgbcolor
	Lcs
	stroke
	Lcr
} def
/cp {currentpoint} def 
/M {moveto} def 
/rm {rmoveto} def 
/S {stroke} def 
/L {Slw setlinewidth Slrgb setrgbcolor lineto Lcs S Lcr} def 
/PL {Slw setlinewidth Slrgb setrgbcolor lineto} def 
/MF-Helvetica {
  /newfontname exch def
  /fontname exch def
  /fontdict fontname findfont def
  /newfont fontdict maxlength dict def
  fontdict {
  exch dup /FID eq {pop pop} {exch newfont 3 1 roll put} ifelse
  } forall
  newfont /FontName newfontname put
  newfont /Encoding ISOLatin1Encoding put
  newfontname newfont definefont pop
} def
/Helvetica /Helvetica-0 MF-Helvetica
/Slw 0.120 def
1.000 1.000 1.000 setrgbcolor
0 0 396.000 288.000 Sbgfill
/Slrgb {1.000 1.000 1.000} def
/Strgb {1.000 1.000 1.000} def
/Ssrgb {1.000 1.000 1.000} def
/Slw 0.576 def
0 0 31999 23272 1 Srect
3158 4415 31184 21047 1 Srect
/Slrgb {0.000 0.000 0.000} def
/Strgb {0.000 0.000 0.000} def
/Slw 0.864 def
/Slrgb {0.910 0.910 0.910} def
3158 4926 31184 4926 Sln
/Slw 0.576 def
/Slrgb {0.000 0.000 0.000} def
/Slw 0.864 def
/Slrgb {0.910 0.910 0.910} def
3158 8829 31184 8829 Sln
/Slw 0.576 def
/Slrgb {0.000 0.000 0.000} def
/Slw 0.864 def
/Slrgb {0.910 0.910 0.910} def
3158 12731 31184 12731 Sln
/Slw 0.576 def
/Slrgb {0.000 0.000 0.000} def
/Slw 0.864 def
/Slrgb {0.910 0.910 0.910} def
3158 16633 31184 16633 Sln
/Slw 0.576 def
/Slrgb {0.000 0.000 0.000} def
/Slw 0.864 def
/Slrgb {0.910 0.910 0.910} def
3158 20535 31184 20535 Sln
/Slw 0.576 def
/Slrgb {0.000 0.000 0.000} def
/Slw 0.864 def
10765 15214 Sm
10780 14609 Sl
10780 14609 Sm
10794 14513 Sl
10794 14513 Sm
10809 14371 Sl
10809 14371 Sm
10823 14294 Sl
10823 14294 Sm
10838 14249 Sl
10838 14249 Sm
10853 14180 Sl
10853 14180 Sm
10867 14303 Sl
10867 14303 Sm
10882 14356 Sl
10882 14356 Sm
10896 14374 Sl
10896 14374 Sm
10911 14404 Sl
10911 14404 Sm
10925 14406 Sl
10925 14406 Sm
10940 14431 Sl
10940 14431 Sm
10954 14493 Sl
10954 14493 Sm
10969 14630 Sl
10969 14630 Sm
10983 14639 Sl
10983 14639 Sm
10998 14632 Sl
10998 14632 Sm
11013 14630 Sl
11013 14630 Sm
11027 14629 Sl
11027 14629 Sm
11042 14731 Sl
11042 14731 Sm
11056 14822 Sl
11056 14822 Sm
11071 14942 Sl
11071 14942 Sm
11085 15000 Sl
11085 15000 Sm
11100 15054 Sl
11100 15054 Sm
11114 15096 Sl
11114 15096 Sm
11129 15139 Sl
11129 15139 Sm
11143 15236 Sl
11143 15236 Sm
11158 15327 Sl
11158 15327 Sm
11172 15423 Sl
11172 15423 Sm
11187 15495 Sl
11187 15495 Sm
11202 15579 Sl
11202 15579 Sm
11216 15669 Sl
11216 15669 Sm
11231 15739 Sl
11231 15739 Sm
11245 15824 Sl
11245 15824 Sm
11260 15909 Sl
11260 15909 Sm
11274 16013 Sl
11274 16013 Sm
11289 16115 Sl
11289 16115 Sm
11303 16139 Sl
11303 16139 Sm
11318 16175 Sl
11318 16175 Sm
11332 16207 Sl
11332 16207 Sm
11347 16242 Sl
11347 16242 Sm
11362 16308 Sl
11362 16308 Sm
11376 16386 Sl
11376 16386 Sm
11391 16425 Sl
11391 16425 Sm
11405 16436 Sl
11405 16436 Sm
11420 16518 Sl
11420 16518 Sm
11434 16595 Sl
11434 16595 Sm
11449 16687 Sl
11449 16687 Sm
11463 16775 Sl
11463 16775 Sm
11478 16806 Sl
11478 16806 Sm
11492 16860 Sl
11492 16860 Sm
11507 16861 Sl
11507 16861 Sm
11521 16909 Sl
11521 16909 Sm
11536 16942 Sl
11536 16942 Sm
11551 16999 Sl
11551 16999 Sm
11565 17026 Sl
11565 17026 Sm
11580 16995 Sl
11580 16995 Sm
11594 16970 Sl
11594 16970 Sm
11609 16907 Sl
11609 16907 Sm
11623 16861 Sl
11623 16861 Sm
11638 16782 Sl
11638 16782 Sm
11652 16795 Sl
11652 16795 Sm
11667 16808 Sl
11667 16808 Sm
11681 16852 Sl
11681 16852 Sm
11696 16884 Sl
11696 16884 Sm
11710 16882 Sl
11710 16882 Sm
11725 16905 Sl
11725 16905 Sm
11740 16939 Sl
11740 16939 Sm
11754 16991 Sl
11754 16991 Sm
11769 17020 Sl
11769 17020 Sm
11783 17074 Sl
11783 17074 Sm
11798 17109 Sl
11798 17109 Sm
11812 17136 Sl
11812 17136 Sm
11827 17186 Sl
11827 17186 Sm
11841 17206 Sl
11841 17206 Sm
11856 17233 Sl
11856 17233 Sm
11870 17227 Sl
11870 17227 Sm
11885 17281 Sl
11885 17281 Sm
11900 17296 Sl
11900 17296 Sm
11914 17319 Sl
11914 17319 Sm
11929 17339 Sl
11929 17339 Sm
11943 17355 Sl
11943 17355 Sm
11958 17388 Sl
11958 17388 Sm
11972 17433 Sl
11972 17433 Sm
11987 17499 Sl
11987 17499 Sm
12001 17566 Sl
12001 17566 Sm
12016 17627 Sl
12016 17627 Sm
12030 17686 Sl
12030 17686 Sm
12045 17760 Sl
12045 17760 Sm
12059 17875 Sl
12059 17875 Sm
12074 17992 Sl
12074 17992 Sm
12089 18035 Sl
12089 18035 Sm
12103 17995 Sl
12103 17995 Sm
12118 17935 Sl
12118 17935 Sm
12132 17866 Sl
12132 17866 Sm
12147 17821 Sl
12147 17821 Sm
12161 17779 Sl
12161 17779 Sm
12176 17733 Sl
12176 17733 Sm
12190 17706 Sl
12190 17706 Sm
12205 17686 Sl
12205 17686 Sm
12219 17628 Sl
12219 17628 Sm
12234 17577 Sl
12234 17577 Sm
12249 17515 Sl
12249 17515 Sm
12263 17458 Sl
12263 17458 Sm
12278 17389 Sl
12278 17389 Sm
12292 17344 Sl
12292 17344 Sm
12307 17320 Sl
12307 17320 Sm
12321 17245 Sl
12321 17245 Sm
12336 17210 Sl
12336 17210 Sm
12350 17158 Sl
12350 17158 Sm
12365 17133 Sl
12365 17133 Sm
12379 17099 Sl
12379 17099 Sm
12394 17065 Sl
12394 17065 Sm
12408 16987 Sl
12408 16987 Sm
12423 16866 Sl
12423 16866 Sm
12438 16770 Sl
12438 16770 Sm
12452 16669 Sl
12452 16669 Sm
12467 16581 Sl
12467 16581 Sm
12481 16513 Sl
12481 16513 Sm
12496 16438 Sl
12496 16438 Sm
12510 16307 Sl
12510 16307 Sm
12525 16195 Sl
12525 16195 Sm
12539 16147 Sl
12539 16147 Sm
12554 16092 Sl
12554 16092 Sm
12568 16055 Sl
12568 16055 Sm
12583 15995 Sl
12583 15995 Sm
12597 15964 Sl
12597 15964 Sm
12612 15918 Sl
12612 15918 Sm
12627 15831 Sl
12627 15831 Sm
12641 15760 Sl
12641 15760 Sm
12656 15692 Sl
12656 15692 Sm
12670 15632 Sl
12670 15632 Sm
12685 15559 Sl
12685 15559 Sm
12699 15503 Sl
12699 15503 Sm
12714 15433 Sl
12714 15433 Sm
12728 15357 Sl
12728 15357 Sm
12743 15264 Sl
12743 15264 Sm
12757 15126 Sl
12757 15126 Sm
12772 15017 Sl
12772 15017 Sm
12787 14906 Sl
12787 14906 Sm
12801 14792 Sl
12801 14792 Sm
12816 14668 Sl
12816 14668 Sm
12830 14523 Sl
12830 14523 Sm
12845 14417 Sl
12845 14417 Sm
12859 14281 Sl
12859 14281 Sm
12874 14136 Sl
12874 14136 Sm
12888 13999 Sl
12888 13999 Sm
12903 13889 Sl
12903 13889 Sm
12917 13761 Sl
12917 13761 Sm
12932 13630 Sl
12932 13630 Sm
12946 13547 Sl
12946 13547 Sm
12961 13448 Sl
12961 13448 Sm
12976 13367 Sl
12976 13367 Sm
12990 13277 Sl
12990 13277 Sm
13005 13177 Sl
13005 13177 Sm
13019 13091 Sl
13019 13091 Sm
13034 12969 Sl
13034 12969 Sm
13048 12867 Sl
13048 12867 Sm
13063 12765 Sl
13063 12765 Sm
13077 12671 Sl
13077 12671 Sm
13092 12573 Sl
13092 12573 Sm
13106 12476 Sl
13106 12476 Sm
13121 12384 Sl
13121 12384 Sm
13136 12297 Sl
13136 12297 Sm
13150 12242 Sl
13150 12242 Sm
13165 12166 Sl
13165 12166 Sm
13179 12110 Sl
13179 12110 Sm
13194 12088 Sl
13194 12088 Sm
13208 12035 Sl
13208 12035 Sm
13223 11987 Sl
13223 11987 Sm
13237 11937 Sl
13237 11937 Sm
13252 11914 Sl
13252 11914 Sm
13266 11884 Sl
13266 11884 Sm
13281 11859 Sl
13281 11859 Sm
13295 11870 Sl
13295 11870 Sm
13310 11868 Sl
13310 11868 Sm
13325 11869 Sl
13325 11869 Sm
13339 11834 Sl
13339 11834 Sm
13354 11802 Sl
13354 11802 Sm
13368 11763 Sl
13368 11763 Sm
13383 11749 Sl
13383 11749 Sm
13397 11731 Sl
13397 11731 Sm
13412 11718 Sl
13412 11718 Sm
13426 11711 Sl
13426 11711 Sm
13441 11675 Sl
13441 11675 Sm
13455 11635 Sl
13455 11635 Sm
13470 11601 Sl
13470 11601 Sm
13485 11571 Sl
13485 11571 Sm
13499 11544 Sl
13499 11544 Sm
13514 11507 Sl
13514 11507 Sm
13528 11491 Sl
13528 11491 Sm
13543 11469 Sl
13543 11469 Sm
13557 11417 Sl
13557 11417 Sm
13572 11378 Sl
13572 11378 Sm
13586 11356 Sl
13586 11356 Sm
13601 11339 Sl
13601 11339 Sm
13615 11321 Sl
13615 11321 Sm
13630 11290 Sl
13630 11290 Sm
13644 11289 Sl
13644 11289 Sm
13659 11276 Sl
13659 11276 Sm
13674 11250 Sl
13674 11250 Sm
13688 11235 Sl
13688 11235 Sm
13703 11221 Sl
13703 11221 Sm
13717 11207 Sl
13717 11207 Sm
13732 11179 Sl
13732 11179 Sm
13746 11171 Sl
13746 11171 Sm
13761 11167 Sl
13761 11167 Sm
13775 11166 Sl
13775 11166 Sm
13790 11173 Sl
13790 11173 Sm
13804 11184 Sl
13804 11184 Sm
13819 11184 Sl
13819 11184 Sm
13833 11178 Sl
13833 11178 Sm
13848 11162 Sl
13848 11162 Sm
13863 11125 Sl
13863 11125 Sm
13877 11127 Sl
13877 11127 Sm
13892 11139 Sl
13892 11139 Sm
13906 11153 Sl
13906 11153 Sm
13921 11191 Sl
13921 11191 Sm
13935 11212 Sl
13935 11212 Sm
13950 11242 Sl
13950 11242 Sm
13964 11251 Sl
13964 11251 Sm
13979 11266 Sl
13979 11266 Sm
13993 11333 Sl
13993 11333 Sm
14008 11367 Sl
14008 11367 Sm
14023 11378 Sl
14023 11378 Sm
14037 11370 Sl
14037 11370 Sm
14052 11356 Sl
14052 11356 Sm
14066 11355 Sl
14066 11355 Sm
14081 11343 Sl
14081 11343 Sm
14095 11360 Sl
14095 11360 Sm
14110 11375 Sl
14110 11375 Sm
14124 11375 Sl
14124 11375 Sm
14139 11359 Sl
14139 11359 Sm
14153 11324 Sl
14153 11324 Sm
14168 11302 Sl
14168 11302 Sm
14182 11279 Sl
14182 11279 Sm
14197 11282 Sl
14197 11282 Sm
14212 11277 Sl
14212 11277 Sm
14226 11249 Sl
14226 11249 Sm
14241 11214 Sl
14241 11214 Sm
14255 11168 Sl
14255 11168 Sm
14270 11119 Sl
14270 11119 Sm
14284 11064 Sl
14284 11064 Sm
14299 11039 Sl
14299 11039 Sm
14313 11013 Sl
14313 11013 Sm
14328 10987 Sl
14328 10987 Sm
14342 10936 Sl
14342 10936 Sm
14357 10834 Sl
14357 10834 Sm
14372 10745 Sl
14372 10745 Sm
14386 10689 Sl
14386 10689 Sm
14401 10609 Sl
14401 10609 Sm
14415 10530 Sl
14415 10530 Sm
14430 10472 Sl
14430 10472 Sm
14444 10413 Sl
14444 10413 Sm
14459 10361 Sl
14459 10361 Sm
14473 10307 Sl
14473 10307 Sm
14488 10269 Sl
14488 10269 Sm
14502 10221 Sl
14502 10221 Sm
14517 10175 Sl
14517 10175 Sm
14531 10095 Sl
14531 10095 Sm
14546 10012 Sl
14546 10012 Sm
14561 9934 Sl
14561 9934 Sm
14575 9876 Sl
14575 9876 Sm
14590 9841 Sl
14590 9841 Sm
14604 9802 Sl
14604 9802 Sm
14619 9761 Sl
14619 9761 Sm
14633 9696 Sl
14633 9696 Sm
14648 9649 Sl
14648 9649 Sm
14662 9618 Sl
14662 9618 Sm
14677 9601 Sl
14677 9601 Sm
14691 9621 Sl
14691 9621 Sm
14706 9642 Sl
14706 9642 Sm
14720 9676 Sl
14720 9676 Sm
14735 9640 Sl
14735 9640 Sm
14750 9619 Sl
14750 9619 Sm
14764 9601 Sl
14764 9601 Sm
14779 9601 Sl
14779 9601 Sm
14793 9618 Sl
14793 9618 Sm
14808 9650 Sl
14808 9650 Sm
14822 9646 Sl
14822 9646 Sm
14837 9663 Sl
14837 9663 Sm
14851 9613 Sl
14851 9613 Sm
14866 9507 Sl
14866 9507 Sm
14880 9413 Sl
14880 9413 Sm
14895 9349 Sl
14895 9349 Sm
14910 9319 Sl
14910 9319 Sm
14924 9286 Sl
14924 9286 Sm
14939 9259 Sl
14939 9259 Sm
14953 9219 Sl
14953 9219 Sm
14968 9205 Sl
14968 9205 Sm
14982 9190 Sl
14982 9190 Sm
14997 9178 Sl
14997 9178 Sm
15011 9164 Sl
15011 9164 Sm
15026 9141 Sl
15026 9141 Sm
15040 9130 Sl
15040 9130 Sm
15055 9154 Sl
15055 9154 Sm
15069 9170 Sl
15069 9170 Sm
15084 9174 Sl
15084 9174 Sm
15099 9189 Sl
15099 9189 Sm
15113 9176 Sl
15113 9176 Sm
15128 9128 Sl
15128 9128 Sm
15142 9087 Sl
15142 9087 Sm
15157 9050 Sl
15157 9050 Sm
15171 9063 Sl
15171 9063 Sm
15186 9066 Sl
15186 9066 Sm
15200 9055 Sl
15200 9055 Sm
15215 9048 Sl
15215 9048 Sm
15229 9052 Sl
15229 9052 Sm
15244 9033 Sl
15244 9033 Sm
15259 9032 Sl
15259 9032 Sm
15273 9029 Sl
15273 9029 Sm
15288 9100 Sl
15288 9100 Sm
15302 9179 Sl
15302 9179 Sm
15317 9218 Sl
15317 9218 Sm
15331 9227 Sl
15331 9227 Sm
15346 9219 Sl
15346 9219 Sm
15360 9236 Sl
15360 9236 Sm
15375 9265 Sl
15375 9265 Sm
15389 9283 Sl
15389 9283 Sm
15404 9278 Sl
15404 9278 Sm
15418 9270 Sl
15418 9270 Sm
15433 9265 Sl
15433 9265 Sm
15448 9269 Sl
15448 9269 Sm
15462 9271 Sl
15462 9271 Sm
15477 9279 Sl
15477 9279 Sm
15491 9239 Sl
15491 9239 Sm
15506 9204 Sl
15506 9204 Sm
15520 9136 Sl
15520 9136 Sm
15535 9048 Sl
15535 9048 Sm
15549 9008 Sl
15549 9008 Sm
15564 8972 Sl
15564 8972 Sm
15578 8937 Sl
15578 8937 Sm
15593 8953 Sl
15593 8953 Sm
15607 8964 Sl
15607 8964 Sm
15622 8934 Sl
15622 8934 Sm
15637 8906 Sl
15637 8906 Sm
15651 8880 Sl
15651 8880 Sm
15666 8839 Sl
15666 8839 Sm
15680 8821 Sl
15680 8821 Sm
15695 8773 Sl
15695 8773 Sm
15709 8735 Sl
15709 8735 Sm
15724 8674 Sl
15724 8674 Sm
15738 8629 Sl
15738 8629 Sm
15753 8640 Sl
15753 8640 Sm
15767 8625 Sl
15767 8625 Sm
15782 8633 Sl
15782 8633 Sm
15797 8624 Sl
15797 8624 Sm
15811 8619 Sl
15811 8619 Sm
15826 8607 Sl
15826 8607 Sm
15840 8611 Sl
15840 8611 Sm
15855 8621 Sl
15855 8621 Sm
15869 8610 Sl
15869 8610 Sm
15884 8605 Sl
15884 8605 Sm
15898 8594 Sl
15898 8594 Sm
15913 8585 Sl
15913 8585 Sm
15927 8610 Sl
15927 8610 Sm
15942 8636 Sl
15942 8636 Sm
15956 8677 Sl
15956 8677 Sm
15971 8751 Sl
15971 8751 Sm
15986 8795 Sl
15986 8795 Sm
16000 8836 Sl
16000 8836 Sm
16015 8878 Sl
16015 8878 Sm
16029 8842 Sl
16029 8842 Sm
16044 8815 Sl
16044 8815 Sm
16058 8855 Sl
16058 8855 Sm
16073 8919 Sl
16073 8919 Sm
16087 8970 Sl
16087 8970 Sm
16102 9030 Sl
16102 9030 Sm
16116 9082 Sl
16116 9082 Sm
16131 9141 Sl
16131 9141 Sm
16146 9190 Sl
16146 9190 Sm
16160 9249 Sl
16160 9249 Sm
16175 9291 Sl
16175 9291 Sm
16189 9299 Sl
16189 9299 Sm
16204 9320 Sl
16204 9320 Sm
16218 9306 Sl
16218 9306 Sm
16233 9312 Sl
16233 9312 Sm
16247 9302 Sl
16247 9302 Sm
16262 9308 Sl
16262 9308 Sm
16276 9288 Sl
16276 9288 Sm
16291 9295 Sl
16291 9295 Sm
16305 9322 Sl
16305 9322 Sm
16320 9335 Sl
16320 9335 Sm
16335 9365 Sl
16335 9365 Sm
16349 9383 Sl
16349 9383 Sm
16364 9406 Sl
16364 9406 Sm
16378 9399 Sl
16378 9399 Sm
16393 9410 Sl
16393 9410 Sm
16407 9400 Sl
16407 9400 Sm
16422 9423 Sl
16422 9423 Sm
16436 9445 Sl
16436 9445 Sm
16451 9432 Sl
16451 9432 Sm
16465 9455 Sl
16465 9455 Sm
16480 9466 Sl
16480 9466 Sm
16494 9462 Sl
16494 9462 Sm
16509 9410 Sl
16509 9410 Sm
16524 9376 Sl
16524 9376 Sm
16538 9349 Sl
16538 9349 Sm
16553 9321 Sl
16553 9321 Sm
16567 9292 Sl
16567 9292 Sm
16582 9268 Sl
16582 9268 Sm
16596 9249 Sl
16596 9249 Sm
16611 9263 Sl
16611 9263 Sm
16625 9282 Sl
16625 9282 Sm
16640 9318 Sl
16640 9318 Sm
16654 9368 Sl
16654 9368 Sm
16669 9378 Sl
16669 9378 Sm
16684 9370 Sl
16684 9370 Sm
16698 9373 Sl
16698 9373 Sm
16713 9383 Sl
16713 9383 Sm
16727 9368 Sl
16727 9368 Sm
16742 9346 Sl
16742 9346 Sm
16756 9323 Sl
16756 9323 Sm
16771 9291 Sl
16771 9291 Sm
16785 9256 Sl
16785 9256 Sm
16800 9201 Sl
16800 9201 Sm
16814 9175 Sl
16814 9175 Sm
16829 9142 Sl
16829 9142 Sm
16843 9108 Sl
16843 9108 Sm
16858 8975 Sl
16858 8975 Sm
16873 8870 Sl
16873 8870 Sm
16887 8846 Sl
16887 8846 Sm
16902 8811 Sl
16902 8811 Sm
16916 8813 Sl
16916 8813 Sm
16931 8818 Sl
16931 8818 Sm
16945 8828 Sl
16945 8828 Sm
16960 8783 Sl
16960 8783 Sm
16974 8736 Sl
16974 8736 Sm
16989 8664 Sl
16989 8664 Sm
17003 8596 Sl
17003 8596 Sm
17018 8546 Sl
17018 8546 Sm
17033 8496 Sl
17033 8496 Sm
17047 8434 Sl
17047 8434 Sm
17062 8351 Sl
17062 8351 Sm
17076 8284 Sl
17076 8284 Sm
17091 8208 Sl
17091 8208 Sm
17105 8144 Sl
17105 8144 Sm
17120 8094 Sl
17120 8094 Sm
17134 8033 Sl
17134 8033 Sm
17149 7981 Sl
17149 7981 Sm
17163 7926 Sl
17163 7926 Sm
17178 7886 Sl
17178 7886 Sm
17192 7837 Sl
17192 7837 Sm
17207 7802 Sl
17207 7802 Sm
17222 7769 Sl
17222 7769 Sm
17236 7730 Sl
17236 7730 Sm
17251 7688 Sl
17251 7688 Sm
17265 7656 Sl
17265 7656 Sm
17280 7623 Sl
17280 7623 Sm
17294 7639 Sl
17294 7639 Sm
17309 7632 Sl
17309 7632 Sm
17323 7582 Sl
17323 7582 Sm
17338 7533 Sl
17338 7533 Sm
17352 7468 Sl
17352 7468 Sm
17367 7384 Sl
17367 7384 Sm
17381 7338 Sl
17381 7338 Sm
17396 7339 Sl
17396 7339 Sm
17411 7339 Sl
17411 7339 Sm
17425 7354 Sl
17425 7354 Sm
17440 7383 Sl
17440 7383 Sm
17454 7390 Sl
17454 7390 Sm
17469 7392 Sl
17469 7392 Sm
17483 7389 Sl
17483 7389 Sm
17498 7402 Sl
17498 7402 Sm
17512 7394 Sl
17512 7394 Sm
17527 7398 Sl
17527 7398 Sm
17541 7406 Sl
17541 7406 Sm
17556 7418 Sl
17556 7418 Sm
17571 7432 Sl
17571 7432 Sm
17585 7451 Sl
17585 7451 Sm
17600 7469 Sl
17600 7469 Sm
17614 7477 Sl
17614 7477 Sm
17629 7498 Sl
17629 7498 Sm
17643 7515 Sl
17643 7515 Sm
17658 7534 Sl
17658 7534 Sm
17672 7557 Sl
17672 7557 Sm
17687 7596 Sl
17687 7596 Sm
17701 7630 Sl
17701 7630 Sm
17716 7672 Sl
17716 7672 Sm
17730 7745 Sl
17730 7745 Sm
17745 7814 Sl
17745 7814 Sm
17760 7889 Sl
17760 7889 Sm
17774 7953 Sl
17774 7953 Sm
17789 8008 Sl
17789 8008 Sm
17803 8045 Sl
17803 8045 Sm
17818 8078 Sl
17818 8078 Sm
17832 8134 Sl
17832 8134 Sm
17847 8192 Sl
17847 8192 Sm
17861 8253 Sl
17861 8253 Sm
17876 8288 Sl
17876 8288 Sm
17890 8344 Sl
17890 8344 Sm
17905 8412 Sl
17905 8412 Sm
17920 8480 Sl
17920 8480 Sm
17934 8557 Sl
17934 8557 Sm
17949 8635 Sl
17949 8635 Sm
17963 8705 Sl
17963 8705 Sm
17978 8771 Sl
17978 8771 Sm
17992 8824 Sl
17992 8824 Sm
18007 8873 Sl
18007 8873 Sm
18021 8927 Sl
18021 8927 Sm
18036 8973 Sl
18036 8973 Sm
18050 9028 Sl
18050 9028 Sm
18065 9099 Sl
18065 9099 Sm
18079 9163 Sl
18079 9163 Sm
18094 9230 Sl
18094 9230 Sm
18109 9306 Sl
18109 9306 Sm
18123 9379 Sl
18123 9379 Sm
18138 9451 Sl
18138 9451 Sm
18152 9521 Sl
18152 9521 Sm
18167 9612 Sl
18167 9612 Sm
18181 9716 Sl
18181 9716 Sm
18196 9809 Sl
18196 9809 Sm
18210 9901 Sl
18210 9901 Sm
18225 10006 Sl
18225 10006 Sm
18239 10128 Sl
18239 10128 Sm
18254 10243 Sl
18254 10243 Sm
18268 10333 Sl
18268 10333 Sm
18283 10422 Sl
18283 10422 Sm
18298 10527 Sl
18298 10527 Sm
18312 10662 Sl
18312 10662 Sm
18327 10782 Sl
18327 10782 Sm
18341 10899 Sl
18341 10899 Sm
18356 11021 Sl
18356 11021 Sm
18370 11141 Sl
18370 11141 Sm
18385 11256 Sl
18385 11256 Sm
18399 11368 Sl
18399 11368 Sm
18414 11481 Sl
18414 11481 Sm
18428 11612 Sl
18428 11612 Sm
18443 11746 Sl
18443 11746 Sm
18458 11868 Sl
18458 11868 Sm
18472 12000 Sl
18472 12000 Sm
18487 12129 Sl
18487 12129 Sm
18501 12235 Sl
18501 12235 Sm
18516 12347 Sl
18516 12347 Sm
18530 12451 Sl
18530 12451 Sm
18545 12548 Sl
18545 12548 Sm
18559 12635 Sl
18559 12635 Sm
18574 12729 Sl
18574 12729 Sm
18588 12822 Sl
18588 12822 Sm
18603 12861 Sl
18603 12861 Sm
18617 12913 Sl
18617 12913 Sm
18632 12965 Sl
18632 12965 Sm
18647 13032 Sl
18647 13032 Sm
18661 13072 Sl
18661 13072 Sm
18676 13109 Sl
18676 13109 Sm
18690 13142 Sl
18690 13142 Sm
18705 13179 Sl
18705 13179 Sm
18719 13223 Sl
18719 13223 Sm
18734 13255 Sl
18734 13255 Sm
18748 13273 Sl
18748 13273 Sm
18763 13295 Sl
18763 13295 Sm
18777 13311 Sl
18777 13311 Sm
18792 13320 Sl
18792 13320 Sm
18807 13319 Sl
18807 13319 Sm
18821 13335 Sl
18821 13335 Sm
18836 13334 Sl
18836 13334 Sm
18850 13336 Sl
18850 13336 Sm
18865 13358 Sl
18865 13358 Sm
18879 13339 Sl
18879 13339 Sm
18894 13326 Sl
18894 13326 Sm
18908 13327 Sl
18908 13327 Sm
18923 13338 Sl
18923 13338 Sm
18937 13339 Sl
18937 13339 Sm
18952 13338 Sl
18952 13338 Sm
18966 13342 Sl
18966 13342 Sm
18981 13342 Sl
18981 13342 Sm
18996 13341 Sl
18996 13341 Sm
19010 13334 Sl
19010 13334 Sm
19025 13337 Sl
19025 13337 Sm
19039 13358 Sl
19039 13358 Sm
19054 13358 Sl
19054 13358 Sm
19068 13358 Sl
19068 13358 Sm
19083 13353 Sl
19083 13353 Sm
19097 13357 Sl
19097 13357 Sm
19112 13359 Sl
19112 13359 Sm
19126 13380 Sl
19126 13380 Sm
19141 13400 Sl
19141 13400 Sm
19156 13428 Sl
19156 13428 Sm
19170 13455 Sl
19170 13455 Sm
19185 13475 Sl
19185 13475 Sm
19199 13487 Sl
19199 13487 Sm
19214 13497 Sl
19214 13497 Sm
19228 13530 Sl
19228 13530 Sm
19243 13567 Sl
19243 13567 Sm
19257 13589 Sl
19257 13589 Sm
19272 13631 Sl
19272 13631 Sm
19286 13670 Sl
19286 13670 Sm
19301 13683 Sl
19301 13683 Sm
19315 13738 Sl
19315 13738 Sm
19330 13780 Sl
19330 13780 Sm
19345 13795 Sl
19345 13795 Sm
19359 13809 Sl
19359 13809 Sm
19374 13835 Sl
19374 13835 Sm
19388 13844 Sl
19388 13844 Sm
19403 13846 Sl
19403 13846 Sm
19417 13848 Sl
19417 13848 Sm
19432 13858 Sl
19432 13858 Sm
19446 13860 Sl
19446 13860 Sm
19461 13868 Sl
19461 13868 Sm
19475 13890 Sl
19475 13890 Sm
19490 13914 Sl
19490 13914 Sm
19504 13932 Sl
19504 13932 Sm
19519 13956 Sl
19519 13956 Sm
19534 14000 Sl
19534 14000 Sm
19548 14033 Sl
19548 14033 Sm
19563 14061 Sl
19563 14061 Sm
19577 14115 Sl
19577 14115 Sm
19592 14161 Sl
19592 14161 Sm
19606 14199 Sl
19606 14199 Sm
19621 14238 Sl
19621 14238 Sm
19635 14292 Sl
19635 14292 Sm
19650 14333 Sl
19650 14333 Sm
19664 14378 Sl
19664 14378 Sm
19679 14434 Sl
19679 14434 Sm
19694 14431 Sl
19694 14431 Sm
19708 14449 Sl
19708 14449 Sm
19723 14467 Sl
19723 14467 Sm
19737 14479 Sl
19737 14479 Sm
19752 14477 Sl
19752 14477 Sm
19766 14489 Sl
19766 14489 Sm
19781 14525 Sl
19781 14525 Sm
19795 14544 Sl
19795 14544 Sm
19810 14586 Sl
19810 14586 Sm
19824 14640 Sl
19824 14640 Sm
19839 14715 Sl
19839 14715 Sm
19853 14772 Sl
19853 14772 Sm
19868 14840 Sl
19868 14840 Sm
19883 14914 Sl
19883 14914 Sm
19897 14963 Sl
19897 14963 Sm
19912 15010 Sl
19912 15010 Sm
19926 15050 Sl
19926 15050 Sm
19941 15127 Sl
19941 15127 Sm
19955 15166 Sl
19955 15166 Sm
19970 15198 Sl
19970 15198 Sm
19984 15252 Sl
19984 15252 Sm
19999 15282 Sl
19999 15282 Sm
20013 15287 Sl
20013 15287 Sm
20028 15288 Sl
20028 15288 Sm
20043 15335 Sl
20043 15335 Sm
20057 15337 Sl
20057 15337 Sm
20072 15332 Sl
20072 15332 Sm
20086 15329 Sl
20086 15329 Sm
20101 15301 Sl
20101 15301 Sm
20115 15271 Sl
20115 15271 Sm
20130 15303 Sl
20130 15303 Sm
20144 15323 Sl
20144 15323 Sm
20159 15371 Sl
20159 15371 Sm
20173 15464 Sl
20173 15464 Sm
20188 15569 Sl
20188 15569 Sm
20202 15636 Sl
20202 15636 Sm
20217 15699 Sl
20217 15699 Sm
20232 15767 Sl
20232 15767 Sm
20246 15810 Sl
20246 15810 Sm
20261 15836 Sl
20261 15836 Sm
20275 15852 Sl
20275 15852 Sm
20290 15876 Sl
20290 15876 Sm
20304 15879 Sl
20304 15879 Sm
20319 15930 Sl
20319 15930 Sm
20333 15992 Sl
20333 15992 Sm
20348 16049 Sl
20348 16049 Sm
20362 16059 Sl
20362 16059 Sm
20377 16042 Sl
20377 16042 Sm
20391 16061 Sl
20391 16061 Sm
20406 16075 Sl
20406 16075 Sm
20421 16117 Sl
20421 16117 Sm
20435 16172 Sl
20435 16172 Sm
20450 16228 Sl
20450 16228 Sm
20464 16224 Sl
20464 16224 Sm
20479 16195 Sl
20479 16195 Sm
20493 16207 Sl
20493 16207 Sm
20508 16212 Sl
20508 16212 Sm
20522 16232 Sl
20522 16232 Sm
20537 16253 Sl
20537 16253 Sm
20551 16298 Sl
20551 16298 Sm
20566 16304 Sl
20566 16304 Sm
20581 16301 Sl
20581 16301 Sm
20595 16269 Sl
20595 16269 Sm
20610 16209 Sl
20610 16209 Sm
20624 16222 Sl
20624 16222 Sm
20639 16266 Sl
20639 16266 Sm
20653 16314 Sl
20653 16314 Sm
20668 16312 Sl
20668 16312 Sm
20682 16316 Sl
20682 16316 Sm
20697 16342 Sl
20697 16342 Sm
20711 16372 Sl
20711 16372 Sm
20726 16446 Sl
20726 16446 Sm
20740 16518 Sl
20740 16518 Sm
20755 16565 Sl
20755 16565 Sm
20770 16540 Sl
20770 16540 Sm
20784 16519 Sl
20784 16519 Sm
20799 16556 Sl
20799 16556 Sm
20813 16572 Sl
20813 16572 Sm
20828 16620 Sl
20828 16620 Sm
20842 16679 Sl
20842 16679 Sm
20857 16710 Sl
20857 16710 Sm
20871 16714 Sl
20871 16714 Sm
20886 16711 Sl
20886 16711 Sm
20900 16758 Sl
20900 16758 Sm
20915 16805 Sl
20915 16805 Sm
20930 16859 Sl
20930 16859 Sm
20944 16906 Sl
20944 16906 Sm
20959 16991 Sl
20959 16991 Sm
20973 17054 Sl
20973 17054 Sm
20988 17093 Sl
20988 17093 Sm
21002 17174 Sl
21002 17174 Sm
21017 17249 Sl
21017 17249 Sm
21031 17327 Sl
21031 17327 Sm
21046 17388 Sl
21046 17388 Sm
21060 17369 Sl
21060 17369 Sm
21075 17354 Sl
21075 17354 Sm
21089 17303 Sl
21089 17303 Sm
21104 17292 Sl
21104 17292 Sm
21119 17260 Sl
21119 17260 Sm
21133 17265 Sl
21133 17265 Sm
21148 17263 Sl
21148 17263 Sm
21162 17232 Sl
21162 17232 Sm
21177 17193 Sl
21177 17193 Sm
21191 17136 Sl
21191 17136 Sm
21206 17147 Sl
21206 17147 Sm
21220 17151 Sl
21220 17151 Sm
21235 17151 Sl
21235 17151 Sm
21249 17158 Sl
21249 17158 Sm
21264 17171 Sl
21264 17171 Sm
21278 17141 Sl
21278 17141 Sm
21293 17111 Sl
21293 17111 Sm
21308 17102 Sl
21308 17102 Sm
21322 17095 Sl
21322 17095 Sm
21337 17131 Sl
21337 17131 Sm
21351 17148 Sl
21351 17148 Sm
21366 17170 Sl
21366 17170 Sm
21380 17169 Sl
21380 17169 Sm
21395 17124 Sl
21395 17124 Sm
21409 17095 Sl
21409 17095 Sm
21424 17062 Sl
21424 17062 Sm
21438 17001 Sl
21438 17001 Sm
21453 16940 Sl
21453 16940 Sm
21468 16903 Sl
21468 16903 Sm
21482 16866 Sl
21482 16866 Sm
21497 16837 Sl
21497 16837 Sm
21511 16819 Sl
21511 16819 Sm
21526 16828 Sl
21526 16828 Sm
21540 16848 Sl
21540 16848 Sm
21555 16888 Sl
21555 16888 Sm
21569 16899 Sl
21569 16899 Sm
21584 16893 Sl
21584 16893 Sm
21598 16884 Sl
21598 16884 Sm
21613 16887 Sl
21613 16887 Sm
21627 16889 Sl
21627 16889 Sm
21642 16894 Sl
21642 16894 Sm
21657 16907 Sl
21657 16907 Sm
21671 16916 Sl
21671 16916 Sm
21686 16918 Sl
21686 16918 Sm
21700 16880 Sl
21700 16880 Sm
21715 16868 Sl
21715 16868 Sm
21729 16850 Sl
21729 16850 Sm
21744 16833 Sl
21744 16833 Sm
21758 16826 Sl
21758 16826 Sm
21773 16789 Sl
21773 16789 Sm
21787 16755 Sl
21787 16755 Sm
21802 16714 Sl
21802 16714 Sm
21817 16704 Sl
21817 16704 Sm
21831 16698 Sl
21831 16698 Sm
21846 16691 Sl
21846 16691 Sm
21860 16692 Sl
21860 16692 Sm
21875 16722 Sl
21875 16722 Sm
21889 16748 Sl
21889 16748 Sm
21904 16750 Sl
21904 16750 Sm
21918 16755 Sl
21918 16755 Sm
21933 16761 Sl
21933 16761 Sm
21947 16754 Sl
21947 16754 Sm
21962 16743 Sl
21962 16743 Sm
21976 16737 Sl
21976 16737 Sm
21991 16730 Sl
21991 16730 Sm
22006 16715 Sl
22006 16715 Sm
22020 16712 Sl
22020 16712 Sm
22035 16707 Sl
22035 16707 Sm
22049 16703 Sl
22049 16703 Sm
22064 16706 Sl
22064 16706 Sm
22078 16706 Sl
22078 16706 Sm
22093 16693 Sl
22093 16693 Sm
22107 16683 Sl
22107 16683 Sm
22122 16690 Sl
22122 16690 Sm
22136 16694 Sl
22136 16694 Sm
22151 16704 Sl
22151 16704 Sm
22165 16716 Sl
22165 16716 Sm
22180 16757 Sl
22180 16757 Sm
22195 16747 Sl
22195 16747 Sm
22209 16731 Sl
22209 16731 Sm
22224 16713 Sl
22224 16713 Sm
22238 16682 Sl
22238 16682 Sm
22253 16672 Sl
22253 16672 Sm
22267 16671 Sl
22267 16671 Sm
22282 16694 Sl
22282 16694 Sm
22296 16701 Sl
22296 16701 Sm
22311 16698 Sl
22311 16698 Sm
22325 16699 Sl
22325 16699 Sm
22340 16695 Sl
22340 16695 Sm
22355 16690 Sl
22355 16690 Sm
22369 16702 Sl
22369 16702 Sm
22384 16721 Sl
22384 16721 Sm
22398 16739 Sl
22398 16739 Sm
22413 16749 Sl
22413 16749 Sm
22427 16761 Sl
22427 16761 Sm
22442 16769 Sl
22442 16769 Sm
22456 16767 Sl
22456 16767 Sm
22471 16765 Sl
22471 16765 Sm
22485 16783 Sl
22485 16783 Sm
22500 16787 Sl
22500 16787 Sm
22514 16793 Sl
22514 16793 Sm
22529 16797 Sl
22529 16797 Sm
22544 16800 Sl
22544 16800 Sm
22558 16818 Sl
22558 16818 Sm
22573 16856 Sl
22573 16856 Sm
22587 16893 Sl
22587 16893 Sm
22602 16916 Sl
22602 16916 Sm
22616 16907 Sl
22616 16907 Sm
22631 16940 Sl
22631 16940 Sm
22645 16961 Sl
22645 16961 Sm
22660 16997 Sl
22660 16997 Sm
22674 17058 Sl
22674 17058 Sm
22689 17079 Sl
22689 17079 Sm
22704 17093 Sl
22704 17093 Sm
22718 17085 Sl
22718 17085 Sm
22733 17086 Sl
22733 17086 Sm
22747 17077 Sl
22747 17077 Sm
22762 17086 Sl
22762 17086 Sm
22776 17110 Sl
22776 17110 Sm
22791 17145 Sl
22791 17145 Sm
22805 17158 Sl
22805 17158 Sm
22820 17165 Sl
22820 17165 Sm
22834 17174 Sl
22834 17174 Sm
22849 17184 Sl
22849 17184 Sm
22863 17182 Sl
22863 17182 Sm
22878 17181 Sl
22878 17181 Sm
22893 17222 Sl
22893 17222 Sm
22907 17257 Sl
22907 17257 Sm
22922 17273 Sl
22922 17273 Sm
22936 17298 Sl
22936 17298 Sm
22951 17318 Sl
22951 17318 Sm
22965 17346 Sl
22965 17346 Sm
22980 17384 Sl
22980 17384 Sm
22994 17410 Sl
22994 17410 Sm
23009 17401 Sl
23009 17401 Sm
23023 17392 Sl
23023 17392 Sm
23038 17378 Sl
23038 17378 Sm
23052 17367 Sl
23052 17367 Sm
23067 17357 Sl
23067 17357 Sm
23082 17381 Sl
23082 17381 Sm
23096 17391 Sl
23096 17391 Sm
23111 17390 Sl
23111 17390 Sm
23125 17405 Sl
23125 17405 Sm
23140 17390 Sl
23140 17390 Sm
23154 17375 Sl
23154 17375 Sm
23169 17364 Sl
23169 17364 Sm
23183 17402 Sl
23183 17402 Sm
23198 17438 Sl
23198 17438 Sm
23212 17454 Sl
23212 17454 Sm
23227 17458 Sl
23227 17458 Sm
23242 17471 Sl
23242 17471 Sm
23256 17485 Sl
23256 17485 Sm
23271 17495 Sl
23271 17495 Sm
23285 17503 Sl
23285 17503 Sm
23300 17549 Sl
23300 17549 Sm
23314 17589 Sl
23314 17589 Sm
23329 17602 Sl
23329 17602 Sm
23343 17618 Sl
23343 17618 Sm
23358 17633 Sl
23358 17633 Sm
23372 17656 Sl
23372 17656 Sm
23387 17691 Sl
23387 17691 Sm
23401 17723 Sl
23401 17723 Sm
23416 17710 Sl
23416 17710 Sm
23431 17693 Sl
23431 17693 Sm
23445 17698 Sl
23445 17698 Sm
23460 17704 Sl
23460 17704 Sm
23474 17729 Sl
23474 17729 Sm
23489 17762 Sl
23489 17762 Sm
23503 17795 Sl
23503 17795 Sm
23518 17786 Sl
23518 17786 Sm
23532 17781 Sl
23532 17781 Sm
23547 17776 Sl
23547 17776 Sm
23561 17773 Sl
23561 17773 Sm
23576 17802 Sl
23576 17802 Sm
23591 17833 Sl
23591 17833 Sm
23605 17855 Sl
23605 17855 Sm
23620 17831 Sl
23620 17831 Sm
23634 17791 Sl
23634 17791 Sm
23649 17763 Sl
23649 17763 Sm
23663 17730 Sl
23663 17730 Sm
23678 17697 Sl
23678 17697 Sm
23692 17664 Sl
23692 17664 Sm
23707 17642 Sl
23707 17642 Sm
23721 17619 Sl
23721 17619 Sm
23736 17569 Sl
23736 17569 Sm
23750 17526 Sl
23750 17526 Sm
23765 17484 Sl
23765 17484 Sm
23780 17446 Sl
23780 17446 Sm
23794 17408 Sl
23794 17408 Sm
23809 17364 Sl
23809 17364 Sm
23823 17309 Sl
23823 17309 Sm
23838 17257 Sl
23838 17257 Sm
23852 17243 Sl
23852 17243 Sm
23867 17227 Sl
23867 17227 Sm
23881 17209 Sl
23881 17209 Sm
23896 17193 Sl
23896 17193 Sm
23910 17200 Sl
23910 17200 Sm
23925 17197 Sl
23925 17197 Sm
23940 17190 Sl
23940 17190 Sm
23954 17205 Sl
23954 17205 Sm
23969 17247 Sl
23969 17247 Sm
23983 17295 Sl
23983 17295 Sm
23998 17351 Sl
23998 17351 Sm
24012 17402 Sl
24012 17402 Sm
24027 17444 Sl
24027 17444 Sm
24041 17492 Sl
24041 17492 Sm
24056 17551 Sl
24056 17551 Sm
24070 17611 Sl
24070 17611 Sm
24085 17672 Sl
24085 17672 Sm
24099 17728 Sl
24099 17728 Sm
24114 17791 Sl
24114 17791 Sm
24129 17842 Sl
24129 17842 Sm
24143 17887 Sl
24143 17887 Sm
24158 17936 Sl
24158 17936 Sm
24172 17985 Sl
24172 17985 Sm
24187 18043 Sl
24187 18043 Sm
24201 18100 Sl
24201 18100 Sm
24216 18142 Sl
24216 18142 Sm
24230 18167 Sl
24230 18167 Sm
24245 18195 Sl
24245 18195 Sm
24259 18223 Sl
24259 18223 Sm
24274 18249 Sl
24274 18249 Sm
24288 18274 Sl
24288 18274 Sm
24303 18300 Sl
24303 18300 Sm
24318 18334 Sl
24318 18334 Sm
24332 18352 Sl
24332 18352 Sm
24347 18347 Sl
24347 18347 Sm
24361 18342 Sl
24361 18342 Sm
24376 18337 Sl
24376 18337 Sm
24390 18338 Sl
24390 18338 Sm
24405 18323 Sl
24405 18323 Sm
24419 18307 Sl
24419 18307 Sm
24434 18272 Sl
24434 18272 Sm
24448 18238 Sl
24448 18238 Sm
24463 18209 Sl
24463 18209 Sm
24478 18183 Sl
24478 18183 Sm
24492 18159 Sl
24492 18159 Sm
24507 18127 Sl
24507 18127 Sm
24521 18098 Sl
24521 18098 Sm
24536 18056 Sl
24536 18056 Sm
24550 18005 Sl
24550 18005 Sm
24565 17964 Sl
24565 17964 Sm
24579 17923 Sl
24579 17923 Sm
24594 17879 Sl
24594 17879 Sm
24608 17855 Sl
24608 17855 Sm
24623 17817 Sl
24623 17817 Sm
24637 17786 Sl
24637 17786 Sm
24652 17771 Sl
24652 17771 Sm
24667 17769 Sl
24667 17769 Sm
24681 17759 Sl
24681 17759 Sm
24696 17754 Sl
24696 17754 Sm
24710 17755 Sl
24710 17755 Sm
24725 17754 Sl
24725 17754 Sm
24739 17745 Sl
24739 17745 Sm
24754 17730 Sl
24754 17730 Sm
24768 17729 Sl
24768 17729 Sm
24783 17726 Sl
24783 17726 Sm
24797 17722 Sl
24797 17722 Sm
24812 17723 Sl
24812 17723 Sm
24827 17722 Sl
24827 17722 Sm
24841 17699 Sl
24841 17699 Sm
24856 17675 Sl
24856 17675 Sm
24870 17662 Sl
24870 17662 Sm
24885 17619 Sl
24885 17619 Sm
24899 17579 Sl
24899 17579 Sm
24914 17550 Sl
24914 17550 Sm
24928 17521 Sl
24928 17521 Sm
24943 17499 Sl
24943 17499 Sm
24957 17476 Sl
24957 17476 Sm
24972 17475 Sl
24972 17475 Sm
24986 17476 Sl
24986 17476 Sm
25001 17491 Sl
25001 17491 Sm
25016 17505 Sl
25016 17505 Sm
25030 17518 Sl
25030 17518 Sm
25045 17505 Sl
25045 17505 Sm
25059 17493 Sl
25059 17493 Sm
25074 17473 Sl
25074 17473 Sm
25088 17452 Sl
25088 17452 Sm
25103 17428 Sl
25103 17428 Sm
25117 17406 Sl
25117 17406 Sm
25132 17389 Sl
25132 17389 Sm
25146 17364 Sl
25146 17364 Sm
25161 17342 Sl
25161 17342 Sm
25175 17327 Sl
25175 17327 Sm
25190 17310 Sl
25190 17310 Sm
25205 17292 Sl
25205 17292 Sm
25219 17278 Sl
25219 17278 Sm
25234 17274 Sl
25234 17274 Sm
25248 17248 Sl
25248 17248 Sm
25263 17221 Sl
25263 17221 Sm
25277 17205 Sl
25277 17205 Sm
25292 17185 Sl
25292 17185 Sm
25306 17174 Sl
25306 17174 Sm
25321 17203 Sl
25321 17203 Sm
25335 17230 Sl
25335 17230 Sm
25350 17236 Sl
25350 17236 Sm
25365 17242 Sl
25365 17242 Sm
25379 17244 Sl
25379 17244 Sm
25394 17244 Sl
25394 17244 Sm
25408 17244 Sl
25408 17244 Sm
25423 17248 Sl
25423 17248 Sm
25437 17235 Sl
25437 17235 Sm
25452 17215 Sl
25452 17215 Sm
25466 17197 Sl
25466 17197 Sm
25481 17179 Sl
25481 17179 Sm
25495 17162 Sl
25495 17162 Sm
25510 17147 Sl
25510 17147 Sm
25524 17133 Sl
25524 17133 Sm
25539 17121 Sl
25539 17121 Sm
25554 17104 Sl
25554 17104 Sm
25568 17078 Sl
25568 17078 Sm
25583 17055 Sl
25583 17055 Sm
25597 17038 Sl
25597 17038 Sm
25612 17024 Sl
25612 17024 Sm
25626 17012 Sl
25626 17012 Sm
25641 17001 Sl
25641 17001 Sm
25655 16976 Sl
25655 16976 Sm
25670 16945 Sl
25670 16945 Sm
25684 16932 Sl
25684 16932 Sm
25699 16920 Sl
25699 16920 Sm
25714 16903 Sl
25714 16903 Sm
25728 16905 Sl
25728 16905 Sm
25743 16900 Sl
25743 16900 Sm
25757 16877 Sl
25757 16877 Sm
25772 16856 Sl
25772 16856 Sm
25786 16840 Sl
25786 16840 Sm
25801 16823 Sl
25801 16823 Sm
25815 16813 Sl
25815 16813 Sm
25830 16780 Sl
25830 16780 Sm
25844 16748 Sl
25844 16748 Sm
25859 16702 Sl
25859 16702 Sm
25873 16657 Sl
25873 16657 Sm
25888 16621 Sl
25888 16621 Sm
25903 16586 Sl
25903 16586 Sm
25917 16554 Sl
25917 16554 Sm
25932 16524 Sl
25932 16524 Sm
25946 16491 Sl
25946 16491 Sm
25961 16438 Sl
25961 16438 Sm
25975 16393 Sl
25975 16393 Sm
25990 16352 Sl
25990 16352 Sm
26004 16313 Sl
26004 16313 Sm
26019 16275 Sl
26019 16275 Sm
26033 16230 Sl
26033 16230 Sm
26048 16187 Sl
26048 16187 Sm
26062 16114 Sl
26062 16114 Sm
26077 16045 Sl
26077 16045 Sm
26092 15987 Sl
26092 15987 Sm
26106 15926 Sl
26106 15926 Sm
26121 15882 Sl
26121 15882 Sm
26135 15837 Sl
26135 15837 Sm
26150 15794 Sl
26150 15794 Sm
26164 15727 Sl
26164 15727 Sm
26179 15663 Sl
26179 15663 Sm
26193 15609 Sl
26193 15609 Sm
26208 15554 Sl
26208 15554 Sm
26222 15498 Sl
26222 15498 Sm
26237 15440 Sl
26237 15440 Sm
26252 15393 Sl
26252 15393 Sm
26266 15353 Sl
26266 15353 Sm
26281 15312 Sl
26281 15312 Sm
26295 15278 Sl
26295 15278 Sm
26310 15246 Sl
26310 15246 Sm
26324 15213 Sl
26324 15213 Sm
26339 15178 Sl
26339 15178 Sm
26353 15153 Sl
26353 15153 Sm
26368 15117 Sl
26368 15117 Sm
26382 15080 Sl
26382 15080 Sm
26397 15060 Sl
26397 15060 Sm
26411 15036 Sl
26411 15036 Sm
26426 15027 Sl
26426 15027 Sm
26441 15024 Sl
26441 15024 Sm
26455 15024 Sl
26455 15024 Sm
26470 15012 Sl
26470 15012 Sm
26484 14994 Sl
26484 14994 Sm
26499 15004 Sl
26499 15004 Sm
26513 15015 Sl
26513 15015 Sm
26528 15025 Sl
26528 15025 Sm
26542 15036 Sl
26542 15036 Sm
26557 15038 Sl
26557 15038 Sm
26571 15017 Sl
26571 15017 Sm
26586 15003 Sl
26586 15003 Sm
26601 14998 Sl
26601 14998 Sm
26615 14986 Sl
26615 14986 Sm
26630 14976 Sl
26630 14976 Sm
26644 14965 Sl
26644 14965 Sm
26659 14971 Sl
26659 14971 Sm
26673 14967 Sl
26673 14967 Sm
26688 14949 Sl
26688 14949 Sm
26702 14951 Sl
26702 14951 Sm
26717 14955 Sl
26717 14955 Sm
26731 14945 Sl
26731 14945 Sm
26746 14951 Sl
26746 14951 Sm
26760 14966 Sl
26760 14966 Sm
26775 14982 Sl
26775 14982 Sm
26790 14995 Sl
26790 14995 Sm
26804 15020 Sl
26804 15020 Sm
26819 15046 Sl
26819 15046 Sm
26833 15068 Sl
26833 15068 Sm
26848 15091 Sl
26848 15091 Sm
26862 15096 Sl
26862 15096 Sm
26877 15084 Sl
26877 15084 Sm
26891 15069 Sl
26891 15069 Sm
26906 15064 Sl
26906 15064 Sm
26920 15061 Sl
26920 15061 Sm
26935 15056 Sl
26935 15056 Sm
26949 15058 Sl
26949 15058 Sm
26964 15055 Sl
26964 15055 Sm
26979 15051 Sl
26979 15051 Sm
26993 15041 Sl
26993 15041 Sm
27008 15053 Sl
27008 15053 Sm
27022 15066 Sl
27022 15066 Sm
27037 15078 Sl
27037 15078 Sm
27051 15094 Sl
27051 15094 Sm
27066 15101 Sl
27066 15101 Sm
27080 15110 Sl
27080 15110 Sm
27095 15106 Sl
27095 15106 Sm
27109 15083 Sl
27109 15083 Sm
27124 15062 Sl
27124 15062 Sm
27139 15038 Sl
27139 15038 Sm
27153 15019 Sl
27153 15019 Sm
27168 15007 Sl
27168 15007 Sm
27182 14977 Sl
27182 14977 Sm
27197 14937 Sl
27197 14937 Sm
27211 14899 Sl
27211 14899 Sm
27226 14860 Sl
27226 14860 Sm
27240 14817 Sl
27240 14817 Sm
27255 14775 Sl
27255 14775 Sm
27269 14741 Sl
27269 14741 Sm
27284 14707 Sl
27284 14707 Sm
27298 14671 Sl
27298 14671 Sm
27313 14647 Sl
27313 14647 Sm
27328 14631 Sl
27328 14631 Sm
27342 14614 Sl
27342 14614 Sm
27357 14595 Sl
27357 14595 Sm
27371 14571 Sl
27371 14571 Sm
27386 14536 Sl
27386 14536 Sm
27400 14507 Sl
27400 14507 Sm
27415 14476 Sl
27415 14476 Sm
27429 14442 Sl
27429 14442 Sm
27444 14412 Sl
27444 14412 Sm
27458 14375 Sl
27458 14375 Sm
27473 14339 Sl
27473 14339 Sm
27488 14274 Sl
27488 14274 Sm
27502 14220 Sl
27502 14220 Sm
27517 14165 Sl
27517 14165 Sm
27531 14126 Sl
27531 14126 Sm
27546 14128 Sl
27546 14128 Sm
27560 14128 Sl
27560 14128 Sm
27575 14118 Sl
27575 14118 Sm
27589 14084 Sl
27589 14084 Sm
27604 14057 Sl
27604 14057 Sm
27618 14035 Sl
27618 14035 Sm
27633 14017 Sl
27633 14017 Sm
27647 14001 Sl
27647 14001 Sm
27662 13924 Sl
27662 13924 Sm
27677 13832 Sl
27677 13832 Sm
27691 13741 Sl
27691 13741 Sm
27706 13644 Sl
27706 13644 Sm
27720 13548 Sl
27720 13548 Sm
27735 13452 Sl
27735 13452 Sm
27749 13356 Sl
27749 13356 Sm
27764 13268 Sl
27764 13268 Sm
27778 13181 Sl
27778 13181 Sm
27793 13090 Sl
27793 13090 Sm
27807 13007 Sl
27807 13007 Sm
27822 12926 Sl
27822 12926 Sm
27836 12849 Sl
27836 12849 Sm
27851 12774 Sl
27851 12774 Sm
27866 12700 Sl
27866 12700 Sm
27880 12607 Sl
27880 12607 Sm
27895 12516 Sl
27895 12516 Sm
27909 12424 Sl
27909 12424 Sm
27924 12356 Sl
27924 12356 Sm
27938 12286 Sl
27938 12286 Sm
27953 12228 Sl
27953 12228 Sm
27967 12155 Sl
27967 12155 Sm
27982 12065 Sl
27982 12065 Sm
27996 11974 Sl
27996 11974 Sm
28011 11891 Sl
28011 11891 Sm
28026 11774 Sl
28026 11774 Sm
28040 11658 Sl
28040 11658 Sm
28055 11538 Sl
28055 11538 Sm
28069 11403 Sl
28069 11403 Sm
28084 11256 Sl
28084 11256 Sm
28098 11170 Sl
28098 11170 Sm
28113 11099 Sl
28113 11099 Sm
28127 11028 Sl
28127 11028 Sm
28142 10958 Sl
28142 10958 Sm
28156 10888 Sl
28156 10888 Sm
28171 10833 Sl
28171 10833 Sm
28185 10777 Sl
28185 10777 Sm
28200 10690 Sl
28200 10690 Sm
28215 10603 Sl
28215 10603 Sm
28229 10519 Sl
28229 10519 Sm
28244 10433 Sl
28244 10433 Sm
28258 10348 Sl
28258 10348 Sm
28273 10261 Sl
28273 10261 Sm
28287 10166 Sl
28287 10166 Sm
28302 10073 Sl
28302 10073 Sm
28316 9996 Sl
28316 9996 Sm
28331 9920 Sl
28331 9920 Sm
28345 9855 Sl
28345 9855 Sm
28360 9793 Sl
28360 9793 Sm
28375 9731 Sl
28375 9731 Sm
28389 9649 Sl
28389 9649 Sm
28404 9569 Sl
28404 9569 Sm
28418 9495 Sl
28418 9495 Sm
28433 9423 Sl
28433 9423 Sm
28447 9353 Sl
28447 9353 Sm
28462 9338 Sl
28462 9338 Sm
28476 9374 Sl
28476 9374 Sm
28491 9387 Sl
28491 9387 Sm
28505 9401 Sl
28505 9401 Sm
28520 9424 Sl
28520 9424 Sm
28534 9447 Sl
28534 9447 Sm
28549 9469 Sl
28549 9469 Sm
28564 9491 Sl
28564 9491 Sm
28578 9521 Sl
28578 9521 Sm
28593 9550 Sl
28593 9550 Sm
28607 9566 Sl
28607 9566 Sm
28622 9582 Sl
28622 9582 Sm
28636 9615 Sl
28636 9615 Sm
28651 9648 Sl
28651 9648 Sm
28665 9680 Sl
28665 9680 Sm
28680 9717 Sl
28680 9717 Sm
28694 9749 Sl
28694 9749 Sm
28709 9778 Sl
28709 9778 Sm
28723 9817 Sl
28723 9817 Sm
28738 9854 Sl
28738 9854 Sm
28753 9890 Sl
28753 9890 Sm
28767 9921 Sl
28767 9921 Sm
28782 9948 Sl
28782 9948 Sm
28796 9967 Sl
28796 9967 Sm
28811 9985 Sl
28811 9985 Sm
28825 10008 Sl
28825 10008 Sm
28840 10104 Sl
28840 10104 Sm
28854 10198 Sl
28854 10198 Sm
28869 10292 Sl
28869 10292 Sm
28883 10384 Sl
28883 10384 Sm
28898 10477 Sl
28898 10477 Sm
28913 10520 Sl
28913 10520 Sm
28927 10587 Sl
28927 10587 Sm
28942 10666 Sl
28942 10666 Sm
28956 10741 Sl
28956 10741 Sm
28971 10817 Sl
28971 10817 Sm
28985 10896 Sl
28985 10896 Sm
29000 10974 Sl
29000 10974 Sm
29014 11047 Sl
29014 11047 Sm
29029 11121 Sl
29029 11121 Sm
29043 11194 Sl
29043 11194 Sm
29058 11270 Sl
29058 11270 Sm
29072 11353 Sl
29072 11353 Sm
29087 11435 Sl
29087 11435 Sm
29102 11514 Sl
29102 11514 Sm
29116 11589 Sl
29116 11589 Sm
29131 11668 Sl
29131 11668 Sm
29145 11748 Sl
29145 11748 Sm
29160 11825 Sl
29160 11825 Sm
29174 11900 Sl
29174 11900 Sm
29189 11976 Sl
29189 11976 Sm
29203 12054 Sl
29203 12054 Sm
29218 12125 Sl
29218 12125 Sm
29232 12205 Sl
29232 12205 Sm
29247 12285 Sl
29247 12285 Sm
29262 12365 Sl
29262 12365 Sm
29276 12372 Sl
29276 12372 Sm
29291 12385 Sl
29291 12385 Sm
29305 12397 Sl
29305 12397 Sm
29320 12409 Sl
29320 12409 Sm
29334 12416 Sl
29334 12416 Sm
29349 12422 Sl
29349 12422 Sm
29363 12428 Sl
29363 12428 Sm
29378 12432 Sl
29378 12432 Sm
29392 12440 Sl
29392 12440 Sm
29407 12457 Sl
29407 12457 Sm
29421 12472 Sl
29421 12472 Sm
29436 12486 Sl
29436 12486 Sm
29451 12500 Sl
29451 12500 Sm
29465 12512 Sl
29465 12512 Sm
29480 12523 Sl
29480 12523 Sm
29494 12533 Sl
29494 12533 Sm
29509 12534 Sl
29509 12534 Sm
29523 12536 Sl
29523 12536 Sm
29538 12542 Sl
29538 12542 Sm
29552 12548 Sl
29552 12548 Sm
29567 12552 Sl
29567 12552 Sm
29581 12555 Sl
29581 12555 Sm
29596 12560 Sl
29596 12560 Sm
29611 12567 Sl
29611 12567 Sm
29625 12573 Sl
29625 12573 Sm
29640 12583 Sl
29640 12583 Sm
29654 12590 Sl
29654 12590 Sm
29669 12600 Sl
29669 12600 Sm
29683 12609 Sl
29683 12609 Sm
29698 12618 Sl
29698 12618 Sm
29712 12628 Sl
29712 12628 Sm
29727 12632 Sl
29727 12632 Sm
29741 12639 Sl
29741 12639 Sm
29756 12646 Sl
29756 12646 Sm
29770 12652 Sl
29770 12652 Sm
29785 12658 Sl
29785 12658 Sm
29800 12689 Sl
29800 12689 Sm
29814 12728 Sl
29814 12728 Sm
29829 12771 Sl
29829 12771 Sm
29843 12803 Sl
29843 12803 Sm
29858 12835 Sl
29858 12835 Sm
29872 12867 Sl
29872 12867 Sm
29887 12897 Sl
29887 12897 Sm
29901 12930 Sl
29901 12930 Sm
29916 12964 Sl
29916 12964 Sm
29930 12998 Sl
29930 12998 Sm
29945 13035 Sl
29945 13035 Sm
29959 13073 Sl
29959 13073 Sm
29974 13111 Sl
29974 13111 Sm
29989 13150 Sl
29989 13150 Sm
30003 13192 Sl
30003 13192 Sm
30018 13236 Sl
30018 13236 Sm
30032 13277 Sl
30032 13277 Sm
30047 13318 Sl
30047 13318 Sm
30061 13360 Sl
30061 13360 Sm
30076 13401 Sl
30076 13401 Sm
30090 13439 Sl
30090 13439 Sm
30105 13481 Sl
30105 13481 Sm
30119 13519 Sl
30119 13519 Sm
30134 13558 Sl
30134 13558 Sm
30149 13596 Sl
30149 13596 Sm
30163 13633 Sl
30163 13633 Sm
30178 13671 Sl
30178 13671 Sm
30192 13710 Sl
30192 13710 Sm
30207 13750 Sl
30207 13750 Sm
30221 13778 Sl
30221 13778 Sm
30236 13780 Sl
30236 13780 Sm
30250 13775 Sl
30250 13775 Sm
30265 13766 Sl
30265 13766 Sm
30279 13758 Sl
30279 13758 Sm
30294 13749 Sl
30294 13749 Sm
30308 13740 Sl
30308 13740 Sm
30323 13737 Sl
30323 13737 Sm
30338 13727 Sl
30338 13727 Sm
30352 13717 Sl
30352 13717 Sm
30367 13707 Sl
30367 13707 Sm
30381 13696 Sl
30381 13696 Sm
30396 13684 Sl
30396 13684 Sm
30410 13674 Sl
30410 13674 Sm
30425 13664 Sl
30425 13664 Sm
30439 13654 Sl
30439 13654 Sm
30454 13642 Sl
30454 13642 Sm
30468 13630 Sl
30468 13630 Sm
30483 13619 Sl
30483 13619 Sm
30498 13608 Sl
30498 13608 Sm
30512 13597 Sl
30512 13597 Sm
30527 13584 Sl
30527 13584 Sm
30541 13567 Sl
30541 13567 Sm
30556 13554 Sl
30556 13554 Sm
30570 13539 Sl
30570 13539 Sm
30585 13523 Sl
30585 13523 Sm
30599 13510 Sl
30599 13510 Sm
30614 13497 Sl
30614 13497 Sm
30628 13484 Sl
30628 13484 Sm
30643 13470 Sl
30643 13470 Sm
30657 13468 Sl
30657 13468 Sm
30672 13468 Sl
5458 6378 5472 6378 Sln
5472 6378 5487 6378 Sln
5487 6378 5501 6378 Sln
5501 6378 5516 6378 Sln
5516 6378 5531 6378 Sln
5531 6378 5545 6378 Sln
5545 6378 5560 6378 Sln
5560 6378 5574 6378 Sln
5574 6378 5589 6378 Sln
5589 6378 5603 6378 Sln
5603 6378 5618 6378 Sln
5618 6378 5632 6378 Sln
5632 6378 5647 6378 Sln
5647 6378 5661 6378 Sln
5661 6378 5676 6378 Sln
5676 6378 5691 6378 Sln
5691 6378 5705 6378 Sln
5705 6378 5720 6378 Sln
5720 6378 5734 6378 Sln
5734 6378 5749 6378 Sln
5749 6378 5763 6378 Sln
5763 6378 5778 6378 Sln
5778 6378 5792 6378 Sln
5792 6378 5807 6378 Sln
5807 6378 5821 6378 Sln
5821 6378 5836 6378 Sln
5836 6378 5850 6378 Sln
5850 6378 5865 6378 Sln
5865 6378 5880 6378 Sln
5880 6378 5882 6421 Sln
5888 6654 5894 6832 Sln
5894 6832 5909 6832 Sln
5909 6832 5923 6832 Sln
5923 6832 5938 6832 Sln
5938 6832 5952 6832 Sln
5952 6832 5967 6832 Sln
5967 6832 5981 6832 Sln
5981 6832 5996 6832 Sln
5996 6832 6010 6832 Sln
6010 6832 6025 6832 Sln
6025 6832 6039 6832 Sln
6039 6832 6054 6832 Sln
6054 6832 6069 6832 Sln
6069 6832 6083 6832 Sln
6083 6832 6098 6832 Sln
6098 6832 6112 6832 Sln
6112 6832 6127 6832 Sln
6127 6832 6141 6832 Sln
6141 6832 6156 6832 Sln
6156 6832 6170 6832 Sln
6170 6832 6181 6832 Sln
6393 6800 6403 6800 Sln
6403 6800 6418 6800 Sln
6418 6800 6432 6800 Sln
6432 6800 6447 6800 Sln
6447 6800 6461 6800 Sln
6461 6800 6476 6800 Sln
6476 6800 6490 6800 Sln
6490 6800 6505 6800 Sln
6505 6800 6519 6800 Sln
6519 6800 6534 6800 Sln
6534 6800 6548 6800 Sln
6548 6800 6563 6800 Sln
6563 6800 6578 6800 Sln
6578 6800 6592 6800 Sln
6592 6800 6607 6800 Sln
6607 6800 6621 6800 Sln
6621 6800 6636 6800 Sln
6636 6800 6650 6800 Sln
6650 6800 6665 6800 Sln
6665 6800 6679 6800 Sln
6679 6800 6694 6800 Sln
6694 6800 6708 6800 Sln
6708 6800 6723 6800 Sln
6723 6800 6737 6800 Sln
6737 6800 6752 6800 Sln
6752 6800 6767 6800 Sln
6767 6800 6781 6800 Sln
6781 6800 6783 6878 Sln
6786 7110 6794 7576 Sln
6932 7672 6941 7672 Sln
6941 7672 6956 7672 Sln
6956 7672 6970 7672 Sln
6970 7672 6985 7672 Sln
6985 7672 6999 7672 Sln
6999 7672 7014 7672 Sln
7014 7672 7028 7672 Sln
7028 7672 7043 7672 Sln
7043 7672 7057 7672 Sln
7057 7672 7072 7672 Sln
7072 7672 7086 7672 Sln
7086 7672 7101 7672 Sln
7101 7672 7116 7672 Sln
7116 7672 7130 7672 Sln
7130 7672 7145 7672 Sln
7145 7672 7159 7672 Sln
7159 7672 7174 7672 Sln
7174 7672 7188 7672 Sln
7188 7672 7203 7572 Sln
7203 7572 7217 7572 Sln
7217 7572 7232 7572 Sln
7232 7572 7246 7572 Sln
7246 7572 7261 7572 Sln
7261 7572 7275 7572 Sln
7275 7572 7290 7572 Sln
7290 7572 7305 7572 Sln
7305 7572 7311 7572 Sln
7544 7572 7552 7572 Sln
7552 7572 7566 7572 Sln
7566 7572 7581 7572 Sln
7581 7572 7595 7572 Sln
7595 7572 7610 7572 Sln
7610 7572 7624 7572 Sln
7624 7572 7639 7572 Sln
7639 7572 7643 7942 Sln
7645 8175 7648 8640 Sln
7650 8873 7654 9237 Sln
7654 9237 7668 9237 Sln
7668 9237 7683 9237 Sln
7683 9237 7697 9237 Sln
7697 9237 7712 9237 Sln
7712 9237 7726 9237 Sln
7726 9237 7741 9237 Sln
7741 9237 7755 9237 Sln
7755 9237 7755 9237 Sln
7988 9237 7988 9237 Sln
7988 9237 8003 9237 Sln
8003 9237 8017 9237 Sln
8017 9237 8032 9237 Sln
8032 9237 8046 9237 Sln
8046 9237 8061 9237 Sln
8061 9237 8075 9237 Sln
8075 9237 8081 9616 Sln
8086 9849 8090 10108 Sln
8090 10108 8104 10108 Sln
8104 10108 8119 10108 Sln
8119 10108 8133 10108 Sln
8133 10108 8148 10108 Sln
8148 10108 8162 10108 Sln
8162 10108 8177 10108 Sln
8177 10108 8192 10108 Sln
8192 10108 8206 10108 Sln
8206 10108 8221 10108 Sln
8221 10108 8235 10108 Sln
8235 10108 8250 10108 Sln
8250 10108 8264 10108 Sln
8264 10108 8279 10108 Sln
8279 10108 8293 10108 Sln
8293 10108 8296 10108 Sln
8526 10111 8534 10576 Sln
8539 10809 8541 10957 Sln
8541 10957 8555 10957 Sln
8555 10957 8570 10957 Sln
8570 10957 8584 10957 Sln
8584 10957 8599 10957 Sln
8599 10957 8613 10957 Sln
8613 10957 8628 10957 Sln
8628 10957 8642 10957 Sln
8642 10957 8657 10957 Sln
8657 10957 8671 10957 Sln
8671 10957 8686 10957 Sln
8686 10957 8701 10957 Sln
8701 10957 8715 10957 Sln
8715 10957 8730 10957 Sln
8730 10957 8744 10957 Sln
8744 10957 8759 10957 Sln
8759 10957 8773 10957 Sln
8773 10957 8788 10957 Sln
8788 10957 8802 10957 Sln
8802 10957 8817 10957 Sln
8817 10957 8831 10957 Sln
8831 10957 8846 10957 Sln
8846 10957 8859 10957 Sln
8963 11086 8967 11552 Sln
8969 11784 8973 12250 Sln
8975 12482 8977 12730 Sln
8977 12730 8991 12730 Sln
8991 12730 9006 12730 Sln
9006 12730 9020 12730 Sln
9020 12730 9035 12730 Sln
9035 12730 9049 12730 Sln
9049 12730 9064 12730 Sln
9064 12730 9079 12730 Sln
9079 12730 9093 12730 Sln
9093 12730 9108 12730 Sln
9108 12730 9122 12730 Sln
9122 12730 9137 12730 Sln
9137 12730 9151 12730 Sln
9151 12730 9166 12730 Sln
9166 12730 9180 12730 Sln
9180 12730 9195 12730 Sln
9413 12745 9423 13210 Sln
9428 13443 9428 13479 Sln
9428 13479 9442 13479 Sln
9442 13479 9457 13479 Sln
9457 13479 9471 13479 Sln
9471 13479 9486 13479 Sln
9486 13479 9500 13479 Sln
9500 13479 9515 13479 Sln
9515 13479 9529 13479 Sln
9529 13479 9544 13479 Sln
9544 13479 9558 13479 Sln
9558 13479 9573 13479 Sln
9573 13479 9588 13479 Sln
9588 13479 9602 13479 Sln
9602 13479 9617 13479 Sln
9617 13479 9631 13479 Sln
9631 13479 9646 13479 Sln
9646 13479 9660 13479 Sln
9660 13479 9675 13479 Sln
9675 13479 9689 13479 Sln
9689 13479 9704 13479 Sln
9704 13479 9718 13479 Sln
9718 13479 9733 13479 Sln
9733 13479 9747 13479 Sln
9747 13479 9762 13479 Sln
9762 13479 9777 13479 Sln
9777 13479 9791 13479 Sln
9791 13479 9806 13479 Sln
9806 13479 9820 13479 Sln
9820 13479 9835 13479 Sln
9835 13479 9849 13479 Sln
9849 13479 9857 13479 Sln
9867 13705 9875 14171 Sln
9921 14360 9922 14360 Sln
9922 14360 9936 14360 Sln
9936 14360 9951 14360 Sln
9951 14360 9966 14360 Sln
9966 14360 9980 14360 Sln
9980 14360 9995 14360 Sln
9995 14360 10009 14360 Sln
10009 14360 10024 14360 Sln
10024 14360 10038 14360 Sln
10038 14360 10053 14360 Sln
10053 14360 10067 14360 Sln
10067 14360 10082 14360 Sln
10082 14360 10096 14360 Sln
10096 14360 10111 14360 Sln
10111 14360 10126 14360 Sln
10126 14360 10140 14360 Sln
10140 14360 10155 14360 Sln
10155 14360 10169 14360 Sln
10169 14360 10184 14360 Sln
10184 14360 10198 14360 Sln
10198 14360 10213 14360 Sln
10213 14360 10227 14360 Sln
10227 14360 10242 14360 Sln
10242 14360 10256 14360 Sln
10256 14360 10271 14360 Sln
10271 14360 10285 14360 Sln
10285 14360 10300 14360 Sln
10300 14360 10301 14447 Sln
10304 14680 10309 15145 Sln
10311 15378 10315 15656 Sln
10315 15656 10329 15656 Sln
10329 15656 10344 15656 Sln
10344 15656 10358 15656 Sln
10358 15656 10373 15656 Sln
10373 15656 10387 15656 Sln
10387 15656 10402 15656 Sln
10402 15656 10416 15656 Sln
10416 15656 10431 15656 Sln
10431 15656 10445 15656 Sln
10445 15656 10460 15656 Sln
10460 15656 10475 15656 Sln
10475 15656 10489 15656 Sln
10489 15656 10502 15656 Sln
10735 15656 10736 15656 Sln
10736 15656 10751 15656 Sln
10751 15656 10758 16105 Sln
10762 16338 10765 16483 Sln
10765 16483 10780 16483 Sln
10780 16483 10794 16483 Sln
10794 16483 10809 16483 Sln
10809 16483 10823 16483 Sln
10823 16483 10838 16483 Sln
10838 16483 10853 16483 Sln
10853 16483 10867 16483 Sln
10867 16483 10882 16483 Sln
10882 16483 10896 16483 Sln
10896 16483 10911 16483 Sln
10911 16483 10925 16483 Sln
10925 16483 10940 16483 Sln
10940 16483 10954 16483 Sln
10954 16483 10969 16483 Sln
10969 16483 10983 16483 Sln
10983 16483 10998 16483 Sln
10998 16483 11013 16483 Sln
11013 16483 11027 16483 Sln
11027 16483 11042 16483 Sln
11042 16483 11056 16483 Sln
11056 16483 11071 16483 Sln
11071 16483 11085 16483 Sln
11190 16613 11198 17079 Sln
11201 17312 11202 17334 Sln
11202 17334 11216 17334 Sln
11216 17334 11231 17334 Sln
11231 17334 11245 17334 Sln
11245 17334 11260 17334 Sln
11260 17334 11274 17334 Sln
11274 17334 11289 17334 Sln
11289 17334 11303 17334 Sln
11303 17334 11318 17334 Sln
11318 17334 11332 17334 Sln
11332 17334 11347 17334 Sln
11347 17334 11362 17334 Sln
11362 17334 11376 17334 Sln
11376 17334 11391 17334 Sln
11391 17334 11405 17334 Sln
11405 17334 11420 17334 Sln
11420 17334 11434 17334 Sln
11434 17334 11449 17334 Sln
11449 17334 11463 17334 Sln
11463 17334 11478 17334 Sln
11478 17334 11492 17334 Sln
11492 17334 11507 17334 Sln
11507 17334 11521 17334 Sln
11521 17334 11536 17334 Sln
11536 17334 11551 17334 Sln
11551 17334 11565 17334 Sln
11565 17334 11580 17334 Sln
11580 17334 11594 17334 Sln
11594 17334 11609 17334 Sln
11609 17334 11623 17334 Sln
11623 17334 11638 17334 Sln
11638 17334 11638 17328 Sln
11645 17095 11652 16842 Sln
11652 16842 11667 16842 Sln
11667 16842 11681 16842 Sln
11681 16842 11696 16842 Sln
11696 16842 11710 16842 Sln
11710 16842 11725 16842 Sln
11725 16842 11740 16842 Sln
11740 16842 11754 16842 Sln
11754 16842 11769 16842 Sln
11769 16842 11783 16842 Sln
11783 16842 11798 16842 Sln
11798 16842 11812 16842 Sln
11812 16842 11827 16842 Sln
11827 16842 11841 16842 Sln
11841 16842 11856 16842 Sln
11856 16842 11864 16842 Sln
12089 16850 12097 17315 Sln
12102 17548 12103 17608 Sln
12103 17608 12118 17608 Sln
12118 17608 12132 17608 Sln
12132 17608 12147 17608 Sln
12147 17608 12161 17608 Sln
12161 17608 12176 17608 Sln
12176 17608 12190 17608 Sln
12190 17608 12205 17608 Sln
12205 17608 12219 17608 Sln
12219 17608 12234 17608 Sln
12234 17608 12249 17608 Sln
12249 17608 12263 17608 Sln
12263 17608 12278 17608 Sln
12278 17608 12292 17608 Sln
12292 17608 12307 17608 Sln
12307 17608 12321 17608 Sln
12321 17608 12336 17608 Sln
12336 17608 12350 17608 Sln
12350 17608 12365 17608 Sln
12365 17608 12379 17608 Sln
12379 17608 12394 17608 Sln
12394 17608 12408 17608 Sln
12408 17608 12423 17608 Sln
12423 17608 12438 17608 Sln
12438 17608 12452 17608 Sln
12452 17608 12467 17608 Sln
12467 17608 12481 17608 Sln
12481 17608 12496 17608 Sln
12496 17608 12508 17608 Sln
12516 17377 12525 17013 Sln
12525 17013 12539 17013 Sln
12539 17013 12554 17013 Sln
12554 17013 12568 17013 Sln
12568 17013 12583 17013 Sln
12583 17013 12597 17013 Sln
12597 17013 12612 17013 Sln
12612 17013 12626 17013 Sln
12859 17013 12859 17013 Sln
12859 17013 12874 17013 Sln
12874 17013 12888 17013 Sln
12888 17013 12903 17013 Sln
12903 17013 12917 17013 Sln
12917 17013 12932 17013 Sln
12932 17013 12946 17013 Sln
12946 17013 12961 17013 Sln
12961 17013 12976 16726 Sln
12976 16726 12990 16726 Sln
12990 16726 13005 16726 Sln
13005 16726 13019 16726 Sln
13019 16726 13034 16726 Sln
13034 16726 13048 16726 Sln
13048 16726 13052 16726 Sln
13285 16726 13295 16726 Sln
13295 16726 13310 16726 Sln
13310 16726 13325 16726 Sln
13325 16726 13339 16726 Sln
13339 16726 13354 16726 Sln
13354 16726 13368 16726 Sln
13368 16726 13383 16726 Sln
13383 16726 13397 16726 Sln
13397 16726 13412 17075 Sln
13412 17075 13415 17075 Sln
13648 17075 13659 17075 Sln
13659 17075 13674 17075 Sln
13674 17075 13688 17075 Sln
13688 17075 13703 17075 Sln
13703 17075 13717 17075 Sln
13717 17075 13732 17075 Sln
13732 17075 13746 17075 Sln
13746 17075 13761 17075 Sln
13761 17075 13775 17075 Sln
13775 17075 13790 17075 Sln
13790 17075 13804 17075 Sln
13804 17075 13819 17075 Sln
13819 17075 13833 17075 Sln
13833 17075 13848 17075 Sln
13848 17075 13850 16810 Sln
13852 16577 13856 16112 Sln
13858 15879 13862 15414 Sln
13957 15275 13964 15275 Sln
13964 15275 13979 15275 Sln
13979 15275 13993 15275 Sln
13993 15275 14008 15275 Sln
14008 15275 14023 15275 Sln
14023 15275 14037 15275 Sln
14037 15275 14052 15275 Sln
14052 15275 14066 15275 Sln
14066 15275 14081 15275 Sln
14081 15275 14095 15275 Sln
14095 15275 14110 15275 Sln
14110 15275 14124 15275 Sln
14124 15275 14139 15275 Sln
14139 15275 14153 15275 Sln
14153 15275 14168 15275 Sln
14168 15275 14182 15275 Sln
14182 15275 14197 15275 Sln
14197 15275 14212 15275 Sln
14212 15275 14226 15275 Sln
14226 15275 14241 15275 Sln
14241 15275 14255 15275 Sln
14255 15275 14270 15275 Sln
14270 15275 14284 15275 Sln
14284 15275 14288 15136 Sln
14295 14904 14299 14757 Sln
14299 14757 14313 14757 Sln
14313 14757 14328 14757 Sln
14328 14757 14342 14757 Sln
14342 14757 14357 14757 Sln
14357 14757 14372 14757 Sln
14372 14757 14386 14757 Sln
14386 14757 14401 14757 Sln
14401 14757 14415 14757 Sln
14415 14757 14430 14757 Sln
14430 14757 14444 14757 Sln
14444 14757 14459 14757 Sln
14459 14757 14473 14757 Sln
14473 14757 14488 14757 Sln
14488 14757 14502 14757 Sln
14502 14757 14517 14757 Sln
14517 14757 14531 14757 Sln
14531 14757 14546 14757 Sln
14546 14757 14561 14757 Sln
14561 14757 14575 14757 Sln
14575 14757 14590 14757 Sln
14590 14757 14604 14757 Sln
14604 14757 14618 14757 Sln
14736 14641 14739 14176 Sln
14740 13943 14743 13478 Sln
14745 13245 14748 12780 Sln
14750 12547 14750 12479 Sln
14750 12479 14764 12479 Sln
14764 12479 14779 12479 Sln
14779 12479 14793 12479 Sln
14793 12479 14808 12479 Sln
14808 12479 14822 12479 Sln
14822 12479 14837 12479 Sln
14837 12479 14851 12479 Sln
14851 12479 14866 12479 Sln
14866 12479 14880 12479 Sln
14880 12479 14895 12479 Sln
14895 12479 14910 12479 Sln
14910 12479 14924 12479 Sln
14924 12479 14939 12479 Sln
14939 12479 14953 12479 Sln
14953 12479 14968 12479 Sln
14968 12479 14982 12479 Sln
14982 12479 14997 12479 Sln
14997 12479 15011 12479 Sln
15011 12479 15026 12479 Sln
15026 12479 15040 12479 Sln
15040 12479 15055 12479 Sln
15055 12479 15069 12479 Sln
15069 12479 15084 12479 Sln
15084 12479 15099 12479 Sln
15099 12479 15113 12479 Sln
15113 12479 15128 12479 Sln
15128 12479 15142 12479 Sln
15142 12479 15147 12479 Sln
15351 12438 15360 12438 Sln
15360 12438 15375 12438 Sln
15375 12438 15389 12438 Sln
15389 12438 15404 12438 Sln
15404 12438 15418 12438 Sln
15418 12438 15433 12438 Sln
15433 12438 15448 12438 Sln
15448 12438 15462 12438 Sln
15462 12438 15477 12438 Sln
15477 12438 15491 12438 Sln
15491 12438 15506 12438 Sln
15506 12438 15520 12438 Sln
15520 12438 15535 12438 Sln
15535 12438 15549 12438 Sln
15549 12438 15564 12438 Sln
15564 12438 15578 12438 Sln
15578 12438 15593 12438 Sln
15593 12438 15607 12438 Sln
15607 12438 15622 12438 Sln
15622 12438 15623 12632 Sln
15625 12865 15629 13330 Sln
15631 13563 15634 14028 Sln
15636 14261 15637 14436 Sln
15637 14436 15651 14436 Sln
15651 14436 15666 14436 Sln
15666 14436 15680 14436 Sln
15680 14436 15695 14436 Sln
15695 14436 15709 14436 Sln
15709 14436 15724 14436 Sln
15724 14436 15738 14436 Sln
15738 14436 15753 14436 Sln
15753 14436 15767 14436 Sln
15767 14436 15782 14436 Sln
15782 14436 15797 14436 Sln
15797 14436 15811 14436 Sln
15811 14436 15826 14436 Sln
15826 14436 15840 14436 Sln
15840 14436 15855 14436 Sln
15855 14436 15869 14436 Sln
15869 14436 15884 14436 Sln
15884 14436 15898 14436 Sln
15898 14436 15913 14436 Sln
15913 14436 15927 14436 Sln
15927 14436 15928 14436 Sln
16074 14524 16084 14989 Sln
16135 15174 16146 15174 Sln
16146 15174 16160 15174 Sln
16160 15174 16175 15174 Sln
16175 15174 16189 15174 Sln
16189 15174 16204 15174 Sln
16204 15174 16218 15174 Sln
16218 15174 16233 15174 Sln
16233 15174 16247 15174 Sln
16247 15174 16262 15174 Sln
16262 15174 16276 15174 Sln
16276 15174 16291 15174 Sln
16291 15174 16305 15174 Sln
16305 15174 16320 15174 Sln
16320 15174 16335 15174 Sln
16335 15174 16349 15174 Sln
16349 15174 16364 15174 Sln
16364 15174 16378 15174 Sln
16378 15174 16393 15174 Sln
16393 15174 16407 15174 Sln
16407 15174 16422 15174 Sln
16422 15174 16436 15174 Sln
16436 15174 16451 15174 Sln
16451 15174 16465 15174 Sln
16465 15174 16480 15174 Sln
16480 15174 16494 15174 Sln
16494 15174 16509 15174 Sln
16509 15174 16524 15105 Sln
16524 15105 16538 15105 Sln
16538 15105 16544 15105 Sln
16777 15105 16785 15105 Sln
16785 15105 16800 15105 Sln
16800 15105 16814 15105 Sln
16814 15105 16829 15105 Sln
16829 15105 16843 15105 Sln
16843 15105 16858 15105 Sln
16858 15105 16873 15105 Sln
16873 15105 16887 15105 Sln
16887 15105 16902 15105 Sln
16902 15105 16916 15105 Sln
16916 15105 16931 15105 Sln
16931 15105 16945 15105 Sln
16945 15105 16960 15105 Sln
16960 15105 16970 15388 Sln
17100 15494 17105 15494 Sln
17105 15494 17120 15494 Sln
17120 15494 17134 15494 Sln
17134 15494 17149 15494 Sln
17149 15494 17163 15494 Sln
17163 15494 17178 15494 Sln
17178 15494 17192 15494 Sln
17192 15494 17207 15494 Sln
17207 15494 17222 15494 Sln
17222 15494 17236 15494 Sln
17236 15494 17251 15494 Sln
17251 15494 17265 15494 Sln
17265 15494 17280 15494 Sln
17280 15494 17294 15494 Sln
17294 15494 17309 15494 Sln
17309 15494 17323 15494 Sln
17323 15494 17338 15494 Sln
17338 15494 17352 15494 Sln
17352 15494 17367 15494 Sln
17367 15494 17381 15494 Sln
17381 15494 17396 15494 Sln
17396 15494 17411 15494 Sln
17411 15494 17412 15339 Sln
17415 15106 17420 14641 Sln
17422 14408 17425 14124 Sln
17425 14124 17440 14124 Sln
17440 14124 17454 14124 Sln
17454 14124 17469 14124 Sln
17469 14124 17483 14124 Sln
17483 14124 17498 14124 Sln
17498 14124 17512 14124 Sln
17512 14124 17527 14124 Sln
17527 14124 17541 14124 Sln
17541 14124 17556 14124 Sln
17556 14124 17571 14124 Sln
17571 14124 17585 14124 Sln
17585 14124 17600 14124 Sln
17600 14124 17606 14124 Sln
17818 14144 17822 14610 Sln
17823 14843 17826 15308 Sln
17828 15541 17831 16006 Sln
18017 16053 18021 16053 Sln
18021 16053 18036 16053 Sln
18036 16053 18050 16053 Sln
18050 16053 18065 16053 Sln
18065 16053 18079 16053 Sln
18079 16053 18094 16053 Sln
18094 16053 18109 16053 Sln
18109 16053 18123 16053 Sln
18123 16053 18138 16053 Sln
18138 16053 18152 16053 Sln
18152 16053 18167 16053 Sln
18167 16053 18181 16053 Sln
18181 16053 18196 16053 Sln
18196 16053 18210 16053 Sln
18210 16053 18225 16053 Sln
18225 16053 18239 16053 Sln
18239 16053 18254 16053 Sln
18254 16053 18268 16053 Sln
18268 16053 18283 16197 Sln
18283 16197 18298 16197 Sln
18298 16197 18312 16197 Sln
18312 16197 18327 16197 Sln
18327 16197 18341 16197 Sln
18341 16197 18353 16197 Sln
18586 16197 18588 16197 Sln
18588 16197 18603 16197 Sln
18603 16197 18617 16197 Sln
18617 16197 18632 16197 Sln
18632 16197 18647 16197 Sln
18647 16197 18661 16197 Sln
18661 16197 18676 16197 Sln
18676 16197 18690 16197 Sln
18690 16197 18705 16197 Sln
18705 16197 18719 16102 Sln
18719 16102 18734 16102 Sln
18734 16102 18748 16102 Sln
18748 16102 18763 16102 Sln
18763 16102 18777 16102 Sln
18777 16102 18792 16102 Sln
18792 16102 18807 16102 Sln
18807 16102 18821 16102 Sln
18821 16102 18836 16102 Sln
18836 16102 18850 16102 Sln
18850 16102 18865 16102 Sln
18865 16102 18879 16102 Sln
18879 16102 18894 16102 Sln
18894 16102 18908 16102 Sln
18908 16102 18923 16102 Sln
18923 16102 18937 16102 Sln
18937 16102 18952 16102 Sln
18952 16102 18966 16102 Sln
18966 16102 18969 16102 Sln
19157 16057 19162 15591 Sln
19165 15359 19170 14898 Sln
19170 14898 19175 14898 Sln
19408 14898 19417 14898 Sln
19417 14898 19432 14898 Sln
19432 14898 19446 14898 Sln
19446 14898 19461 14898 Sln
19461 14898 19475 14898 Sln
19475 14898 19490 14898 Sln
19490 14898 19504 14898 Sln
19504 14898 19519 14898 Sln
19519 14898 19534 14898 Sln
19534 14898 19548 14898 Sln
19548 14898 19563 14898 Sln
19563 14898 19577 14898 Sln
19577 14898 19592 14898 Sln
19592 14898 19606 14831 Sln
19606 14831 19621 14831 Sln
19621 14831 19635 14831 Sln
19635 14831 19650 14831 Sln
19650 14831 19664 14831 Sln
19664 14831 19679 14831 Sln
19679 14831 19694 14831 Sln
19694 14831 19708 14831 Sln
19708 14831 19723 14831 Sln
19723 14831 19737 14831 Sln
19737 14831 19752 14831 Sln
19752 14831 19766 14831 Sln
19766 14831 19781 14831 Sln
19781 14831 19795 14831 Sln
19795 14831 19810 14831 Sln
19810 14831 19818 14831 Sln
20043 14839 20045 15304 Sln
20046 15537 20048 16002 Sln
20049 16235 20051 16701 Sln
20052 16933 20055 17399 Sln
20056 17632 20057 17957 Sln
20057 17957 20072 17957 Sln
20072 17957 20086 17957 Sln
20086 17957 20101 17957 Sln
20101 17957 20115 17957 Sln
20115 17957 20130 17957 Sln
20130 17957 20144 17957 Sln
20144 17957 20159 17957 Sln
20159 17957 20173 17957 Sln
20173 17957 20188 17957 Sln
20188 17957 20197 17957 Sln
20430 17957 20435 17957 Sln
20435 17957 20450 17957 Sln
20450 17957 20464 17957 Sln
20464 17957 20479 17957 Sln
20479 17957 20493 17957 Sln
20493 17957 20508 18305 Sln
20508 18305 20522 18305 Sln
20522 18305 20537 18305 Sln
20537 18305 20551 18305 Sln
20551 18305 20562 18305 Sln
20795 18305 20799 18305 Sln
20799 18305 20813 18305 Sln
20813 18305 20828 18305 Sln
20828 18305 20842 18305 Sln
20842 18305 20857 18305 Sln
20857 18305 20871 18305 Sln
20871 18305 20886 18305 Sln
20886 18305 20900 18305 Sln
20900 18305 20915 18305 Sln
20915 18305 20930 18305 Sln
20930 18305 20932 17975 Sln
20934 17742 20938 17277 Sln
20940 17044 20944 16579 Sln
21096 16498 21104 16498 Sln
21104 16498 21119 16498 Sln
21119 16498 21133 16498 Sln
21133 16498 21148 16498 Sln
21148 16498 21162 16498 Sln
21162 16498 21177 16498 Sln
21177 16498 21191 16498 Sln
21191 16498 21206 16498 Sln
21206 16498 21220 16498 Sln
21220 16498 21235 16498 Sln
21235 16498 21249 16498 Sln
21249 16498 21264 16498 Sln
21264 16498 21278 16498 Sln
21278 16498 21293 16498 Sln
21293 16498 21308 16498 Sln
21308 16498 21322 16498 Sln
21322 16498 21337 16498 Sln
21337 16498 21351 16498 Sln
21351 16498 21366 16498 Sln
21366 16498 21380 16498 Sln
21380 16498 21381 16317 Sln
21383 16084 21388 15618 Sln
21390 15386 21394 14920 Sln
21497 14789 21497 14789 Sln
21497 14789 21511 14789 Sln
21511 14789 21526 14789 Sln
21526 14789 21540 14789 Sln
21540 14789 21555 14789 Sln
21555 14789 21569 14789 Sln
21569 14789 21584 14789 Sln
21584 14789 21598 14789 Sln
21598 14789 21613 14789 Sln
21613 14789 21627 14789 Sln
21627 14789 21642 14789 Sln
21642 14789 21657 14789 Sln
21657 14789 21671 14789 Sln
21671 14789 21686 14789 Sln
21686 14789 21700 14789 Sln
21700 14789 21715 14789 Sln
21715 14789 21729 14789 Sln
21729 14789 21744 14789 Sln
21744 14789 21758 14789 Sln
21758 14789 21773 14789 Sln
21773 14789 21787 14789 Sln
21787 14789 21802 14789 Sln
21802 14789 21817 14789 Sln
21817 14789 21820 14644 Sln
21824 14411 21831 13946 Sln
22060 13942 22064 13942 Sln
22064 13942 22078 13942 Sln
22078 13942 22093 13942 Sln
22093 13942 22107 13942 Sln
22107 13942 22122 13942 Sln
22122 13942 22136 13942 Sln
22136 13942 22151 13942 Sln
22151 13942 22165 13942 Sln
22165 13942 22180 13942 Sln
22180 13942 22195 13942 Sln
22195 13942 22209 13942 Sln
22209 13942 22224 13942 Sln
22224 13942 22238 13942 Sln
22238 13942 22253 13942 Sln
22253 13942 22267 13942 Sln
22267 13942 22278 14200 Sln
22423 14291 22427 14291 Sln
22427 14291 22442 14291 Sln
22442 14291 22456 14291 Sln
22456 14291 22471 14291 Sln
22471 14291 22485 14291 Sln
22485 14291 22500 14291 Sln
22500 14291 22514 14291 Sln
22514 14291 22529 14291 Sln
22529 14291 22544 14291 Sln
22544 14291 22558 14291 Sln
22558 14291 22573 14291 Sln
22573 14291 22587 14291 Sln
22587 14291 22602 14291 Sln
22602 14291 22616 14291 Sln
22616 14291 22631 14291 Sln
22631 14291 22645 14291 Sln
22645 14291 22660 14291 Sln
22660 14291 22674 14291 Sln
22674 14291 22689 14291 Sln
22689 14291 22704 14291 Sln
22704 14291 22718 14291 Sln
22718 14291 22720 14462 Sln
22722 14694 22726 15160 Sln
22729 15392 22733 15784 Sln
22733 15784 22747 15784 Sln
22747 15784 22762 15784 Sln
22762 15784 22776 15784 Sln
22776 15784 22791 15784 Sln
22791 15784 22805 15784 Sln
22805 15784 22807 15784 Sln
23040 15784 23052 15784 Sln
23052 15784 23067 15784 Sln
23067 15784 23082 15784 Sln
23082 15784 23096 15784 Sln
23096 15784 23111 15784 Sln
23111 15784 23125 15784 Sln
23125 15784 23136 16163 Sln
23204 16332 23212 16332 Sln
23212 16332 23227 16332 Sln
23227 16332 23242 16332 Sln
23242 16332 23256 16332 Sln
23256 16332 23271 16332 Sln
23271 16332 23285 16332 Sln
23285 16332 23300 16332 Sln
23300 16332 23314 16332 Sln
23314 16332 23329 16332 Sln
23329 16332 23343 16332 Sln
23343 16332 23358 16332 Sln
23358 16332 23372 16332 Sln
23372 16332 23387 16332 Sln
23387 16332 23401 16332 Sln
23401 16332 23416 16332 Sln
23416 16332 23431 16332 Sln
23431 16332 23445 16332 Sln
23445 16332 23460 16332 Sln
23460 16332 23474 16332 Sln
23474 16332 23489 16332 Sln
23489 16332 23503 16332 Sln
23503 16332 23518 16332 Sln
23518 16332 23532 16332 Sln
23532 16332 23547 16332 Sln
23547 16332 23561 16332 Sln
23561 16332 23576 16332 Sln
23576 16332 23579 16425 Sln
23586 16658 23591 16823 Sln
23591 16823 23605 16823 Sln
23605 16823 23620 16823 Sln
23620 16823 23634 16823 Sln
23634 16823 23649 16823 Sln
23649 16823 23663 16823 Sln
23663 16823 23678 16823 Sln
23678 16823 23692 16823 Sln
23692 16823 23707 16823 Sln
23707 16823 23721 16823 Sln
23721 16823 23736 16823 Sln
23736 16823 23750 16823 Sln
23750 16823 23765 16823 Sln
23765 16823 23780 16823 Sln
23780 16823 23794 16823 Sln
23794 16823 23809 16823 Sln
23809 16823 23823 16823 Sln
23823 16823 23838 16823 Sln
23838 16823 23852 16823 Sln
23852 16823 23867 16823 Sln
23867 16823 23881 16823 Sln
23881 16823 23891 16823 Sln
24018 16935 24027 17110 Sln
24027 17110 24041 17110 Sln
24041 17110 24056 17110 Sln
24056 17110 24070 17110 Sln
24070 17110 24085 17110 Sln
24085 17110 24099 17110 Sln
24099 17110 24114 17110 Sln
24114 17110 24129 17110 Sln
24129 17110 24143 17110 Sln
24143 17110 24158 17110 Sln
24158 17110 24172 17110 Sln
24172 17110 24187 17110 Sln
24187 17110 24201 17110 Sln
24201 17110 24216 17110 Sln
24216 17110 24230 17110 Sln
24230 17110 24245 17110 Sln
24245 17110 24259 17110 Sln
24259 17110 24274 17110 Sln
24274 17110 24288 17110 Sln
24288 17110 24303 17110 Sln
24303 17110 24317 17110 Sln
24463 17197 24467 17663 Sln
24469 17895 24472 18361 Sln
24474 18593 24478 19059 Sln
24688 19082 24696 19082 Sln
24696 19082 24710 19082 Sln
24710 19082 24725 19082 Sln
24725 19082 24739 19082 Sln
24739 19082 24754 19082 Sln
24754 19082 24768 19082 Sln
24768 19082 24783 19082 Sln
24783 19082 24797 19082 Sln
24797 19082 24812 19082 Sln
24812 19082 24827 19082 Sln
24827 19082 24841 19082 Sln
24841 19082 24856 19082 Sln
24856 19082 24870 19082 Sln
24870 19082 24885 19082 Sln
24885 19082 24899 19082 Sln
24899 19082 24914 19006 Sln
24914 19006 24928 19006 Sln
24928 19006 24943 19006 Sln
24943 19006 24957 19006 Sln
24957 19006 24972 19006 Sln
24972 19006 24986 19006 Sln
24986 19006 25001 19006 Sln
25001 19006 25016 19006 Sln
25016 19006 25030 19006 Sln
25030 19006 25045 19006 Sln
25045 19006 25059 19006 Sln
25059 19006 25074 19006 Sln
25074 19006 25088 19006 Sln
25088 19006 25091 19006 Sln
25324 19006 25335 19006 Sln
25335 19006 25350 19006 Sln
25350 19006 25356 18567 Sln
25360 18334 25365 17983 Sln
25365 17983 25379 17983 Sln
25379 17983 25394 17983 Sln
25394 17983 25408 17983 Sln
25408 17983 25423 17983 Sln
25423 17983 25437 17983 Sln
25437 17983 25452 17983 Sln
25452 17983 25466 17983 Sln
25466 17983 25479 17983 Sln
25712 17983 25714 17983 Sln
25714 17983 25728 17983 Sln
25728 17983 25743 17983 Sln
25743 17983 25757 17983 Sln
25757 17983 25772 17983 Sln
25772 17983 25786 17983 Sln
25786 17983 25801 17983 Sln
25801 17983 25815 18286 Sln
25815 18286 25830 18286 Sln
25830 18286 25844 18286 Sln
25844 18286 25859 18286 Sln
25859 18286 25873 18286 Sln
25873 18286 25888 18286 Sln
25888 18286 25888 18286 Sln
26121 18286 26135 18286 Sln
26135 18286 26150 18286 Sln
26150 18286 26164 18286 Sln
26164 18286 26179 18286 Sln
26179 18286 26193 18286 Sln
26193 18286 26208 18286 Sln
26208 18286 26222 18286 Sln
26222 18286 26237 18286 Sln
26237 18286 26240 17936 Sln
26241 17703 26245 17238 Sln
26246 17005 26250 16540 Sln
26252 16307 26252 16305 Sln
26252 16305 26266 16305 Sln
26266 16305 26281 16305 Sln
26281 16305 26295 16305 Sln
26295 16305 26310 16305 Sln
26310 16305 26324 16305 Sln
26324 16305 26339 16305 Sln
26339 16305 26353 16305 Sln
26353 16305 26368 16305 Sln
26368 16305 26382 16305 Sln
26382 16305 26397 16305 Sln
26397 16305 26411 16305 Sln
26411 16305 26426 16305 Sln
26426 16305 26441 16305 Sln
26441 16305 26455 16305 Sln
26455 16305 26470 16305 Sln
26470 16305 26484 16305 Sln
26484 16305 26499 16305 Sln
26499 16305 26513 16305 Sln
26513 16305 26528 16305 Sln
26528 16305 26542 16305 Sln
26542 16305 26557 16305 Sln
26557 16305 26571 16305 Sln
26571 16305 26586 16305 Sln
26586 16305 26601 16305 Sln
26601 16305 26615 16305 Sln
26615 16305 26630 16305 Sln
26630 16305 26644 16305 Sln
26644 16305 26659 16305 Sln
26659 16305 26673 16305 Sln
26673 16305 26688 16305 Sln
26688 16305 26696 16279 Sln
26915 16261 26920 16261 Sln
26920 16261 26935 16261 Sln
26935 16261 26949 16261 Sln
26949 16261 26964 16261 Sln
26964 16261 26979 16261 Sln
26979 16261 26993 16261 Sln
26993 16261 27008 16261 Sln
27008 16261 27022 16261 Sln
27022 16261 27037 16261 Sln
27037 16261 27051 16261 Sln
27051 16261 27066 16261 Sln
27066 16261 27080 16261 Sln
27080 16261 27095 16261 Sln
27095 16261 27109 16261 Sln
27109 16261 27124 16261 Sln
27124 16261 27134 16005 Sln
27234 15867 27240 15867 Sln
27240 15867 27255 15867 Sln
27255 15867 27269 15867 Sln
27269 15867 27284 15867 Sln
27284 15867 27298 15867 Sln
27298 15867 27313 15867 Sln
27313 15867 27328 15867 Sln
27328 15867 27342 15867 Sln
27342 15867 27357 15867 Sln
27357 15867 27371 15867 Sln
27371 15867 27386 15867 Sln
27386 15867 27400 15867 Sln
27400 15867 27415 15867 Sln
27415 15867 27429 15867 Sln
27429 15867 27444 15867 Sln
27444 15867 27458 15867 Sln
27458 15867 27473 15867 Sln
27473 15867 27488 15867 Sln
27488 15867 27502 15867 Sln
27502 15867 27517 15867 Sln
27517 15867 27531 15867 Sln
27531 15867 27546 15867 Sln
27546 15867 27560 15867 Sln
27560 15867 27575 15867 Sln
27575 15867 27576 15743 Sln
27578 15510 27581 15045 Sln
27583 14812 27586 14347 Sln
27588 14114 27589 13952 Sln
27589 13952 27604 13952 Sln
27604 13952 27618 13952 Sln
27618 13952 27633 13952 Sln
27633 13952 27647 13952 Sln
27647 13952 27662 13952 Sln
27662 13952 27677 13952 Sln
27677 13952 27691 13952 Sln
27691 13952 27706 13952 Sln
27706 13952 27720 13952 Sln
27720 13952 27735 13952 Sln
27735 13952 27749 13952 Sln
27749 13952 27764 13952 Sln
27764 13952 27778 13952 Sln
27778 13952 27793 13952 Sln
27793 13952 27807 13952 Sln
27807 13952 27822 13952 Sln
27822 13952 27836 13952 Sln
27836 13952 27851 13952 Sln
27851 13952 27866 13952 Sln
27866 13952 27880 13952 Sln
27880 13952 27892 13952 Sln
28027 13853 28029 13388 Sln
28030 13155 28032 12690 Sln
28032 12457 28034 11992 Sln
28035 11759 28037 11294 Sln
28038 11061 28039 10595 Sln
28182 10505 28185 10505 Sln
28185 10505 28200 10505 Sln
28200 10505 28215 10505 Sln
28215 10505 28229 10505 Sln
28229 10505 28244 10505 Sln
28244 10505 28258 10505 Sln
28258 10505 28273 10505 Sln
28273 10505 28287 10505 Sln
28287 10505 28302 10505 Sln
28302 10505 28316 10505 Sln
28316 10505 28331 10505 Sln
28331 10505 28345 10505 Sln
28345 10505 28360 10505 Sln
28360 10505 28375 10505 Sln
28375 10505 28389 10505 Sln
28389 10505 28404 10505 Sln
28404 10505 28418 10505 Sln
28418 10505 28433 10505 Sln
28433 10505 28435 10291 Sln
28436 10058 28440 9593 Sln
28441 9360 28444 8895 Sln
28446 8662 28447 8494 Sln
28447 8494 28462 8494 Sln
28462 8494 28476 8494 Sln
28476 8494 28491 8494 Sln
28491 8494 28505 8494 Sln
28505 8494 28520 8494 Sln
28520 8494 28534 8494 Sln
28534 8494 28549 8494 Sln
28549 8494 28564 8494 Sln
28564 8494 28578 8494 Sln
28578 8494 28593 8494 Sln
28593 8494 28607 8494 Sln
28607 8494 28622 8494 Sln
28622 8494 28636 8494 Sln
28636 8494 28651 8494 Sln
28651 8494 28665 8494 Sln
28665 8494 28680 8494 Sln
28680 8494 28694 8494 Sln
28694 8494 28709 8494 Sln
28709 8494 28723 8494 Sln
28723 8494 28738 8494 Sln
28738 8494 28744 8494 Sln
28886 8588 28898 9015 Sln
28898 9015 28913 9015 Sln
28913 9015 28927 9015 Sln
28927 9015 28936 9015 Sln
29169 9015 29174 9015 Sln
29174 9015 29189 9015 Sln
29189 9015 29203 9015 Sln
29203 9015 29218 9015 Sln
29218 9015 29232 9015 Sln
29232 9015 29247 9015 Sln
29247 9015 29262 9015 Sln
29262 9015 29276 9015 Sln
29276 9015 29291 9015 Sln
29291 9015 29305 9015 Sln
29305 9015 29320 9015 Sln
29320 9015 29322 9329 Sln
29324 9562 29328 10027 Sln
29330 10260 29334 10725 Sln
29564 10729 29567 10729 Sln
29567 10729 29581 10729 Sln
29581 10729 29596 10729 Sln
29596 10729 29611 10729 Sln
29611 10729 29625 10729 Sln
29625 10729 29640 10729 Sln
29640 10729 29654 10729 Sln
29654 10729 29669 10729 Sln
29669 10729 29683 10729 Sln
29683 10729 29698 10729 Sln
29698 10729 29712 10729 Sln
29712 10729 29727 10729 Sln
29727 10729 29741 10729 Sln
29741 10729 29756 10729 Sln
29756 10729 29770 10729 Sln
29770 10729 29782 10987 Sln
29952 11054 29959 11054 Sln
29959 11054 29974 11054 Sln
29974 11054 29989 11054 Sln
29989 11054 30003 11054 Sln
30003 11054 30018 11054 Sln
30018 11054 30032 11054 Sln
30032 11054 30047 11054 Sln
30047 11054 30061 11054 Sln
30061 11054 30076 11054 Sln
30076 11054 30090 11054 Sln
30090 11054 30105 11054 Sln
30105 11054 30119 11054 Sln
30119 11054 30134 11054 Sln
30134 11054 30149 11054 Sln
30149 11054 30163 11054 Sln
30163 11054 30178 11054 Sln
30178 11054 30192 11054 Sln
30192 11054 30207 11054 Sln
30207 11054 30211 11264 Sln
30216 11496 30221 11716 Sln
/Slw 0.576 def
3158 4415 3158 21047 Sln
3158 4926 2835 4926 Sln
2431 4926 0
/Helvetica-0 findfont 808 yratio mul scalefont setfont
(3) stringwidth pop add
2 div xratio div
dup 4 3 roll exch 90.000 cos mul sub 3 1 roll 90.000 sin mul sub 2 copy
/fntsize {/Helvetica-0 findfont exch scalefont setfont } def
90.000 808
(3) Stxtl
(3) stringwidth pop xratio div
dup 4 3 roll exch 90.000 cos mul add 3 1 roll 90.000 sin mul add 2 copy
pop pop pop pop
3158 8829 2835 8829 Sln
2431 8829 0
/Helvetica-0 findfont 808 yratio mul scalefont setfont
(4) stringwidth pop add
2 div xratio div
dup 4 3 roll exch 90.000 cos mul sub 3 1 roll 90.000 sin mul sub 2 copy
/fntsize {/Helvetica-0 findfont exch scalefont setfont } def
90.000 808
(4) Stxtl
(4) stringwidth pop xratio div
dup 4 3 roll exch 90.000 cos mul add 3 1 roll 90.000 sin mul add 2 copy
pop pop pop pop
3158 12731 2835 12731 Sln
2431 12731 0
/Helvetica-0 findfont 808 yratio mul scalefont setfont
(5) stringwidth pop add
2 div xratio div
dup 4 3 roll exch 90.000 cos mul sub 3 1 roll 90.000 sin mul sub 2 copy
/fntsize {/Helvetica-0 findfont exch scalefont setfont } def
90.000 808
(5) Stxtl
(5) stringwidth pop xratio div
dup 4 3 roll exch 90.000 cos mul add 3 1 roll 90.000 sin mul add 2 copy
pop pop pop pop
3158 16633 2835 16633 Sln
2431 16633 0
/Helvetica-0 findfont 808 yratio mul scalefont setfont
(6) stringwidth pop add
2 div xratio div
dup 4 3 roll exch 90.000 cos mul sub 3 1 roll 90.000 sin mul sub 2 copy
/fntsize {/Helvetica-0 findfont exch scalefont setfont } def
90.000 808
(6) Stxtl
(6) stringwidth pop xratio div
dup 4 3 roll exch 90.000 cos mul add 3 1 roll 90.000 sin mul add 2 copy
pop pop pop pop
3158 20535 2835 20535 Sln
2431 20535 0
/Helvetica-0 findfont 808 yratio mul scalefont setfont
(7) stringwidth pop add
2 div xratio div
dup 4 3 roll exch 90.000 cos mul sub 3 1 roll 90.000 sin mul sub 2 copy
/fntsize {/Helvetica-0 findfont exch scalefont setfont } def
90.000 808
(7) Stxtl
(7) stringwidth pop xratio div
dup 4 3 roll exch 90.000 cos mul add 3 1 roll 90.000 sin mul add 2 copy
pop pop pop pop
1542 12731 0
/Helvetica-0 findfont 808 yratio mul scalefont setfont
(%) stringwidth pop add
2 div xratio div
dup 4 3 roll exch 90.000 cos mul sub 3 1 roll 90.000 sin mul sub 2 copy
/fntsize {/Helvetica-0 findfont exch scalefont setfont } def
90.000 808
(%) Stxtl
(%) stringwidth pop xratio div
dup 4 3 roll exch 90.000 cos mul add 3 1 roll 90.000 sin mul add 2 copy
pop pop pop pop
3158 4415 31184 4415 Sln
3670 4415 3670 4091 Sln
3670 3364 0
/Helvetica-0 findfont 808 yratio mul scalefont setfont
(Jul-2010) stringwidth pop add
2 div xratio div
dup 4 3 roll exch 0.000 cos mul sub 3 1 roll 0.000 sin mul sub 2 copy
/fntsize {/Helvetica-0 findfont exch scalefont setfont } def
0.000 808
(Jul-2010) Stxtl
(Jul-2010) stringwidth pop xratio div
dup 4 3 roll exch 0.000 cos mul add 3 1 roll 0.000 sin mul add 2 copy
pop pop pop pop
8977 4415 8977 4091 Sln
8977 3364 0
/Helvetica-0 findfont 808 yratio mul scalefont setfont
(Jul-2011) stringwidth pop add
2 div xratio div
dup 4 3 roll exch 0.000 cos mul sub 3 1 roll 0.000 sin mul sub 2 copy
/fntsize {/Helvetica-0 findfont exch scalefont setfont } def
0.000 808
(Jul-2011) Stxtl
(Jul-2011) stringwidth pop xratio div
dup 4 3 roll exch 0.000 cos mul add 3 1 roll 0.000 sin mul add 2 copy
pop pop pop pop
14299 4415 14299 4091 Sln
14299 3364 0
/Helvetica-0 findfont 808 yratio mul scalefont setfont
(Jul-2012) stringwidth pop add
2 div xratio div
dup 4 3 roll exch 0.000 cos mul sub 3 1 roll 0.000 sin mul sub 2 copy
/fntsize {/Helvetica-0 findfont exch scalefont setfont } def
0.000 808
(Jul-2012) Stxtl
(Jul-2012) stringwidth pop xratio div
dup 4 3 roll exch 0.000 cos mul add 3 1 roll 0.000 sin mul add 2 copy
pop pop pop pop
19607 4415 19607 4091 Sln
19607 3364 0
/Helvetica-0 findfont 808 yratio mul scalefont setfont
(Jul-2013) stringwidth pop add
2 div xratio div
dup 4 3 roll exch 0.000 cos mul sub 3 1 roll 0.000 sin mul sub 2 copy
/fntsize {/Helvetica-0 findfont exch scalefont setfont } def
0.000 808
(Jul-2013) Stxtl
(Jul-2013) stringwidth pop xratio div
dup 4 3 roll exch 0.000 cos mul add 3 1 roll 0.000 sin mul add 2 copy
pop pop pop pop
24914 4415 24914 4091 Sln
24914 3364 0
/Helvetica-0 findfont 808 yratio mul scalefont setfont
(Jul-2014) stringwidth pop add
2 div xratio div
dup 4 3 roll exch 0.000 cos mul sub 3 1 roll 0.000 sin mul sub 2 copy
/fntsize {/Helvetica-0 findfont exch scalefont setfont } def
0.000 808
(Jul-2014) Stxtl
(Jul-2014) stringwidth pop xratio div
dup 4 3 roll exch 0.000 cos mul add 3 1 roll 0.000 sin mul add 2 copy
pop pop pop pop
30222 4415 30222 4091 Sln
30222 3364 0
/Helvetica-0 findfont 808 yratio mul scalefont setfont
(Jul-2015) stringwidth pop add
2 div xratio div
dup 4 3 roll exch 0.000 cos mul sub 3 1 roll 0.000 sin mul sub 2 copy
/fntsize {/Helvetica-0 findfont exch scalefont setfont } def
0.000 808
(Jul-2015) Stxtl
(Jul-2015) stringwidth pop xratio div
dup 4 3 roll exch 0.000 cos mul add 3 1 roll 0.000 sin mul add 2 copy
pop pop pop pop
/Slrgb {1.000 1.000 1.000} def
10873 1094 23470 2600 1 Srect
/Slw 0.864 def
/Slrgb {0.000 0.000 0.000} def
11222 1847 14247 1847 Sln
18220 1847 18685 1847 Sln
18918 1847 19383 1847 Sln
19616 1847 20081 1847 Sln
20314 1847 20779 1847 Sln
21012 1847 21245 1847 Sln
14732 1564 2 copy
/fntsize {/Helvetica-0 findfont exch scalefont setfont } def
0.000 808
(Online) Stxtl
(Online) stringwidth pop xratio div
dup 4 3 roll exch 0.000 cos mul add 3 1 roll 0.000 sin mul add 2 copy
pop pop pop pop
21730 1564 2 copy
/fntsize {/Helvetica-0 findfont exch scalefont setfont } def
0.000 808
(CPI) Stxtl
(CPI) stringwidth pop xratio div
dup 4 3 roll exch 0.000 cos mul add 3 1 roll 0.000 sin mul add 2 copy
pop pop pop pop
17171 21526 0
/Helvetica-0 findfont 1131 yratio mul scalefont setfont
(Annual Inflation Rate) stringwidth pop add
2 div xratio div
dup 4 3 roll exch 0.000 cos mul sub 3 1 roll 0.000 sin mul sub 2 copy
/fntsize {/Helvetica-0 findfont exch scalefont setfont } def
0.000 1131
(Annual Inflation Rate) Stxtl
(Annual Inflation Rate) stringwidth pop xratio div
dup 4 3 roll exch 0.000 cos mul add 3 1 roll 0.000 sin mul add 2 copy
pop pop pop pop
S showpage
%%EOF
