%!PS-Adobe-2.0 EPSF-2.0
%% This is a Stata generated postscript file
%%BoundingBox: 0 0 396 288
%%HiResBoundingBox: 0.000 0.000 396.000 288.000
%%DocumentNeededResources: font Helvetica
/xratio 0.012375 def
/yratio 0.012375 def
/Sbgfill {
	/y1 exch def
	/x1 exch def
	/y0 exch def
	/x0 exch def
	x0 y0 moveto
	x0 y1 lineto x1 y1 lineto x1 y0 lineto x0 y0 lineto
	fill
} def
/Spt {
	yratio mul
	/yp exch def
	xratio mul
	/xp exch def
	Slrgb setrgbcolor
	xp yp .5 0 360 arc fill
} def
/Sln {
	yratio mul
	/y1p exch def
	xratio mul
	/x1p exch def
	yratio mul
	/y0p exch def
	xratio mul
	/x0p exch def
	Slw setlinewidth
	Slrgb setrgbcolor
	x0p y0p M x1p y1p lineto S
} def
/Scrv {
	yratio mul
	/y3p exch def
	xratio mul
	/x3p exch def
	yratio mul
	/y2p exch def
	xratio mul
	/x2p exch def
	yratio mul
	/y1p exch def
	xratio mul
	/x1p exch def
	Slw setlinewidth
	Slrgb setrgbcolor
	x1p y1p x2p y2p x3p y3p curveto
	stroke
} def
/Stxtl {
	/sp exch def
	yratio mul
	/sizep exch def
	dup
	/anglep exch def
	0 exch sub
	/angle2p exch def
	yratio mul
	/y0p exch def
	xratio mul
	/x0p exch def
	Strgb setrgbcolor
	x0p y0p M anglep rotate sizep fntsize sp show stroke angle2p rotate
} def
/Stxtc {
	/sp exch def
	yratio mul
	/sizep exch def
	dup
	/anglep exch def
	0 exch sub
	/angle2p exch def
	yratio mul
	/y0p exch def
	xratio mul
	/x0p exch def
	Strgb setrgbcolor
	x0p y0p M anglep rotate sizep fntsize sp stringwidth exch -2 div exch rm sp show stroke angle2p rotate
} def
/Stxtr {
	/sp exch def
	yratio mul
	/sizep exch def
	dup
	/anglep exch def
	0 exch sub
	/angle2p exch def
	yratio mul
	/y0p exch def
	xratio mul
	/x0p exch def
	Strgb setrgbcolor
	x0p y0p M anglep rotate sizep fntsize sp stringwidth 1 index -1 mul exch rm pop sp show stroke angle2p rotate
} def
/Srect {
	/sfill exch def
	yratio mul
	/y1 exch def
	xratio mul
	/x1 exch def
	yratio mul
	/y0 exch def
	xratio mul
	/x0 exch def
	newpath x0 y0 moveto x0 y1 lineto x1 y1 lineto x1 y0 lineto x0 y0 lineto closepath
	sfill 1 eq {
		Ssrgb setrgbcolor
		gsave
		fill
		grestore
	} if
	Slw setlinewidth
	Slrgb setrgbcolor
	stroke
} def
/Sellipse {
	/sfill exch def
	yratio mul
	/yrad exch def
	xratio mul
	/xrad exch def
	yratio mul
	/y exch def
	xratio mul
	/x exch def
	/savematrix matrix currentmatrix def
	x y translate
	xrad yrad scale
	0 0 1 0 360 arc
	savematrix setmatrix
	sfill 1 eq {
		Ssrgb setrgbcolor
		gsave
		fill
		grestore
	} if
	Slw setlinewidth
	Slrgb setrgbcolor
	stroke
} def
/Stri {
	/sfill exch def
	xratio mul
	/r exch def
	yratio mul
	/y0 exch def
	xratio mul
	/x0 exch def
	/xcen x0 def
	y0 r add
	/ytop exch def
	r 2 div
	y0 exch sub
	/ybot exch def
	r 3 sqrt 2 div mul dup
	xcen exch sub
	/xleft exch def
	xcen add
	/xright exch def
	newpath xcen ytop moveto xright ybot lineto xleft ybot lineto xcen ytop lineto closepath
	sfill 1 eq {
		Ssrgb setrgbcolor
		gsave
		fill
		grestore
	} if
	Slw setlinewidth
	Slrgb setrgbcolor
	stroke
} def
/Soldtri {
	/sfill exch def
	xratio mul
	/r exch def
	yratio mul
	/y0 exch def
	xratio mul
	/x0 exch def
	x0 r sub
	/x1 exch def
	y0 r sub
	/y1 exch def
	x0 r add
	/x2 exch def
	y0 r sub
	/y2 exch def
	/x3 x0 def
	y0 r add
	/y3 exch def
	newpath x1 y1 moveto x2 y2 lineto x3 y3 lineto x1 y1 lineto closepath
	sfill 1 eq {
		Ssrgb setrgbcolor
		gsave
		fill
		grestore
	} if
	Slw setlinewidth
	Slrgb setrgbcolor
	stroke
} def
/Sdia {
	/sfill exch def
	xratio mul
	/r exch def
	yratio mul
	/y exch def
	xratio mul
	/x exch def
	x r sub
	/x0 exch def
	/y0 y def
	/x1 x def
	y r sub
	/y1 exch def
	x r add
	/x2 exch def
	/y2 y def
	/x3 x def
	y r add
	/y3 exch def
	newpath x0 y0 moveto x1 y1 lineto x2 y2 lineto x3 y3 lineto x0 y0 lineto closepath
	sfill 1 eq {
		Ssrgb setrgbcolor
		gsave
		fill
		grestore
	} if
	Slw setlinewidth
	Slrgb setrgbcolor
	stroke
} def
/Scc {
	/sfill exch def
	xratio mul
	/r0 exch def
	yratio mul
	/y0 exch def
	xratio mul
	/x0 exch def
	x0 y0 r0 0 360 arc closepath
	sfill 1 eq {
		Ssrgb setrgbcolor
		gsave
		fill
		grestore
	} if
	Slw setlinewidth
	Slrgb setrgbcolor
	stroke
} def
/Spie {
	/sfill exch def
	/a1 exch def
	/a0 exch def
	xratio mul
	/r exch def
	yratio mul
	/y exch def
	xratio mul
	/x exch def
	newpath x y moveto x y r a0 a1 arc closepath
	sfill 1 eq {
		Ssrgb setrgbcolor
		gsave
		fill
		grestore
	} if
	Slw setlinewidth
	Slrgb setrgbcolor
	stroke
} def
/Splu {
	xratio mul
	/r exch def
	yratio mul
	/y exch def
	xratio mul
	/x exch def
	x r sub
	/x0 exch def
	x r add
	/x1 exch def
	x0 y M x1 y L
	y r sub
	/y0 exch def
	y r add
	/y1 exch def
	x y0 M x y1 L
} def
/Scro {
	xratio mul
	/r exch def
	yratio mul
	/y exch def
	xratio mul
	/x exch def
	x r sub
	/x0 exch def
	y r sub
	/y0 exch def
	x r add
	/x1 exch def
	y r add
	/y1 exch def
	x0 y0 M x1 y1 L
	x r add
	/x0 exch def
	y r sub
	/y0 exch def
	x r sub
	/x1 exch def
	y r add
	/y1 exch def
	x0 y0 M x1 y1 L
} def
/Sm {
	yratio mul
	/y exch def
	xratio mul
	/x exch def
	x y M
} def
/Sl {
	yratio mul
	/y exch def
	xratio mul
	/x exch def
	x y L
} def
/SPl {
	yratio mul
	/y exch def
	xratio mul
	/x exch def
	x y PL
} def
/Lcs {
	currentlinecap
	1 setlinecap
} def
/Lcr {
	setlinecap
} def
/Sbp {
	newpath
} def
/Sep {
	/sfill exch def
	closepath
	sfill 1 eq  {
		Ssrgb setrgbcolor
		gsave
		fill
		grestore
	} if
	Slw setlinewidth
	Slrgb setrgbcolor
	Lcs
	stroke
	Lcr
} def
/cp {currentpoint} def 
/M {moveto} def 
/rm {rmoveto} def 
/S {stroke} def 
/L {Slw setlinewidth Slrgb setrgbcolor lineto Lcs S Lcr} def 
/PL {Slw setlinewidth Slrgb setrgbcolor lineto} def 
/MF-Helvetica {
  /newfontname exch def
  /fontname exch def
  /fontdict fontname findfont def
  /newfont fontdict maxlength dict def
  fontdict {
  exch dup /FID eq {pop pop} {exch newfont 3 1 roll put} ifelse
  } forall
  newfont /FontName newfontname put
  newfont /Encoding ISOLatin1Encoding put
  newfontname newfont definefont pop
} def
/Helvetica /Helvetica-0 MF-Helvetica
/Slw 0.120 def
1.000 1.000 1.000 setrgbcolor
0 0 396.000 288.000 Sbgfill
/Slrgb {1.000 1.000 1.000} def
/Strgb {1.000 1.000 1.000} def
/Ssrgb {1.000 1.000 1.000} def
/Slw 0.576 def
0 0 31999 23272 1 Srect
3158 4415 31184 21047 1 Srect
/Slrgb {0.000 0.000 0.000} def
/Strgb {0.000 0.000 0.000} def
/Slw 0.864 def
/Slrgb {0.910 0.910 0.910} def
3158 4926 31184 4926 Sln
/Slw 0.576 def
/Slrgb {0.000 0.000 0.000} def
/Slw 0.864 def
/Slrgb {0.910 0.910 0.910} def
3158 8048 31184 8048 Sln
/Slw 0.576 def
/Slrgb {0.000 0.000 0.000} def
/Slw 0.864 def
/Slrgb {0.910 0.910 0.910} def
3158 11170 31184 11170 Sln
/Slw 0.576 def
/Slrgb {0.000 0.000 0.000} def
/Slw 0.864 def
/Slrgb {0.910 0.910 0.910} def
3158 14292 31184 14292 Sln
/Slw 0.576 def
/Slrgb {0.000 0.000 0.000} def
/Slw 0.864 def
/Slrgb {0.910 0.910 0.910} def
3158 17413 31184 17413 Sln
/Slw 0.576 def
/Slrgb {0.000 0.000 0.000} def
/Slw 0.864 def
/Slrgb {0.910 0.910 0.910} def
3158 20535 31184 20535 Sln
/Slw 0.576 def
/Slrgb {0.000 0.000 0.000} def
/Slw 0.864 def
10315 11743 Sm
10329 11746 Sl
10329 11746 Sm
10344 11694 Sl
10344 11694 Sm
10358 11776 Sl
10358 11776 Sm
10373 11788 Sl
10373 11788 Sm
10387 11747 Sl
10387 11747 Sm
10402 11815 Sl
10402 11815 Sm
10416 11867 Sl
10416 11867 Sm
10431 11924 Sl
10431 11924 Sm
10445 11960 Sl
10445 11960 Sm
10460 12004 Sl
10460 12004 Sm
10475 12031 Sl
10475 12031 Sm
10489 12053 Sl
10489 12053 Sm
10504 12109 Sl
10504 12109 Sm
10518 12174 Sl
10518 12174 Sm
10533 12219 Sl
10533 12219 Sm
10547 12260 Sl
10547 12260 Sm
10562 12305 Sl
10562 12305 Sm
10576 12333 Sl
10576 12333 Sm
10591 12364 Sl
10591 12364 Sm
10605 12334 Sl
10605 12334 Sm
10620 12307 Sl
10620 12307 Sm
10634 12288 Sl
10634 12288 Sm
10649 12283 Sl
10649 12283 Sm
10664 12271 Sl
10664 12271 Sm
10678 12264 Sl
10678 12264 Sm
10693 12255 Sl
10693 12255 Sm
10707 12324 Sl
10707 12324 Sm
10722 12374 Sl
10722 12374 Sm
10736 12432 Sl
10736 12432 Sm
10751 12484 Sl
10751 12484 Sm
10765 12548 Sl
10765 12548 Sm
10780 12609 Sl
10780 12609 Sm
10794 12685 Sl
10794 12685 Sm
10809 12759 Sl
10809 12759 Sm
10823 12839 Sl
10823 12839 Sm
10838 12896 Sl
10838 12896 Sm
10853 12966 Sl
10853 12966 Sm
10867 13027 Sl
10867 13027 Sm
10882 13086 Sl
10882 13086 Sm
10896 13140 Sl
10896 13140 Sm
10911 13173 Sl
10911 13173 Sm
10925 13209 Sl
10925 13209 Sm
10940 13233 Sl
10940 13233 Sm
10954 13250 Sl
10954 13250 Sm
10969 13269 Sl
10969 13269 Sm
10983 13269 Sl
10983 13269 Sm
10998 13288 Sl
10998 13288 Sm
11013 13327 Sl
11013 13327 Sm
11027 13364 Sl
11027 13364 Sm
11042 13443 Sl
11042 13443 Sm
11056 13529 Sl
11056 13529 Sm
11071 13604 Sl
11071 13604 Sm
11085 13670 Sl
11085 13670 Sm
11100 13750 Sl
11100 13750 Sm
11114 13819 Sl
11114 13819 Sm
11129 13892 Sl
11129 13892 Sm
11143 13897 Sl
11143 13897 Sm
11158 13902 Sl
11158 13902 Sm
11172 13900 Sl
11172 13900 Sm
11187 13910 Sl
11187 13910 Sm
11202 13912 Sl
11202 13912 Sm
11216 13884 Sl
11216 13884 Sm
11231 13829 Sl
11231 13829 Sm
11245 13779 Sl
11245 13779 Sm
11260 13725 Sl
11260 13725 Sm
11274 13683 Sl
11274 13683 Sm
11289 13641 Sl
11289 13641 Sm
11303 13589 Sl
11303 13589 Sm
11318 13549 Sl
11318 13549 Sm
11332 13515 Sl
11332 13515 Sm
11347 13495 Sl
11347 13495 Sm
11362 13472 Sl
11362 13472 Sm
11376 13441 Sl
11376 13441 Sm
11391 13417 Sl
11391 13417 Sm
11405 13416 Sl
11405 13416 Sm
11420 13466 Sl
11420 13466 Sm
11434 13483 Sl
11434 13483 Sm
11449 13503 Sl
11449 13503 Sm
11463 13521 Sl
11463 13521 Sm
11478 13534 Sl
11478 13534 Sm
11492 13536 Sl
11492 13536 Sm
11507 13574 Sl
11507 13574 Sm
11521 13546 Sl
11521 13546 Sm
11536 13508 Sl
11536 13508 Sm
11551 13487 Sl
11551 13487 Sm
11565 13459 Sl
11565 13459 Sm
11580 13433 Sl
11580 13433 Sm
11594 13417 Sl
11594 13417 Sm
11609 13406 Sl
11609 13406 Sm
11623 13394 Sl
11623 13394 Sm
11638 13382 Sl
11638 13382 Sm
11652 13408 Sl
11652 13408 Sm
11667 13433 Sl
11667 13433 Sm
11681 13467 Sl
11681 13467 Sm
11696 13503 Sl
11696 13503 Sm
11710 13528 Sl
11710 13528 Sm
11725 13563 Sl
11725 13563 Sm
11740 13607 Sl
11740 13607 Sm
11754 13650 Sl
11754 13650 Sm
11769 13694 Sl
11769 13694 Sm
11783 13749 Sl
11783 13749 Sm
11798 13791 Sl
11798 13791 Sm
11812 13848 Sl
11812 13848 Sm
11827 13895 Sl
11827 13895 Sm
11841 13926 Sl
11841 13926 Sm
11856 13930 Sl
11856 13930 Sm
11870 13941 Sl
11870 13941 Sm
11885 13934 Sl
11885 13934 Sm
11900 13943 Sl
11900 13943 Sm
11914 13933 Sl
11914 13933 Sm
11929 13933 Sl
11929 13933 Sm
11943 13914 Sl
11943 13914 Sm
11958 13956 Sl
11958 13956 Sm
11972 14003 Sl
11972 14003 Sm
11987 14030 Sl
11987 14030 Sm
12001 14058 Sl
12001 14058 Sm
12016 14091 Sl
12016 14091 Sm
12030 14132 Sl
12030 14132 Sm
12045 14165 Sl
12045 14165 Sm
12059 14191 Sl
12059 14191 Sm
12074 14220 Sl
12074 14220 Sm
12089 14253 Sl
12089 14253 Sm
12103 14280 Sl
12103 14280 Sm
12118 14312 Sl
12118 14312 Sm
12132 14316 Sl
12132 14316 Sm
12147 14320 Sl
12147 14320 Sm
12161 14325 Sl
12161 14325 Sm
12176 14324 Sl
12176 14324 Sm
12190 14319 Sl
12190 14319 Sm
12205 14308 Sl
12205 14308 Sm
12219 14288 Sl
12219 14288 Sm
12234 14311 Sl
12234 14311 Sm
12249 14317 Sl
12249 14317 Sm
12263 14331 Sl
12263 14331 Sm
12278 14346 Sl
12278 14346 Sm
12292 14342 Sl
12292 14342 Sm
12307 14354 Sl
12307 14354 Sm
12321 14367 Sl
12321 14367 Sm
12336 14370 Sl
12336 14370 Sm
12350 14392 Sl
12350 14392 Sm
12365 14414 Sl
12365 14414 Sm
12379 14430 Sl
12379 14430 Sm
12394 14439 Sl
12394 14439 Sm
12408 14461 Sl
12408 14461 Sm
12423 14465 Sl
12423 14465 Sm
12438 14452 Sl
12438 14452 Sm
12452 14422 Sl
12452 14422 Sm
12467 14386 Sl
12467 14386 Sm
12481 14345 Sl
12481 14345 Sm
12496 14320 Sl
12496 14320 Sm
12510 14294 Sl
12510 14294 Sm
12525 14261 Sl
12525 14261 Sm
12539 14242 Sl
12539 14242 Sm
12554 14217 Sl
12554 14217 Sm
12568 14217 Sl
12568 14217 Sm
12583 14226 Sl
12583 14226 Sm
12597 14206 Sl
12597 14206 Sm
12612 14200 Sl
12612 14200 Sm
12627 14195 Sl
12627 14195 Sm
12641 14151 Sl
12641 14151 Sm
12656 14106 Sl
12656 14106 Sm
12670 14046 Sl
12670 14046 Sm
12685 13987 Sl
12685 13987 Sm
12699 13922 Sl
12699 13922 Sm
12714 13853 Sl
12714 13853 Sm
12728 13795 Sl
12728 13795 Sm
12743 13712 Sl
12743 13712 Sm
12757 13625 Sl
12757 13625 Sm
12772 13537 Sl
12772 13537 Sm
12787 13448 Sl
12787 13448 Sm
12801 13349 Sl
12801 13349 Sm
12816 13264 Sl
12816 13264 Sm
12830 13176 Sl
12830 13176 Sm
12845 13128 Sl
12845 13128 Sm
12859 13100 Sl
12859 13100 Sm
12874 13096 Sl
12874 13096 Sm
12888 13103 Sl
12888 13103 Sm
12903 13103 Sl
12903 13103 Sm
12917 13110 Sl
12917 13110 Sm
12932 13096 Sl
12932 13096 Sm
12946 13073 Sl
12946 13073 Sm
12961 13046 Sl
12961 13046 Sm
12976 13003 Sl
12976 13003 Sm
12990 12966 Sl
12990 12966 Sm
13005 12945 Sl
13005 12945 Sm
13019 12908 Sl
13019 12908 Sm
13034 12880 Sl
13034 12880 Sm
13048 12833 Sl
13048 12833 Sm
13063 12784 Sl
13063 12784 Sm
13077 12767 Sl
13077 12767 Sm
13092 12759 Sl
13092 12759 Sm
13106 12737 Sl
13106 12737 Sm
13121 12715 Sl
13121 12715 Sm
13136 12693 Sl
13136 12693 Sm
13150 12664 Sl
13150 12664 Sm
13165 12634 Sl
13165 12634 Sm
13179 12619 Sl
13179 12619 Sm
13194 12615 Sl
13194 12615 Sm
13208 12610 Sl
13208 12610 Sm
13223 12607 Sl
13223 12607 Sm
13237 12604 Sl
13237 12604 Sm
13252 12602 Sl
13252 12602 Sm
13266 12605 Sl
13266 12605 Sm
13281 12560 Sl
13281 12560 Sm
13295 12520 Sl
13295 12520 Sm
13310 12476 Sl
13310 12476 Sm
13325 12430 Sl
13325 12430 Sm
13339 12378 Sl
13339 12378 Sm
13354 12333 Sl
13354 12333 Sm
13368 12292 Sl
13368 12292 Sm
13383 12258 Sl
13383 12258 Sm
13397 12225 Sl
13397 12225 Sm
13412 12191 Sl
13412 12191 Sm
13426 12157 Sl
13426 12157 Sm
13441 12114 Sl
13441 12114 Sm
13455 12079 Sl
13455 12079 Sm
13470 12040 Sl
13470 12040 Sm
13485 12014 Sl
13485 12014 Sm
13499 11990 Sl
13499 11990 Sm
13514 11973 Sl
13514 11973 Sm
13528 11950 Sl
13528 11950 Sm
13543 11930 Sl
13543 11930 Sm
13557 11901 Sl
13557 11901 Sm
13572 11875 Sl
13572 11875 Sm
13586 11868 Sl
13586 11868 Sm
13601 11867 Sl
13601 11867 Sm
13615 11864 Sl
13615 11864 Sm
13630 11859 Sl
13630 11859 Sm
13644 11865 Sl
13644 11865 Sm
13659 11847 Sl
13659 11847 Sm
13674 11838 Sl
13674 11838 Sm
13688 11825 Sl
13688 11825 Sm
13703 11810 Sl
13703 11810 Sm
13717 11791 Sl
13717 11791 Sm
13732 11763 Sl
13732 11763 Sm
13746 11744 Sl
13746 11744 Sm
13761 11747 Sl
13761 11747 Sm
13775 11756 Sl
13775 11756 Sm
13790 11759 Sl
13790 11759 Sm
13804 11763 Sl
13804 11763 Sm
13819 11764 Sl
13819 11764 Sm
13833 11758 Sl
13833 11758 Sm
13848 11755 Sl
13848 11755 Sm
13863 11755 Sl
13863 11755 Sm
13877 11749 Sl
13877 11749 Sm
13892 11740 Sl
13892 11740 Sm
13906 11732 Sl
13906 11732 Sm
13921 11726 Sl
13921 11726 Sm
13935 11720 Sl
13935 11720 Sm
13950 11721 Sl
13950 11721 Sm
13964 11712 Sl
13964 11712 Sm
13979 11705 Sl
13979 11705 Sm
13993 11719 Sl
13993 11719 Sm
14008 11733 Sl
14008 11733 Sm
14023 11734 Sl
14023 11734 Sm
14037 11732 Sl
14037 11732 Sm
14052 11723 Sl
14052 11723 Sm
14066 11701 Sl
14066 11701 Sm
14081 11667 Sl
14081 11667 Sm
14095 11654 Sl
14095 11654 Sm
14110 11636 Sl
14110 11636 Sm
14124 11622 Sl
14124 11622 Sm
14139 11593 Sl
14139 11593 Sm
14153 11574 Sl
14153 11574 Sm
14168 11560 Sl
14168 11560 Sm
14182 11533 Sl
14182 11533 Sm
14197 11495 Sl
14197 11495 Sm
14212 11462 Sl
14212 11462 Sm
14226 11425 Sl
14226 11425 Sm
14241 11383 Sl
14241 11383 Sm
14255 11347 Sl
14255 11347 Sm
14270 11309 Sl
14270 11309 Sm
14284 11253 Sl
14284 11253 Sm
14299 11195 Sl
14299 11195 Sm
14313 11147 Sl
14313 11147 Sm
14328 11095 Sl
14328 11095 Sm
14342 11035 Sl
14342 11035 Sm
14357 10977 Sl
14357 10977 Sm
14372 10931 Sl
14372 10931 Sm
14386 10871 Sl
14386 10871 Sm
14401 10827 Sl
14401 10827 Sm
14415 10777 Sl
14415 10777 Sm
14430 10703 Sl
14430 10703 Sm
14444 10629 Sl
14444 10629 Sm
14459 10558 Sl
14459 10558 Sm
14473 10487 Sl
14473 10487 Sm
14488 10419 Sl
14488 10419 Sm
14502 10363 Sl
14502 10363 Sm
14517 10314 Sl
14517 10314 Sm
14531 10264 Sl
14531 10264 Sm
14546 10218 Sl
14546 10218 Sm
14561 10158 Sl
14561 10158 Sm
14575 10111 Sl
14575 10111 Sm
14590 10050 Sl
14590 10050 Sm
14604 9994 Sl
14604 9994 Sm
14619 9945 Sl
14619 9945 Sm
14633 9884 Sl
14633 9884 Sm
14648 9818 Sl
14648 9818 Sm
14662 9758 Sl
14662 9758 Sm
14677 9708 Sl
14677 9708 Sm
14691 9660 Sl
14691 9660 Sm
14706 9621 Sl
14706 9621 Sm
14720 9598 Sl
14720 9598 Sm
14735 9575 Sl
14735 9575 Sm
14750 9551 Sl
14750 9551 Sm
14764 9527 Sl
14764 9527 Sm
14779 9507 Sl
14779 9507 Sm
14793 9484 Sl
14793 9484 Sm
14808 9449 Sl
14808 9449 Sm
14822 9417 Sl
14822 9417 Sm
14837 9383 Sl
14837 9383 Sm
14851 9351 Sl
14851 9351 Sm
14866 9335 Sl
14866 9335 Sm
14880 9319 Sl
14880 9319 Sm
14895 9301 Sl
14895 9301 Sm
14910 9282 Sl
14910 9282 Sm
14924 9263 Sl
14924 9263 Sm
14939 9247 Sl
14939 9247 Sm
14953 9226 Sl
14953 9226 Sm
14968 9206 Sl
14968 9206 Sm
14982 9185 Sl
14982 9185 Sm
14997 9168 Sl
14997 9168 Sm
15011 9156 Sl
15011 9156 Sm
15026 9147 Sl
15026 9147 Sm
15040 9135 Sl
15040 9135 Sm
15055 9128 Sl
15055 9128 Sm
15069 9101 Sl
15069 9101 Sm
15084 9079 Sl
15084 9079 Sm
15099 9057 Sl
15099 9057 Sm
15113 9031 Sl
15113 9031 Sm
15128 9006 Sl
15128 9006 Sm
15142 8980 Sl
15142 8980 Sm
15157 8959 Sl
15157 8959 Sm
15171 8945 Sl
15171 8945 Sm
15186 8924 Sl
15186 8924 Sm
15200 8907 Sl
15200 8907 Sm
15215 8893 Sl
15215 8893 Sm
15229 8890 Sl
15229 8890 Sm
15244 8881 Sl
15244 8881 Sm
15259 8873 Sl
15259 8873 Sm
15273 8871 Sl
15273 8871 Sm
15288 8873 Sl
15288 8873 Sm
15302 8871 Sl
15302 8871 Sm
15317 8873 Sl
15317 8873 Sm
15331 8872 Sl
15331 8872 Sm
15346 8874 Sl
15346 8874 Sm
15360 8877 Sl
15360 8877 Sm
15375 8875 Sl
15375 8875 Sm
15389 8875 Sl
15389 8875 Sm
15404 8872 Sl
15404 8872 Sm
15418 8872 Sl
15418 8872 Sm
15433 8871 Sl
15433 8871 Sm
15448 8871 Sl
15448 8871 Sm
15462 8876 Sl
15462 8876 Sm
15477 8885 Sl
15477 8885 Sm
15491 8893 Sl
15491 8893 Sm
15506 8930 Sl
15506 8930 Sm
15520 8952 Sl
15520 8952 Sm
15535 8973 Sl
15535 8973 Sm
15549 8994 Sl
15549 8994 Sm
15564 9015 Sl
15564 9015 Sm
15578 9033 Sl
15578 9033 Sm
15593 9041 Sl
15593 9041 Sm
15607 9043 Sl
15607 9043 Sm
15622 9044 Sl
15622 9044 Sm
15637 9048 Sl
15637 9048 Sm
15651 9051 Sl
15651 9051 Sm
15666 9043 Sl
15666 9043 Sm
15680 9044 Sl
15680 9044 Sm
15695 9044 Sl
15695 9044 Sm
15709 9040 Sl
15709 9040 Sm
15724 9033 Sl
15724 9033 Sm
15738 9023 Sl
15738 9023 Sm
15753 9010 Sl
15753 9010 Sm
15767 8996 Sl
15767 8996 Sm
15782 8987 Sl
15782 8987 Sm
15797 8974 Sl
15797 8974 Sm
15811 8961 Sl
15811 8961 Sm
15826 8951 Sl
15826 8951 Sm
15840 8943 Sl
15840 8943 Sm
15855 8936 Sl
15855 8936 Sm
15869 8932 Sl
15869 8932 Sm
15884 8918 Sl
15884 8918 Sm
15898 8908 Sl
15898 8908 Sm
15913 8897 Sl
15913 8897 Sm
15927 8881 Sl
15927 8881 Sm
15942 8861 Sl
15942 8861 Sm
15956 8847 Sl
15956 8847 Sm
15971 8832 Sl
15971 8832 Sm
15986 8816 Sl
15986 8816 Sm
16000 8804 Sl
16000 8804 Sm
16015 8789 Sl
16015 8789 Sm
16029 8791 Sl
16029 8791 Sm
16044 8781 Sl
16044 8781 Sm
16058 8786 Sl
16058 8786 Sm
16073 8777 Sl
16073 8777 Sm
16087 8773 Sl
16087 8773 Sm
16102 8754 Sl
16102 8754 Sm
16116 8728 Sl
16116 8728 Sm
16131 8704 Sl
16131 8704 Sm
16146 8677 Sl
16146 8677 Sm
16160 8653 Sl
16160 8653 Sm
16175 8630 Sl
16175 8630 Sm
16189 8610 Sl
16189 8610 Sm
16204 8601 Sl
16204 8601 Sm
16218 8585 Sl
16218 8585 Sm
16233 8571 Sl
16233 8571 Sm
16247 8561 Sl
16247 8561 Sm
16262 8549 Sl
16262 8549 Sm
16276 8535 Sl
16276 8535 Sm
16291 8521 Sl
16291 8521 Sm
16305 8503 Sl
16305 8503 Sm
16320 8491 Sl
16320 8491 Sm
16335 8478 Sl
16335 8478 Sm
16349 8465 Sl
16349 8465 Sm
16364 8448 Sl
16364 8448 Sm
16378 8434 Sl
16378 8434 Sm
16393 8421 Sl
16393 8421 Sm
16407 8401 Sl
16407 8401 Sm
16422 8388 Sl
16422 8388 Sm
16436 8369 Sl
16436 8369 Sm
16451 8353 Sl
16451 8353 Sm
16465 8335 Sl
16465 8335 Sm
16480 8318 Sl
16480 8318 Sm
16494 8296 Sl
16494 8296 Sm
16509 8277 Sl
16509 8277 Sm
16524 8256 Sl
16524 8256 Sm
16538 8247 Sl
16538 8247 Sm
16553 8248 Sl
16553 8248 Sm
16567 8251 Sl
16567 8251 Sm
16582 8252 Sl
16582 8252 Sm
16596 8246 Sl
16596 8246 Sm
16611 8257 Sl
16611 8257 Sm
16625 8272 Sl
16625 8272 Sm
16640 8273 Sl
16640 8273 Sm
16654 8284 Sl
16654 8284 Sm
16669 8295 Sl
16669 8295 Sm
16684 8303 Sl
16684 8303 Sm
16698 8312 Sl
16698 8312 Sm
16713 8315 Sl
16713 8315 Sm
16727 8320 Sl
16727 8320 Sm
16742 8325 Sl
16742 8325 Sm
16756 8333 Sl
16756 8333 Sm
16771 8337 Sl
16771 8337 Sm
16785 8342 Sl
16785 8342 Sm
16800 8354 Sl
16800 8354 Sm
16814 8354 Sl
16814 8354 Sm
16829 8357 Sl
16829 8357 Sm
16843 8365 Sl
16843 8365 Sm
16858 8371 Sl
16858 8371 Sm
16873 8379 Sl
16873 8379 Sm
16887 8384 Sl
16887 8384 Sm
16902 8386 Sl
16902 8386 Sm
16916 8388 Sl
16916 8388 Sm
16931 8389 Sl
16931 8389 Sm
16945 8395 Sl
16945 8395 Sm
16960 8396 Sl
16960 8396 Sm
16974 8408 Sl
16974 8408 Sm
16989 8413 Sl
16989 8413 Sm
17003 8411 Sl
17003 8411 Sm
17018 8417 Sl
17018 8417 Sm
17033 8430 Sl
17033 8430 Sm
17047 8428 Sl
17047 8428 Sm
17062 8414 Sl
17062 8414 Sm
17076 8411 Sl
17076 8411 Sm
17091 8402 Sl
17091 8402 Sm
17105 8400 Sl
17105 8400 Sm
17120 8391 Sl
17120 8391 Sm
17134 8380 Sl
17134 8380 Sm
17149 8382 Sl
17149 8382 Sm
17163 8378 Sl
17163 8378 Sm
17178 8378 Sl
17178 8378 Sm
17192 8373 Sl
17192 8373 Sm
17207 8367 Sl
17207 8367 Sm
17222 8358 Sl
17222 8358 Sm
17236 8346 Sl
17236 8346 Sm
17251 8341 Sl
17251 8341 Sm
17265 8331 Sl
17265 8331 Sm
17280 8325 Sl
17280 8325 Sm
17294 8317 Sl
17294 8317 Sm
17309 8306 Sl
17309 8306 Sm
17323 8299 Sl
17323 8299 Sm
17338 8289 Sl
17338 8289 Sm
17352 8288 Sl
17352 8288 Sm
17367 8285 Sl
17367 8285 Sm
17381 8283 Sl
17381 8283 Sm
17396 8286 Sl
17396 8286 Sm
17411 8281 Sl
17411 8281 Sm
17425 8276 Sl
17425 8276 Sm
17440 8278 Sl
17440 8278 Sm
17454 8272 Sl
17454 8272 Sm
17469 8262 Sl
17469 8262 Sm
17483 8254 Sl
17483 8254 Sm
17498 8253 Sl
17498 8253 Sm
17512 8241 Sl
17512 8241 Sm
17527 8230 Sl
17527 8230 Sm
17541 8213 Sl
17541 8213 Sm
17556 8205 Sl
17556 8205 Sm
17571 8196 Sl
17571 8196 Sm
17585 8179 Sl
17585 8179 Sm
17600 8174 Sl
17600 8174 Sm
17614 8167 Sl
17614 8167 Sm
17629 8162 Sl
17629 8162 Sm
17643 8157 Sl
17643 8157 Sm
17658 8155 Sl
17658 8155 Sm
17672 8155 Sl
17672 8155 Sm
17687 8154 Sl
17687 8154 Sm
17701 8154 Sl
17701 8154 Sm
17716 8140 Sl
17716 8140 Sm
17730 8142 Sl
17730 8142 Sm
17745 8144 Sl
17745 8144 Sm
17760 8144 Sl
17760 8144 Sm
17774 8144 Sl
17774 8144 Sm
17789 8141 Sl
17789 8141 Sm
17803 8141 Sl
17803 8141 Sm
17818 8136 Sl
17818 8136 Sm
17832 8133 Sl
17832 8133 Sm
17847 8133 Sl
17847 8133 Sm
17861 8131 Sl
17861 8131 Sm
17876 8133 Sl
17876 8133 Sm
17890 8136 Sl
17890 8136 Sm
17905 8144 Sl
17905 8144 Sm
17920 8147 Sl
17920 8147 Sm
17934 8148 Sl
17934 8148 Sm
17949 8151 Sl
17949 8151 Sm
17963 8155 Sl
17963 8155 Sm
17978 8157 Sl
17978 8157 Sm
17992 8158 Sl
17992 8158 Sm
18007 8159 Sl
18007 8159 Sm
18021 8164 Sl
18021 8164 Sm
18036 8158 Sl
18036 8158 Sm
18050 8150 Sl
18050 8150 Sm
18065 8143 Sl
18065 8143 Sm
18079 8136 Sl
18079 8136 Sm
18094 8131 Sl
18094 8131 Sm
18109 8123 Sl
18109 8123 Sm
18123 8108 Sl
18123 8108 Sm
18138 8099 Sl
18138 8099 Sm
18152 8087 Sl
18152 8087 Sm
18167 8063 Sl
18167 8063 Sm
18181 8040 Sl
18181 8040 Sm
18196 8018 Sl
18196 8018 Sm
18210 7999 Sl
18210 7999 Sm
18225 7980 Sl
18225 7980 Sm
18239 7961 Sl
18239 7961 Sm
18254 7948 Sl
18254 7948 Sm
18268 7933 Sl
18268 7933 Sm
18283 7917 Sl
18283 7917 Sm
18298 7904 Sl
18298 7904 Sm
18312 7882 Sl
18312 7882 Sm
18327 7867 Sl
18327 7867 Sm
18341 7846 Sl
18341 7846 Sm
18356 7833 Sl
18356 7833 Sm
18370 7821 Sl
18370 7821 Sm
18385 7810 Sl
18385 7810 Sm
18399 7799 Sl
18399 7799 Sm
18414 7789 Sl
18414 7789 Sm
18428 7774 Sl
18428 7774 Sm
18443 7762 Sl
18443 7762 Sm
18458 7751 Sl
18458 7751 Sm
18472 7746 Sl
18472 7746 Sm
18487 7738 Sl
18487 7738 Sm
18501 7730 Sl
18501 7730 Sm
18516 7721 Sl
18516 7721 Sm
18530 7711 Sl
18530 7711 Sm
18545 7701 Sl
18545 7701 Sm
18559 7697 Sl
18559 7697 Sm
18574 7690 Sl
18574 7690 Sm
18588 7696 Sl
18588 7696 Sm
18603 7699 Sl
18603 7699 Sm
18617 7704 Sl
18617 7704 Sm
18632 7703 Sl
18632 7703 Sm
18647 7700 Sl
18647 7700 Sm
18661 7696 Sl
18661 7696 Sm
18676 7693 Sl
18676 7693 Sm
18690 7686 Sl
18690 7686 Sm
18705 7681 Sl
18705 7681 Sm
18719 7675 Sl
18719 7675 Sm
18734 7674 Sl
18734 7674 Sm
18748 7674 Sl
18748 7674 Sm
18763 7667 Sl
18763 7667 Sm
18777 7663 Sl
18777 7663 Sm
18792 7654 Sl
18792 7654 Sm
18807 7647 Sl
18807 7647 Sm
18821 7641 Sl
18821 7641 Sm
18836 7639 Sl
18836 7639 Sm
18850 7635 Sl
18850 7635 Sm
18865 7637 Sl
18865 7637 Sm
18879 7639 Sl
18879 7639 Sm
18894 7640 Sl
18894 7640 Sm
18908 7637 Sl
18908 7637 Sm
18923 7641 Sl
18923 7641 Sm
18937 7640 Sl
18937 7640 Sm
18952 7641 Sl
18952 7641 Sm
18966 7645 Sl
18966 7645 Sm
18981 7651 Sl
18981 7651 Sm
18996 7657 Sl
18996 7657 Sm
19010 7660 Sl
19010 7660 Sm
19025 7663 Sl
19025 7663 Sm
19039 7667 Sl
19039 7667 Sm
19054 7667 Sl
19054 7667 Sm
19068 7672 Sl
19068 7672 Sm
19083 7678 Sl
19083 7678 Sm
19097 7685 Sl
19097 7685 Sm
19112 7693 Sl
19112 7693 Sm
19126 7700 Sl
19126 7700 Sm
19141 7706 Sl
19141 7706 Sm
19156 7713 Sl
19156 7713 Sm
19170 7714 Sl
19170 7714 Sm
19185 7717 Sl
19185 7717 Sm
19199 7722 Sl
19199 7722 Sm
19214 7728 Sl
19214 7728 Sm
19228 7736 Sl
19228 7736 Sm
19243 7748 Sl
19243 7748 Sm
19257 7760 Sl
19257 7760 Sm
19272 7767 Sl
19272 7767 Sm
19286 7776 Sl
19286 7776 Sm
19301 7784 Sl
19301 7784 Sm
19315 7793 Sl
19315 7793 Sm
19330 7799 Sl
19330 7799 Sm
19345 7808 Sl
19345 7808 Sm
19359 7816 Sl
19359 7816 Sm
19374 7827 Sl
19374 7827 Sm
19388 7838 Sl
19388 7838 Sm
19403 7845 Sl
19403 7845 Sm
19417 7850 Sl
19417 7850 Sm
19432 7854 Sl
19432 7854 Sm
19446 7860 Sl
19446 7860 Sm
19461 7864 Sl
19461 7864 Sm
19475 7870 Sl
19475 7870 Sm
19490 7878 Sl
19490 7878 Sm
19504 7884 Sl
19504 7884 Sm
19519 7890 Sl
19519 7890 Sm
19534 7898 Sl
19534 7898 Sm
19548 7906 Sl
19548 7906 Sm
19563 7916 Sl
19563 7916 Sm
19577 7927 Sl
19577 7927 Sm
19592 7938 Sl
19592 7938 Sm
19606 7954 Sl
19606 7954 Sm
19621 7967 Sl
19621 7967 Sm
19635 7978 Sl
19635 7978 Sm
19650 7987 Sl
19650 7987 Sm
19664 7995 Sl
19664 7995 Sm
19679 8000 Sl
19679 8000 Sm
19694 7999 Sl
19694 7999 Sm
19708 8001 Sl
19708 8001 Sm
19723 8006 Sl
19723 8006 Sm
19737 8011 Sl
19737 8011 Sm
19752 8011 Sl
19752 8011 Sm
19766 8015 Sl
19766 8015 Sm
19781 8015 Sl
19781 8015 Sm
19795 8014 Sl
19795 8014 Sm
19810 8017 Sl
19810 8017 Sm
19824 8013 Sl
19824 8013 Sm
19839 8013 Sl
19839 8013 Sm
19853 8015 Sl
19853 8015 Sm
19868 8021 Sl
19868 8021 Sm
19883 8024 Sl
19883 8024 Sm
19897 8033 Sl
19897 8033 Sm
19912 8038 Sl
19912 8038 Sm
19926 8046 Sl
19926 8046 Sm
19941 8054 Sl
19941 8054 Sm
19955 8061 Sl
19955 8061 Sm
19970 8068 Sl
19970 8068 Sm
19984 8071 Sl
19984 8071 Sm
19999 8070 Sl
19999 8070 Sm
20013 8073 Sl
20013 8073 Sm
20028 8077 Sl
20028 8077 Sm
20043 8073 Sl
20043 8073 Sm
20057 8066 Sl
20057 8066 Sm
20072 8061 Sl
20072 8061 Sm
20086 8058 Sl
20086 8058 Sm
20101 8052 Sl
20101 8052 Sm
20115 8043 Sl
20115 8043 Sm
20130 8043 Sl
20130 8043 Sm
20144 8038 Sl
20144 8038 Sm
20159 8037 Sl
20159 8037 Sm
20173 8036 Sl
20173 8036 Sm
20188 8038 Sl
20188 8038 Sm
20202 8041 Sl
20202 8041 Sm
20217 8043 Sl
20217 8043 Sm
20232 8044 Sl
20232 8044 Sm
20246 8046 Sl
20246 8046 Sm
20261 8049 Sl
20261 8049 Sm
20275 8046 Sl
20275 8046 Sm
20290 8045 Sl
20290 8045 Sm
20304 8041 Sl
20304 8041 Sm
20319 8041 Sl
20319 8041 Sm
20333 8039 Sl
20333 8039 Sm
20348 8041 Sl
20348 8041 Sm
20362 8046 Sl
20362 8046 Sm
20377 8067 Sl
20377 8067 Sm
20391 8087 Sl
20391 8087 Sm
20406 8107 Sl
20406 8107 Sm
20421 8133 Sl
20421 8133 Sm
20435 8158 Sl
20435 8158 Sm
20450 8179 Sl
20450 8179 Sm
20464 8195 Sl
20464 8195 Sm
20479 8209 Sl
20479 8209 Sm
20493 8224 Sl
20493 8224 Sm
20508 8241 Sl
20508 8241 Sm
20522 8258 Sl
20522 8258 Sm
20537 8276 Sl
20537 8276 Sm
20551 8296 Sl
20551 8296 Sm
20566 8315 Sl
20566 8315 Sm
20581 8333 Sl
20581 8333 Sm
20595 8346 Sl
20595 8346 Sm
20610 8357 Sl
20610 8357 Sm
20624 8368 Sl
20624 8368 Sm
20639 8378 Sl
20639 8378 Sm
20653 8392 Sl
20653 8392 Sm
20668 8406 Sl
20668 8406 Sm
20682 8417 Sl
20682 8417 Sm
20697 8432 Sl
20697 8432 Sm
20711 8453 Sl
20711 8453 Sm
20726 8467 Sl
20726 8467 Sm
20740 8484 Sl
20740 8484 Sm
20755 8500 Sl
20755 8500 Sm
20770 8511 Sl
20770 8511 Sm
20784 8518 Sl
20784 8518 Sm
20799 8520 Sl
20799 8520 Sm
20813 8503 Sl
20813 8503 Sm
20828 8490 Sl
20828 8490 Sm
20842 8477 Sl
20842 8477 Sm
20857 8458 Sl
20857 8458 Sm
20871 8437 Sl
20871 8437 Sm
20886 8417 Sl
20886 8417 Sm
20900 8400 Sl
20900 8400 Sm
20915 8388 Sl
20915 8388 Sm
20930 8381 Sl
20930 8381 Sm
20944 8373 Sl
20944 8373 Sm
20959 8361 Sl
20959 8361 Sm
20973 8350 Sl
20973 8350 Sm
20988 8338 Sl
20988 8338 Sm
21002 8324 Sl
21002 8324 Sm
21017 8311 Sl
21017 8311 Sm
21031 8301 Sl
21031 8301 Sm
21046 8291 Sl
21046 8291 Sm
21060 8277 Sl
21060 8277 Sm
21075 8267 Sl
21075 8267 Sm
21089 8248 Sl
21089 8248 Sm
21104 8230 Sl
21104 8230 Sm
21119 8213 Sl
21119 8213 Sm
21133 8192 Sl
21133 8192 Sm
21148 8170 Sl
21148 8170 Sm
21162 8150 Sl
21162 8150 Sm
21177 8132 Sl
21177 8132 Sm
21191 8116 Sl
21191 8116 Sm
21206 8106 Sl
21206 8106 Sm
21220 8100 Sl
21220 8100 Sm
21235 8093 Sl
21235 8093 Sm
21249 8087 Sl
21249 8087 Sm
21264 8083 Sl
21264 8083 Sm
21278 8074 Sl
21278 8074 Sm
21293 8070 Sl
21293 8070 Sm
21308 8070 Sl
21308 8070 Sm
21322 8071 Sl
21322 8071 Sm
21337 8069 Sl
21337 8069 Sm
21351 8068 Sl
21351 8068 Sm
21366 8065 Sl
21366 8065 Sm
21380 8064 Sl
21380 8064 Sm
21395 8067 Sl
21395 8067 Sm
21409 8071 Sl
21409 8071 Sm
21424 8075 Sl
21424 8075 Sm
21438 8076 Sl
21438 8076 Sm
21453 8080 Sl
21453 8080 Sm
21468 8078 Sl
21468 8078 Sm
21482 8075 Sl
21482 8075 Sm
21497 8079 Sl
21497 8079 Sm
21511 8080 Sl
21511 8080 Sm
21526 8087 Sl
21526 8087 Sm
21540 8093 Sl
21540 8093 Sm
21555 8098 Sl
21555 8098 Sm
21569 8101 Sl
21569 8101 Sm
21584 8104 Sl
21584 8104 Sm
21598 8113 Sl
21598 8113 Sm
21613 8119 Sl
21613 8119 Sm
21627 8121 Sl
21627 8121 Sm
21642 8121 Sl
21642 8121 Sm
21657 8119 Sl
21657 8119 Sm
21671 8120 Sl
21671 8120 Sm
21686 8117 Sl
21686 8117 Sm
21700 8110 Sl
21700 8110 Sm
21715 8108 Sl
21715 8108 Sm
21729 8100 Sl
21729 8100 Sm
21744 8095 Sl
21744 8095 Sm
21758 8090 Sl
21758 8090 Sm
21773 8081 Sl
21773 8081 Sm
21787 8075 Sl
21787 8075 Sm
21802 8067 Sl
21802 8067 Sm
21817 8056 Sl
21817 8056 Sm
21831 8045 Sl
21831 8045 Sm
21846 8036 Sl
21846 8036 Sm
21860 8026 Sl
21860 8026 Sm
21875 8017 Sl
21875 8017 Sm
21889 8009 Sl
21889 8009 Sm
21904 8008 Sl
21904 8008 Sm
21918 8007 Sl
21918 8007 Sm
21933 8004 Sl
21933 8004 Sm
21947 8001 Sl
21947 8001 Sm
21962 7998 Sl
21962 7998 Sm
21976 7994 Sl
21976 7994 Sm
21991 7993 Sl
21991 7993 Sm
22006 7992 Sl
22006 7992 Sm
22020 7990 Sl
22020 7990 Sm
22035 7982 Sl
22035 7982 Sm
22049 7975 Sl
22049 7975 Sm
22064 7967 Sl
22064 7967 Sm
22078 7960 Sl
22078 7960 Sm
22093 7952 Sl
22093 7952 Sm
22107 7944 Sl
22107 7944 Sm
22122 7940 Sl
22122 7940 Sm
22136 7935 Sl
22136 7935 Sm
22151 7932 Sl
22151 7932 Sm
22165 7929 Sl
22165 7929 Sm
22180 7924 Sl
22180 7924 Sm
22195 7920 Sl
22195 7920 Sm
22209 7919 Sl
22209 7919 Sm
22224 7914 Sl
22224 7914 Sm
22238 7910 Sl
22238 7910 Sm
22253 7904 Sl
22253 7904 Sm
22267 7902 Sl
22267 7902 Sm
22282 7896 Sl
22282 7896 Sm
22296 7890 Sl
22296 7890 Sm
22311 7891 Sl
22311 7891 Sm
22325 7891 Sl
22325 7891 Sm
22340 7884 Sl
22340 7884 Sm
22355 7878 Sl
22355 7878 Sm
22369 7876 Sl
22369 7876 Sm
22384 7873 Sl
22384 7873 Sm
22398 7867 Sl
22398 7867 Sm
22413 7859 Sl
22413 7859 Sm
22427 7848 Sl
22427 7848 Sm
22442 7839 Sl
22442 7839 Sm
22456 7831 Sl
22456 7831 Sm
22471 7828 Sl
22471 7828 Sm
22485 7823 Sl
22485 7823 Sm
22500 7819 Sl
22500 7819 Sm
22514 7816 Sl
22514 7816 Sm
22529 7815 Sl
22529 7815 Sm
22544 7812 Sl
22544 7812 Sm
22558 7812 Sl
22558 7812 Sm
22573 7812 Sl
22573 7812 Sm
22587 7811 Sl
22587 7811 Sm
22602 7815 Sl
22602 7815 Sm
22616 7820 Sl
22616 7820 Sm
22631 7825 Sl
22631 7825 Sm
22645 7833 Sl
22645 7833 Sm
22660 7844 Sl
22660 7844 Sm
22674 7855 Sl
22674 7855 Sm
22689 7864 Sl
22689 7864 Sm
22704 7873 Sl
22704 7873 Sm
22718 7883 Sl
22718 7883 Sm
22733 7894 Sl
22733 7894 Sm
22747 7896 Sl
22747 7896 Sm
22762 7899 Sl
22762 7899 Sm
22776 7906 Sl
22776 7906 Sm
22791 7914 Sl
22791 7914 Sm
22805 7923 Sl
22805 7923 Sm
22820 7933 Sl
22820 7933 Sm
22834 7946 Sl
22834 7946 Sm
22849 7960 Sl
22849 7960 Sm
22863 7976 Sl
22863 7976 Sm
22878 7996 Sl
22878 7996 Sm
22893 8018 Sl
22893 8018 Sm
22907 8031 Sl
22907 8031 Sm
22922 8040 Sl
22922 8040 Sm
22936 8049 Sl
22936 8049 Sm
22951 8058 Sl
22951 8058 Sm
22965 8069 Sl
22965 8069 Sm
22980 8078 Sl
22980 8078 Sm
22994 8084 Sl
22994 8084 Sm
23009 8092 Sl
23009 8092 Sm
23023 8108 Sl
23023 8108 Sm
23038 8119 Sl
23038 8119 Sm
23052 8130 Sl
23052 8130 Sm
23067 8141 Sl
23067 8141 Sm
23082 8152 Sl
23082 8152 Sm
23096 8162 Sl
23096 8162 Sm
23111 8172 Sl
23111 8172 Sm
23125 8185 Sl
23125 8185 Sm
23140 8196 Sl
23140 8196 Sm
23154 8207 Sl
23154 8207 Sm
23169 8221 Sl
23169 8221 Sm
23183 8236 Sl
23183 8236 Sm
23198 8246 Sl
23198 8246 Sm
23212 8261 Sl
23212 8261 Sm
23227 8276 Sl
23227 8276 Sm
23242 8286 Sl
23242 8286 Sm
23256 8298 Sl
23256 8298 Sm
23271 8310 Sl
23271 8310 Sm
23285 8324 Sl
23285 8324 Sm
23300 8336 Sl
23300 8336 Sm
23314 8351 Sl
23314 8351 Sm
23329 8363 Sl
23329 8363 Sm
23343 8382 Sl
23343 8382 Sm
23358 8404 Sl
23358 8404 Sm
23372 8427 Sl
23372 8427 Sm
23387 8451 Sl
23387 8451 Sm
23401 8473 Sl
23401 8473 Sm
23416 8497 Sl
23416 8497 Sm
23431 8528 Sl
23431 8528 Sm
23445 8558 Sl
23445 8558 Sm
23460 8580 Sl
23460 8580 Sm
23474 8606 Sl
23474 8606 Sm
23489 8631 Sl
23489 8631 Sm
23503 8657 Sl
23503 8657 Sm
23518 8686 Sl
23518 8686 Sm
23532 8718 Sl
23532 8718 Sm
23547 8754 Sl
23547 8754 Sm
23561 8789 Sl
23561 8789 Sm
23576 8834 Sl
23576 8834 Sm
23591 8916 Sl
23591 8916 Sm
23605 9022 Sl
23605 9022 Sm
23620 9178 Sl
23620 9178 Sm
23634 9339 Sl
23634 9339 Sm
23649 9497 Sl
23649 9497 Sm
23663 9651 Sl
23663 9651 Sm
23678 9810 Sl
23678 9810 Sm
23692 9967 Sl
23692 9967 Sm
23707 10123 Sl
23707 10123 Sm
23721 10280 Sl
23721 10280 Sm
23736 10442 Sl
23736 10442 Sm
23750 10601 Sl
23750 10601 Sm
23765 10760 Sl
23765 10760 Sm
23780 10916 Sl
23780 10916 Sm
23794 11074 Sl
23794 11074 Sm
23809 11231 Sl
23809 11231 Sm
23823 11386 Sl
23823 11386 Sm
23838 11543 Sl
23838 11543 Sm
23852 11698 Sl
23852 11698 Sm
23867 11848 Sl
23867 11848 Sm
23881 11999 Sl
23881 11999 Sm
23896 12150 Sl
23896 12150 Sm
23910 12301 Sl
23910 12301 Sm
23925 12450 Sl
23925 12450 Sm
23940 12603 Sl
23940 12603 Sm
23954 12754 Sl
23954 12754 Sm
23969 12904 Sl
23969 12904 Sm
23983 13051 Sl
23983 13051 Sm
23998 13199 Sl
23998 13199 Sm
24012 13336 Sl
24012 13336 Sm
24027 13443 Sl
24027 13443 Sm
24041 13518 Sl
24041 13518 Sm
24056 13546 Sl
24056 13546 Sm
24070 13572 Sl
24070 13572 Sm
24085 13595 Sl
24085 13595 Sm
24099 13623 Sl
24099 13623 Sm
24114 13649 Sl
24114 13649 Sm
24129 13674 Sl
24129 13674 Sm
24143 13698 Sl
24143 13698 Sm
24158 13722 Sl
24158 13722 Sm
24172 13740 Sl
24172 13740 Sm
24187 13758 Sl
24187 13758 Sm
24201 13776 Sl
24201 13776 Sm
24216 13799 Sl
24216 13799 Sm
24230 13820 Sl
24230 13820 Sm
24245 13844 Sl
24245 13844 Sm
24259 13868 Sl
24259 13868 Sm
24274 13890 Sl
24274 13890 Sm
24288 13913 Sl
24288 13913 Sm
24303 13937 Sl
24303 13937 Sm
24318 13963 Sl
24318 13963 Sm
24332 13986 Sl
24332 13986 Sm
24347 14010 Sl
24347 14010 Sm
24361 14035 Sl
24361 14035 Sm
24376 14054 Sl
24376 14054 Sm
24390 14072 Sl
24390 14072 Sm
24405 14090 Sl
24405 14090 Sm
24419 14107 Sl
24419 14107 Sm
24434 14124 Sl
24434 14124 Sm
24448 14142 Sl
24448 14142 Sm
24463 14155 Sl
24463 14155 Sm
24478 14172 Sl
24478 14172 Sm
24492 14188 Sl
24492 14188 Sm
24507 14205 Sl
24507 14205 Sm
24521 14222 Sl
24521 14222 Sm
24536 14238 Sl
24536 14238 Sm
24550 14251 Sl
24550 14251 Sm
24565 14265 Sl
24565 14265 Sm
24579 14279 Sl
24579 14279 Sm
24594 14294 Sl
24594 14294 Sm
24608 14310 Sl
24608 14310 Sm
24623 14329 Sl
24623 14329 Sm
24637 14350 Sl
24637 14350 Sm
24652 14364 Sl
24652 14364 Sm
24667 14378 Sl
24667 14378 Sm
24681 14391 Sl
24681 14391 Sm
24696 14402 Sl
24696 14402 Sm
24710 14415 Sl
24710 14415 Sm
24725 14428 Sl
24725 14428 Sm
24739 14442 Sl
24739 14442 Sm
24754 14459 Sl
24754 14459 Sm
24768 14477 Sl
24768 14477 Sm
24783 14492 Sl
24783 14492 Sm
24797 14508 Sl
24797 14508 Sm
24812 14526 Sl
24812 14526 Sm
24827 14547 Sl
24827 14547 Sm
24841 14566 Sl
24841 14566 Sm
24856 14583 Sl
24856 14583 Sm
24870 14595 Sl
24870 14595 Sm
24885 14609 Sl
24885 14609 Sm
24899 14620 Sl
24899 14620 Sm
24914 14631 Sl
24914 14631 Sm
24928 14648 Sl
24928 14648 Sm
24943 14666 Sl
24943 14666 Sm
24957 14681 Sl
24957 14681 Sm
24972 14694 Sl
24972 14694 Sm
24986 14710 Sl
24986 14710 Sm
25001 14728 Sl
25001 14728 Sm
25016 14743 Sl
25016 14743 Sm
25030 14764 Sl
25030 14764 Sm
25045 14784 Sl
25045 14784 Sm
25059 14804 Sl
25059 14804 Sm
25074 14822 Sl
25074 14822 Sm
25088 14844 Sl
25088 14844 Sm
25103 14866 Sl
25103 14866 Sm
25117 14888 Sl
25117 14888 Sm
25132 14913 Sl
25132 14913 Sm
25146 14936 Sl
25146 14936 Sm
25161 14957 Sl
25161 14957 Sm
25175 14974 Sl
25175 14974 Sm
25190 14986 Sl
25190 14986 Sm
25205 14999 Sl
25205 14999 Sm
25219 15015 Sl
25219 15015 Sm
25234 15028 Sl
25234 15028 Sm
25248 15038 Sl
25248 15038 Sm
25263 15046 Sl
25263 15046 Sm
25277 15053 Sl
25277 15053 Sm
25292 15064 Sl
25292 15064 Sm
25306 15079 Sl
25306 15079 Sm
25321 15090 Sl
25321 15090 Sm
25335 15102 Sl
25335 15102 Sm
25350 15117 Sl
25350 15117 Sm
25365 15128 Sl
25365 15128 Sm
25379 15140 Sl
25379 15140 Sm
25394 15151 Sl
25394 15151 Sm
25408 15164 Sl
25408 15164 Sm
25423 15177 Sl
25423 15177 Sm
25437 15187 Sl
25437 15187 Sm
25452 15202 Sl
25452 15202 Sm
25466 15205 Sl
25466 15205 Sm
25481 15208 Sl
25481 15208 Sm
25495 15209 Sl
25495 15209 Sm
25510 15210 Sl
25510 15210 Sm
25524 15212 Sl
25524 15212 Sm
25539 15214 Sl
25539 15214 Sm
25554 15216 Sl
25554 15216 Sm
25568 15216 Sl
25568 15216 Sm
25583 15217 Sl
25583 15217 Sm
25597 15222 Sl
25597 15222 Sm
25612 15230 Sl
25612 15230 Sm
25626 15238 Sl
25626 15238 Sm
25641 15243 Sl
25641 15243 Sm
25655 15242 Sl
25655 15242 Sm
25670 15234 Sl
25670 15234 Sm
25684 15228 Sl
25684 15228 Sm
25699 15223 Sl
25699 15223 Sm
25714 15214 Sl
25714 15214 Sm
25728 15202 Sl
25728 15202 Sm
25743 15186 Sl
25743 15186 Sm
25757 15173 Sl
25757 15173 Sm
25772 15160 Sl
25772 15160 Sm
25786 15141 Sl
25786 15141 Sm
25801 15120 Sl
25801 15120 Sm
25815 15097 Sl
25815 15097 Sm
25830 15076 Sl
25830 15076 Sm
25844 15065 Sl
25844 15065 Sm
25859 15055 Sl
25859 15055 Sm
25873 15043 Sl
25873 15043 Sm
25888 15028 Sl
25888 15028 Sm
25903 15016 Sl
25903 15016 Sm
25917 15006 Sl
25917 15006 Sm
25932 14996 Sl
25932 14996 Sm
25946 14986 Sl
25946 14986 Sm
25961 14968 Sl
25961 14968 Sm
25975 14951 Sl
25975 14951 Sm
25990 14936 Sl
25990 14936 Sm
26004 14918 Sl
26004 14918 Sm
26019 14901 Sl
26019 14901 Sm
26033 14887 Sl
26033 14887 Sm
26048 14870 Sl
26048 14870 Sm
26062 14850 Sl
26062 14850 Sm
26077 14832 Sl
26077 14832 Sm
26092 14817 Sl
26092 14817 Sm
26106 14807 Sl
26106 14807 Sm
26121 14798 Sl
26121 14798 Sm
26135 14788 Sl
26135 14788 Sm
26150 14788 Sl
26150 14788 Sm
26164 14789 Sl
26164 14789 Sm
26179 14799 Sl
26179 14799 Sm
26193 14811 Sl
26193 14811 Sm
26208 14822 Sl
26208 14822 Sm
26222 14836 Sl
26222 14836 Sm
26237 14847 Sl
26237 14847 Sm
26252 14858 Sl
26252 14858 Sm
26266 14870 Sl
26266 14870 Sm
26281 14872 Sl
26281 14872 Sm
26295 14871 Sl
26295 14871 Sm
26310 14872 Sl
26310 14872 Sm
26324 14876 Sl
26324 14876 Sm
26339 14878 Sl
26339 14878 Sm
26353 14876 Sl
26353 14876 Sm
26368 14878 Sl
26368 14878 Sm
26382 14880 Sl
26382 14880 Sm
26397 14888 Sl
26397 14888 Sm
26411 14893 Sl
26411 14893 Sm
26426 14897 Sl
26426 14897 Sm
26441 14903 Sl
26441 14903 Sm
26455 14912 Sl
26455 14912 Sm
26470 14916 Sl
26470 14916 Sm
26484 14915 Sl
26484 14915 Sm
26499 14920 Sl
26499 14920 Sm
26513 14923 Sl
26513 14923 Sm
26528 14930 Sl
26528 14930 Sm
26542 14939 Sl
26542 14939 Sm
26557 14937 Sl
26557 14937 Sm
26571 14935 Sl
26571 14935 Sm
26586 14930 Sl
26586 14930 Sm
26601 14927 Sl
26601 14927 Sm
26615 14914 Sl
26615 14914 Sm
26630 14898 Sl
26630 14898 Sm
26644 14885 Sl
26644 14885 Sm
26659 14857 Sl
26659 14857 Sm
26673 14831 Sl
26673 14831 Sm
26688 14805 Sl
26688 14805 Sm
26702 14774 Sl
26702 14774 Sm
26717 14742 Sl
26717 14742 Sm
26731 14712 Sl
26731 14712 Sm
26746 14687 Sl
26746 14687 Sm
26760 14664 Sl
26760 14664 Sm
26775 14633 Sl
26775 14633 Sm
26790 14604 Sl
26790 14604 Sm
26804 14569 Sl
26804 14569 Sm
26819 14536 Sl
26819 14536 Sm
26833 14502 Sl
26833 14502 Sm
26848 14472 Sl
26848 14472 Sm
26862 14439 Sl
26862 14439 Sm
26877 14406 Sl
26877 14406 Sm
26891 14370 Sl
26891 14370 Sm
26906 14336 Sl
26906 14336 Sm
26920 14307 Sl
26920 14307 Sm
26935 14276 Sl
26935 14276 Sm
26949 14244 Sl
26949 14244 Sm
26964 14210 Sl
26964 14210 Sm
26979 14172 Sl
26979 14172 Sm
26993 14142 Sl
26993 14142 Sm
27008 14113 Sl
27008 14113 Sm
27022 14080 Sl
27022 14080 Sm
27037 14048 Sl
27037 14048 Sm
27051 14015 Sl
27051 14015 Sm
27066 13980 Sl
27066 13980 Sm
27080 13948 Sl
27080 13948 Sm
27095 13932 Sl
27095 13932 Sm
27109 13912 Sl
27109 13912 Sm
27124 13897 Sl
27124 13897 Sm
27139 13879 Sl
27139 13879 Sm
27153 13863 Sl
27153 13863 Sm
27168 13856 Sl
27168 13856 Sm
27182 13847 Sl
27182 13847 Sm
27197 13832 Sl
27197 13832 Sm
27211 13828 Sl
27211 13828 Sm
27226 13825 Sl
27226 13825 Sm
27240 13824 Sl
27240 13824 Sm
27255 13826 Sl
27255 13826 Sm
27269 13811 Sl
27269 13811 Sm
27284 13795 Sl
27284 13795 Sm
27298 13781 Sl
27298 13781 Sm
27313 13765 Sl
27313 13765 Sm
27328 13751 Sl
27328 13751 Sm
27342 13736 Sl
27342 13736 Sm
27357 13728 Sl
27357 13728 Sm
27371 13697 Sl
27371 13697 Sm
27386 13668 Sl
27386 13668 Sm
27400 13643 Sl
27400 13643 Sm
27415 13620 Sl
27415 13620 Sm
27429 13601 Sl
27429 13601 Sm
27444 13583 Sl
27444 13583 Sm
27458 13568 Sl
27458 13568 Sm
27473 13554 Sl
27473 13554 Sm
27488 13519 Sl
27488 13519 Sm
27502 13485 Sl
27502 13485 Sm
27517 13449 Sl
27517 13449 Sm
27531 13413 Sl
27531 13413 Sm
27546 13380 Sl
27546 13380 Sm
27560 13346 Sl
27560 13346 Sm
27575 13316 Sl
27575 13316 Sm
27589 13284 Sl
27589 13284 Sm
27604 13242 Sl
27604 13242 Sm
27618 13198 Sl
27618 13198 Sm
27633 13156 Sl
27633 13156 Sm
27647 13116 Sl
27647 13116 Sm
27662 13076 Sl
27662 13076 Sm
27677 13004 Sl
27677 13004 Sm
27691 12928 Sl
27691 12928 Sm
27706 12866 Sl
27706 12866 Sm
27720 12801 Sl
27720 12801 Sm
27735 12740 Sl
27735 12740 Sm
27749 12680 Sl
27749 12680 Sm
27764 12617 Sl
27764 12617 Sm
27778 12558 Sl
27778 12558 Sm
27793 12469 Sl
27793 12469 Sm
27807 12404 Sl
27807 12404 Sm
27822 12337 Sl
27822 12337 Sm
27836 12269 Sl
27836 12269 Sm
27851 12202 Sl
27851 12202 Sm
27866 12133 Sl
27866 12133 Sm
27880 12039 Sl
27880 12039 Sm
27895 11942 Sl
27895 11942 Sm
27909 11842 Sl
27909 11842 Sm
27924 11766 Sl
27924 11766 Sm
27938 11689 Sl
27938 11689 Sm
27953 11612 Sl
27953 11612 Sm
27967 11532 Sl
27967 11532 Sm
27982 11424 Sl
27982 11424 Sm
27996 11316 Sl
27996 11316 Sm
28011 11207 Sl
28011 11207 Sm
28026 11099 Sl
28026 11099 Sm
28040 10992 Sl
28040 10992 Sm
28055 10885 Sl
28055 10885 Sm
28069 10778 Sl
28069 10778 Sm
28084 10653 Sl
28084 10653 Sm
28098 10523 Sl
28098 10523 Sm
28113 10419 Sl
28113 10419 Sm
28127 10316 Sl
28127 10316 Sm
28142 10213 Sl
28142 10213 Sm
28156 10114 Sl
28156 10114 Sm
28171 10015 Sl
28171 10015 Sm
28185 9913 Sl
28185 9913 Sm
28200 9812 Sl
28200 9812 Sm
28215 9710 Sl
28215 9710 Sm
28229 9632 Sl
28229 9632 Sm
28244 9553 Sl
28244 9553 Sm
28258 9475 Sl
28258 9475 Sm
28273 9394 Sl
28273 9394 Sm
28287 9325 Sl
28287 9325 Sm
28302 9257 Sl
28302 9257 Sm
28316 9207 Sl
28316 9207 Sm
28331 9158 Sl
28331 9158 Sm
28345 9113 Sl
28345 9113 Sm
28360 9066 Sl
28360 9066 Sm
28375 9018 Sl
28375 9018 Sm
28389 8990 Sl
28389 8990 Sm
28404 8965 Sl
28404 8965 Sm
28418 8964 Sl
28418 8964 Sm
28433 8962 Sl
28433 8962 Sm
28447 8960 Sl
28447 8960 Sm
28462 8961 Sl
28462 8961 Sm
28476 8962 Sl
28476 8962 Sm
28491 8972 Sl
28491 8972 Sm
28505 8999 Sl
28505 8999 Sm
28520 9037 Sl
28520 9037 Sm
28534 9079 Sl
28534 9079 Sm
28549 9126 Sl
28549 9126 Sm
28564 9174 Sl
28564 9174 Sm
28578 9222 Sl
28578 9222 Sm
28593 9271 Sl
28593 9271 Sm
28607 9318 Sl
28607 9318 Sm
28622 9366 Sl
28622 9366 Sm
28636 9413 Sl
28636 9413 Sm
28651 9458 Sl
28651 9458 Sm
28665 9504 Sl
28665 9504 Sm
28680 9548 Sl
28680 9548 Sm
28694 9596 Sl
28694 9596 Sm
28709 9646 Sl
28709 9646 Sm
28723 9682 Sl
28723 9682 Sm
28738 9719 Sl
28738 9719 Sm
28753 9759 Sl
28753 9759 Sm
28767 9799 Sl
28767 9799 Sm
28782 9840 Sl
28782 9840 Sm
28796 9882 Sl
28796 9882 Sm
28811 9921 Sl
28811 9921 Sm
28825 9936 Sl
28825 9936 Sm
28840 9945 Sl
28840 9945 Sm
28854 9956 Sl
28854 9956 Sm
28869 9966 Sl
28869 9966 Sm
28883 9969 Sl
28883 9969 Sm
28898 9932 Sl
28898 9932 Sm
28913 9866 Sl
28913 9866 Sm
28927 9746 Sl
28927 9746 Sm
28942 9606 Sl
28942 9606 Sm
28956 9469 Sl
28956 9469 Sm
28971 9335 Sl
28971 9335 Sm
28985 9197 Sl
28985 9197 Sm
29000 9053 Sl
29000 9053 Sm
29014 8909 Sl
29014 8909 Sm
29029 8759 Sl
29029 8759 Sm
29043 8609 Sl
29043 8609 Sm
29058 8459 Sl
29058 8459 Sm
29072 8311 Sl
29072 8311 Sm
29087 8167 Sl
29087 8167 Sm
29102 8022 Sl
29102 8022 Sm
29116 7879 Sl
29116 7879 Sm
29131 7732 Sl
29131 7732 Sm
29145 7588 Sl
29145 7588 Sm
29160 7443 Sl
29160 7443 Sm
29174 7300 Sl
29174 7300 Sm
29189 7159 Sl
29189 7159 Sm
29203 7017 Sl
29203 7017 Sm
29218 6873 Sl
29218 6873 Sm
29232 6727 Sl
29232 6727 Sm
29247 6586 Sl
29247 6586 Sm
29262 6450 Sl
29262 6450 Sm
29276 6318 Sl
29276 6318 Sm
29291 6190 Sl
29291 6190 Sm
29305 6062 Sl
29305 6062 Sm
29320 5952 Sl
29320 5952 Sm
29334 5875 Sl
29334 5875 Sm
29349 5829 Sl
29349 5829 Sm
29363 5827 Sl
29363 5827 Sm
29378 5827 Sl
29378 5827 Sm
29392 5828 Sl
29392 5828 Sm
29407 5824 Sl
29407 5824 Sm
29421 5819 Sl
29421 5819 Sm
29436 5825 Sl
29436 5825 Sm
29451 5830 Sl
29451 5830 Sm
29465 5839 Sl
29465 5839 Sm
29480 5856 Sl
29480 5856 Sm
29494 5875 Sl
29494 5875 Sm
29509 5896 Sl
29509 5896 Sm
29523 5911 Sl
29523 5911 Sm
29538 5925 Sl
29538 5925 Sm
29552 5936 Sl
29552 5936 Sm
29567 5947 Sl
29567 5947 Sm
29581 5959 Sl
29581 5959 Sm
29596 5967 Sl
29596 5967 Sm
29611 5982 Sl
29611 5982 Sm
29625 5993 Sl
29625 5993 Sm
29640 6007 Sl
29640 6007 Sm
29654 6024 Sl
29654 6024 Sm
29669 6042 Sl
29669 6042 Sm
29683 6061 Sl
29683 6061 Sm
29698 6079 Sl
29698 6079 Sm
29712 6103 Sl
29712 6103 Sm
29727 6125 Sl
29727 6125 Sm
29741 6148 Sl
29741 6148 Sm
29756 6161 Sl
29756 6161 Sm
29770 6173 Sl
29770 6173 Sm
29785 6185 Sl
29785 6185 Sm
29800 6197 Sl
29800 6197 Sm
29814 6211 Sl
29814 6211 Sm
29829 6240 Sl
29829 6240 Sm
29843 6273 Sl
29843 6273 Sm
29858 6307 Sl
29858 6307 Sm
29872 6335 Sl
29872 6335 Sm
29887 6367 Sl
29887 6367 Sm
29901 6398 Sl
29901 6398 Sm
29916 6426 Sl
29916 6426 Sm
29930 6446 Sl
29930 6446 Sm
29945 6463 Sl
29945 6463 Sm
29959 6482 Sl
29959 6482 Sm
29974 6502 Sl
29974 6502 Sm
29989 6525 Sl
29989 6525 Sm
30003 6547 Sl
30003 6547 Sm
30018 6578 Sl
30018 6578 Sm
30032 6609 Sl
30032 6609 Sm
30047 6630 Sl
30047 6630 Sm
30061 6652 Sl
30061 6652 Sm
30076 6673 Sl
30076 6673 Sm
30090 6694 Sl
30090 6694 Sm
30105 6720 Sl
30105 6720 Sm
30119 6746 Sl
30119 6746 Sm
30134 6769 Sl
30134 6769 Sm
30149 6787 Sl
30149 6787 Sm
30163 6805 Sl
30163 6805 Sm
30178 6823 Sl
30178 6823 Sm
30192 6841 Sl
30192 6841 Sm
30207 6863 Sl
30207 6863 Sm
30221 6884 Sl
30221 6884 Sm
30236 6898 Sl
30236 6898 Sm
30250 6911 Sl
30250 6911 Sm
30265 6909 Sl
30265 6909 Sm
30279 6910 Sl
30279 6910 Sm
30294 6911 Sl
30294 6911 Sm
30308 6913 Sl
30308 6913 Sm
30323 6914 Sl
30323 6914 Sm
30338 6907 Sl
30338 6907 Sm
30352 6896 Sl
30352 6896 Sm
30367 6889 Sl
30367 6889 Sm
30381 6884 Sl
30381 6884 Sm
30396 6878 Sl
30396 6878 Sm
30410 6871 Sl
30410 6871 Sm
30425 6860 Sl
30425 6860 Sm
30439 6846 Sl
30439 6846 Sm
30454 6826 Sl
30454 6826 Sm
30468 6806 Sl
30468 6806 Sm
30483 6791 Sl
30483 6791 Sm
30498 6775 Sl
30498 6775 Sm
30512 6759 Sl
30512 6759 Sm
30527 6745 Sl
30527 6745 Sm
30541 6716 Sl
30541 6716 Sm
30556 6685 Sl
30556 6685 Sm
30570 6657 Sl
30570 6657 Sm
30585 6630 Sl
30585 6630 Sm
30599 6603 Sl
30599 6603 Sm
30614 6575 Sl
30614 6575 Sm
30628 6547 Sl
30628 6547 Sm
30643 6523 Sl
30643 6523 Sm
30657 6496 Sl
30657 6496 Sm
30672 6477 Sl
5007 5260 5022 5260 Sln
5022 5260 5036 5260 Sln
5036 5260 5051 5260 Sln
5051 5260 5065 5260 Sln
5065 5260 5080 5260 Sln
5080 5260 5094 5260 Sln
5094 5260 5109 5260 Sln
5109 5260 5123 5260 Sln
5123 5260 5138 5260 Sln
5138 5260 5152 5260 Sln
5152 5260 5167 5260 Sln
5167 5260 5182 5260 Sln
5182 5260 5196 5260 Sln
5196 5260 5211 5260 Sln
5211 5260 5225 5260 Sln
5225 5260 5240 5260 Sln
5240 5260 5254 5260 Sln
5254 5260 5269 5260 Sln
5269 5260 5283 5260 Sln
5283 5260 5298 5260 Sln
5298 5260 5312 5260 Sln
5312 5260 5327 5260 Sln
5327 5260 5342 5260 Sln
5342 5260 5356 5260 Sln
5356 5260 5371 5260 Sln
5371 5260 5385 5260 Sln
5385 5260 5400 5260 Sln
5400 5260 5414 5260 Sln
5414 5260 5429 5260 Sln
5429 5260 5443 5260 Sln
5443 5260 5443 5289 Sln
5444 5522 5448 5987 Sln
5449 6220 5453 6685 Sln
5454 6918 5458 7383 Sln
5648 7426 5661 7426 Sln
5661 7426 5676 7426 Sln
5676 7426 5691 7426 Sln
5691 7426 5705 7426 Sln
5705 7426 5720 7426 Sln
5720 7426 5734 7426 Sln
5734 7426 5749 7426 Sln
5749 7426 5763 7426 Sln
5763 7426 5778 7426 Sln
5778 7426 5792 7426 Sln
5792 7426 5807 7426 Sln
5807 7426 5821 7426 Sln
5821 7426 5836 7426 Sln
5836 7426 5850 7426 Sln
5850 7426 5865 7426 Sln
5865 7426 5880 7426 Sln
5880 7426 5890 7193 Sln
6047 7113 6054 7113 Sln
6054 7113 6069 7113 Sln
6069 7113 6083 7113 Sln
6083 7113 6098 7113 Sln
6098 7113 6112 7113 Sln
6112 7113 6127 7113 Sln
6127 7113 6141 7113 Sln
6141 7113 6156 7113 Sln
6156 7113 6170 7113 Sln
6170 7113 6185 7113 Sln
6185 7113 6199 7113 Sln
6199 7113 6214 7113 Sln
6214 7113 6229 7113 Sln
6229 7113 6243 7113 Sln
6243 7113 6258 7113 Sln
6258 7113 6272 7113 Sln
6272 7113 6287 7113 Sln
6287 7113 6301 7113 Sln
6301 7113 6316 7113 Sln
6316 7113 6330 7113 Sln
6330 7113 6338 6932 Sln
6445 6799 6447 6799 Sln
6447 6799 6461 6799 Sln
6461 6799 6476 6799 Sln
6476 6799 6490 6799 Sln
6490 6799 6505 6799 Sln
6505 6799 6519 6799 Sln
6519 6799 6534 6799 Sln
6534 6799 6548 6799 Sln
6548 6799 6563 6799 Sln
6563 6799 6578 6799 Sln
6578 6799 6592 6799 Sln
6592 6799 6607 6799 Sln
6607 6799 6621 6799 Sln
6621 6799 6636 6799 Sln
6636 6799 6650 6799 Sln
6650 6799 6665 6799 Sln
6665 6799 6679 6799 Sln
6679 6799 6694 6799 Sln
6694 6799 6708 6799 Sln
6708 6799 6723 6799 Sln
6723 6799 6737 6799 Sln
6737 6799 6752 6799 Sln
6752 6799 6767 6799 Sln
6767 6799 6781 6799 Sln
6781 6799 6784 6670 Sln
6789 6437 6796 6177 Sln
6796 6177 6810 6177 Sln
6810 6177 6825 6177 Sln
6825 6177 6839 6177 Sln
6839 6177 6854 6177 Sln
6854 6177 6868 6177 Sln
6868 6177 6883 6177 Sln
6883 6177 6897 6177 Sln
6897 6177 6912 6177 Sln
6912 6177 6926 6177 Sln
6926 6177 6941 6177 Sln
6941 6177 6956 6177 Sln
6956 6177 6970 6177 Sln
6970 6177 6985 6177 Sln
6985 6177 6999 6177 Sln
6999 6177 7001 6177 Sln
7190 6223 7203 6487 Sln
7203 6487 7217 6487 Sln
7217 6487 7232 6487 Sln
7232 6487 7246 6487 Sln
7246 6487 7261 6487 Sln
7261 6487 7275 6487 Sln
7275 6487 7290 6487 Sln
7290 6487 7305 6487 Sln
7305 6487 7319 6487 Sln
7319 6487 7334 6487 Sln
7334 6487 7348 6487 Sln
7348 6487 7363 6487 Sln
7363 6487 7377 6487 Sln
7377 6487 7392 6487 Sln
7392 6487 7403 6487 Sln
7636 6487 7639 6487 Sln
7639 6487 7654 6492 Sln
7654 6492 7668 6492 Sln
7668 6492 7683 6492 Sln
7683 6492 7697 6492 Sln
7697 6492 7712 6492 Sln
7712 6492 7726 6492 Sln
7726 6492 7741 6492 Sln
7741 6492 7755 6492 Sln
7755 6492 7770 6492 Sln
7770 6492 7784 6492 Sln
7784 6492 7799 6492 Sln
7799 6492 7814 6492 Sln
7814 6492 7828 6492 Sln
7828 6492 7843 6492 Sln
7843 6492 7857 6492 Sln
7857 6492 7872 6492 Sln
7872 6492 7886 6492 Sln
7886 6492 7901 6492 Sln
7901 6492 7915 6492 Sln
7915 6492 7930 6492 Sln
7930 6492 7944 6492 Sln
7944 6492 7959 6492 Sln
7959 6492 7973 6492 Sln
7973 6492 7988 6492 Sln
7988 6492 8003 6492 Sln
8003 6492 8017 6492 Sln
8017 6492 8032 6492 Sln
8032 6492 8046 6492 Sln
8046 6492 8061 6492 Sln
8061 6492 8075 6492 Sln
8075 6492 8090 6493 Sln
8090 6493 8100 6493 Sln
8333 6493 8337 6493 Sln
8337 6493 8352 6493 Sln
8352 6493 8366 6493 Sln
8366 6493 8381 6493 Sln
8381 6493 8395 6493 Sln
8395 6493 8410 6493 Sln
8410 6493 8424 6493 Sln
8424 6493 8439 6493 Sln
8439 6493 8453 6493 Sln
8453 6493 8468 6493 Sln
8468 6493 8482 6493 Sln
8482 6493 8497 6493 Sln
8497 6493 8511 6493 Sln
8511 6493 8526 6493 Sln
8526 6493 8539 6765 Sln
8736 6803 8744 6803 Sln
8744 6803 8759 6803 Sln
8759 6803 8773 6803 Sln
8773 6803 8788 6803 Sln
8788 6803 8802 6803 Sln
8802 6803 8817 6803 Sln
8817 6803 8831 6803 Sln
8831 6803 8846 6803 Sln
8846 6803 8860 6803 Sln
8860 6803 8875 6803 Sln
8875 6803 8890 6803 Sln
8890 6803 8904 6803 Sln
8904 6803 8919 6803 Sln
8919 6803 8933 6803 Sln
8933 6803 8948 6803 Sln
8948 6803 8962 6803 Sln
8962 6803 8977 6800 Sln
8977 6800 8991 6800 Sln
8991 6800 9006 6800 Sln
9006 6800 9020 6800 Sln
9020 6800 9035 6800 Sln
9035 6800 9049 6800 Sln
9049 6800 9064 6800 Sln
9064 6800 9079 6800 Sln
9079 6800 9093 6800 Sln
9093 6800 9108 6800 Sln
9108 6800 9122 6800 Sln
9122 6800 9137 6800 Sln
9137 6800 9151 6800 Sln
9151 6800 9166 6800 Sln
9166 6800 9180 6800 Sln
9180 6800 9195 6800 Sln
9195 6800 9201 6800 Sln
9413 6821 9417 7286 Sln
9419 7519 9423 7984 Sln
9425 8217 9428 8675 Sln
9428 8675 9436 8675 Sln
9668 8675 9675 8675 Sln
9675 8675 9689 8675 Sln
9689 8675 9704 8675 Sln
9704 8675 9718 8675 Sln
9718 8675 9733 8675 Sln
9733 8675 9747 8675 Sln
9747 8675 9762 8675 Sln
9762 8675 9777 8675 Sln
9777 8675 9791 8675 Sln
9791 8675 9806 8675 Sln
9806 8675 9820 8675 Sln
9820 8675 9835 8675 Sln
9835 8675 9849 8675 Sln
9849 8675 9864 8675 Sln
9864 8675 9878 8674 Sln
9878 8674 9893 8674 Sln
9893 8674 9907 8674 Sln
9907 8674 9922 8674 Sln
9922 8674 9936 8674 Sln
9936 8674 9951 8674 Sln
9951 8674 9966 8674 Sln
9966 8674 9980 8674 Sln
9980 8674 9995 8674 Sln
9995 8674 10009 8674 Sln
10009 8674 10024 8674 Sln
10024 8674 10038 8674 Sln
10038 8674 10053 8674 Sln
10053 8674 10067 8674 Sln
10067 8674 10082 8674 Sln
10082 8674 10096 8674 Sln
10096 8674 10111 8674 Sln
10111 8674 10126 8674 Sln
10126 8674 10134 8674 Sln
10302 8608 10312 8142 Sln
10454 8048 10460 8048 Sln
10460 8048 10475 8048 Sln
10475 8048 10489 8048 Sln
10489 8048 10504 8048 Sln
10504 8048 10518 8048 Sln
10518 8048 10533 8048 Sln
10533 8048 10547 8048 Sln
10547 8048 10562 8048 Sln
10562 8048 10576 8048 Sln
10576 8048 10591 8048 Sln
10591 8048 10605 8048 Sln
10605 8048 10620 8048 Sln
10620 8048 10634 8048 Sln
10634 8048 10649 8048 Sln
10649 8048 10664 8048 Sln
10664 8048 10678 8048 Sln
10678 8048 10693 8048 Sln
10693 8048 10707 8048 Sln
10707 8048 10722 8048 Sln
10722 8048 10736 8048 Sln
10736 8048 10751 8048 Sln
10751 8048 10755 7880 Sln
10760 7648 10765 7425 Sln
10765 7425 10780 7425 Sln
10780 7425 10794 7425 Sln
10794 7425 10809 7425 Sln
10809 7425 10823 7425 Sln
10823 7425 10838 7425 Sln
10838 7425 10853 7425 Sln
10853 7425 10867 7425 Sln
10867 7425 10882 7425 Sln
10882 7425 10896 7425 Sln
10896 7425 10911 7425 Sln
10911 7425 10925 7425 Sln
10925 7425 10940 7425 Sln
10940 7425 10954 7425 Sln
10954 7425 10969 7425 Sln
10969 7425 10983 7425 Sln
10983 7425 10998 7425 Sln
10998 7425 11008 7425 Sln
11188 7372 11196 6907 Sln
11199 6674 11202 6485 Sln
11202 6485 11216 6485 Sln
11216 6485 11231 6485 Sln
11231 6485 11245 6485 Sln
11245 6485 11260 6485 Sln
11260 6485 11274 6485 Sln
11274 6485 11289 6485 Sln
11289 6485 11303 6485 Sln
11303 6485 11318 6485 Sln
11318 6485 11332 6485 Sln
11332 6485 11347 6485 Sln
11347 6485 11362 6485 Sln
11362 6485 11376 6485 Sln
11376 6485 11391 6485 Sln
11391 6485 11405 6485 Sln
11405 6485 11420 6485 Sln
11420 6485 11434 6485 Sln
11434 6485 11449 6485 Sln
11449 6485 11463 6485 Sln
11463 6485 11478 6485 Sln
11478 6485 11479 6485 Sln
11639 6559 11646 7024 Sln
11649 7257 11652 7421 Sln
11652 7421 11667 7421 Sln
11667 7421 11681 7421 Sln
11681 7421 11696 7421 Sln
11696 7421 11710 7421 Sln
11710 7421 11725 7421 Sln
11725 7421 11740 7421 Sln
11740 7421 11754 7421 Sln
11754 7421 11769 7421 Sln
11769 7421 11783 7421 Sln
11783 7421 11798 7421 Sln
11798 7421 11812 7421 Sln
11812 7421 11827 7421 Sln
11827 7421 11841 7421 Sln
11841 7421 11856 7421 Sln
11856 7421 11870 7421 Sln
11870 7421 11885 7421 Sln
11885 7421 11900 7421 Sln
11900 7421 11914 7421 Sln
11914 7421 11929 7421 Sln
11929 7421 11943 7421 Sln
11943 7421 11953 7421 Sln
12091 7518 12097 7983 Sln
12101 8216 12103 8361 Sln
12103 8361 12118 8361 Sln
12118 8361 12132 8361 Sln
12132 8361 12147 8361 Sln
12147 8361 12161 8361 Sln
12161 8361 12176 8361 Sln
12176 8361 12190 8361 Sln
12190 8361 12205 8361 Sln
12205 8361 12219 8361 Sln
12219 8361 12234 8361 Sln
12234 8361 12249 8361 Sln
12249 8361 12263 8361 Sln
12263 8361 12278 8361 Sln
12278 8361 12292 8361 Sln
12292 8361 12307 8361 Sln
12307 8361 12321 8361 Sln
12321 8361 12336 8361 Sln
12336 8361 12350 8361 Sln
12350 8361 12365 8361 Sln
12365 8361 12379 8361 Sln
12379 8361 12394 8361 Sln
12394 8361 12408 8361 Sln
12408 8361 12423 8361 Sln
12513 8507 12524 8972 Sln
12740 8989 12743 8989 Sln
12743 8989 12757 8989 Sln
12757 8989 12772 8989 Sln
12772 8989 12787 8989 Sln
12787 8989 12801 8989 Sln
12801 8989 12816 8989 Sln
12816 8989 12830 8989 Sln
12830 8989 12845 8989 Sln
12845 8989 12859 8989 Sln
12859 8989 12874 8989 Sln
12874 8989 12888 8989 Sln
12888 8989 12903 8989 Sln
12903 8989 12917 8989 Sln
12917 8989 12932 8989 Sln
12932 8989 12946 8989 Sln
12946 8989 12961 8989 Sln
12961 8989 12967 9234 Sln
12973 9467 12976 9612 Sln
12976 9612 12990 9612 Sln
12990 9612 13005 9612 Sln
13005 9612 13019 9612 Sln
13019 9612 13034 9612 Sln
13034 9612 13048 9612 Sln
13048 9612 13063 9612 Sln
13063 9612 13077 9612 Sln
13077 9612 13092 9612 Sln
13092 9612 13106 9612 Sln
13106 9612 13121 9612 Sln
13121 9612 13136 9612 Sln
13136 9612 13150 9612 Sln
13150 9612 13165 9612 Sln
13165 9612 13179 9612 Sln
13179 9612 13194 9612 Sln
13194 9612 13208 9612 Sln
13208 9612 13223 9612 Sln
13223 9612 13237 9612 Sln
13237 9612 13252 9612 Sln
13252 9612 13266 9612 Sln
13266 9612 13281 9612 Sln
13281 9612 13295 9612 Sln
13295 9612 13296 9612 Sln
13529 9610 13543 9610 Sln
13543 9610 13557 9610 Sln
13557 9610 13572 9610 Sln
13572 9610 13586 9610 Sln
13586 9610 13601 9610 Sln
13601 9610 13615 9610 Sln
13615 9610 13630 9610 Sln
13630 9610 13644 9610 Sln
13644 9610 13659 9610 Sln
13659 9610 13674 9610 Sln
13674 9610 13688 9610 Sln
13688 9610 13703 9610 Sln
13703 9610 13717 9610 Sln
13717 9610 13732 9610 Sln
13732 9610 13746 9610 Sln
13746 9610 13761 9610 Sln
13761 9610 13775 9610 Sln
13775 9610 13790 9610 Sln
13790 9610 13804 9610 Sln
13804 9610 13819 9610 Sln
13819 9610 13833 9610 Sln
13833 9610 13848 9610 Sln
13848 9610 13851 9464 Sln
13854 9231 13861 8766 Sln
14003 8673 14008 8673 Sln
14008 8673 14023 8673 Sln
14023 8673 14037 8673 Sln
14037 8673 14052 8673 Sln
14052 8673 14066 8673 Sln
14066 8673 14081 8673 Sln
14081 8673 14095 8673 Sln
14095 8673 14110 8673 Sln
14110 8673 14124 8673 Sln
14124 8673 14139 8673 Sln
14139 8673 14153 8673 Sln
14153 8673 14168 8673 Sln
14168 8673 14182 8673 Sln
14182 8673 14197 8673 Sln
14197 8673 14212 8673 Sln
14212 8673 14226 8673 Sln
14226 8673 14241 8673 Sln
14241 8673 14255 8673 Sln
14255 8673 14270 8673 Sln
14270 8673 14284 8673 Sln
14284 8673 14287 8488 Sln
14291 8256 14298 7790 Sln
14477 7735 14488 7735 Sln
14488 7735 14502 7735 Sln
14502 7735 14517 7735 Sln
14517 7735 14531 7735 Sln
14531 7735 14546 7735 Sln
14546 7735 14561 7735 Sln
14561 7735 14575 7735 Sln
14575 7735 14590 7735 Sln
14590 7735 14604 7735 Sln
14604 7735 14619 7735 Sln
14619 7735 14633 7735 Sln
14633 7735 14648 7735 Sln
14648 7735 14662 7735 Sln
14662 7735 14677 7735 Sln
14677 7735 14691 7735 Sln
14691 7735 14706 7735 Sln
14706 7735 14720 7735 Sln
14720 7735 14735 7735 Sln
14735 7735 14738 7528 Sln
14742 7295 14750 6830 Sln
14948 6795 14953 6795 Sln
14953 6795 14968 6795 Sln
14968 6795 14982 6795 Sln
14982 6795 14997 6795 Sln
14997 6795 15011 6795 Sln
15011 6795 15026 6795 Sln
15026 6795 15040 6795 Sln
15040 6795 15055 6795 Sln
15055 6795 15069 6795 Sln
15069 6795 15084 6795 Sln
15084 6795 15099 6795 Sln
15099 6795 15113 6795 Sln
15113 6795 15128 6795 Sln
15128 6795 15142 6795 Sln
15142 6795 15157 6795 Sln
15157 6795 15171 6795 Sln
15171 6795 15186 6795 Sln
15186 6795 15196 6568 Sln
15350 6485 15360 6485 Sln
15360 6485 15375 6485 Sln
15375 6485 15389 6485 Sln
15389 6485 15404 6485 Sln
15404 6485 15418 6485 Sln
15418 6485 15433 6485 Sln
15433 6485 15448 6485 Sln
15448 6485 15462 6485 Sln
15462 6485 15477 6485 Sln
15477 6485 15491 6485 Sln
15491 6485 15506 6485 Sln
15506 6485 15520 6485 Sln
15520 6485 15535 6485 Sln
15535 6485 15549 6485 Sln
15549 6485 15564 6485 Sln
15564 6485 15578 6485 Sln
15578 6485 15593 6485 Sln
15593 6485 15607 6485 Sln
15607 6485 15622 6485 Sln
15622 6485 15627 6678 Sln
15632 6911 15637 7110 Sln
15637 7110 15651 7110 Sln
15651 7110 15666 7110 Sln
15666 7110 15680 7110 Sln
15680 7110 15695 7110 Sln
15695 7110 15709 7110 Sln
15709 7110 15724 7110 Sln
15724 7110 15738 7110 Sln
15738 7110 15753 7110 Sln
15753 7110 15767 7110 Sln
15767 7110 15782 7110 Sln
15782 7110 15797 7110 Sln
15797 7110 15811 7110 Sln
15811 7110 15826 7110 Sln
15826 7110 15840 7110 Sln
15840 7110 15855 7110 Sln
15855 7110 15869 7110 Sln
15869 7110 15884 7110 Sln
15884 7110 15898 7110 Sln
15898 7110 15904 7110 Sln
16076 7046 16087 6799 Sln
16087 6799 16102 6799 Sln
16102 6799 16116 6799 Sln
16116 6799 16131 6799 Sln
16131 6799 16146 6799 Sln
16146 6799 16160 6799 Sln
16160 6799 16175 6799 Sln
16175 6799 16189 6799 Sln
16189 6799 16204 6799 Sln
16204 6799 16218 6799 Sln
16218 6799 16233 6799 Sln
16233 6799 16247 6799 Sln
16247 6799 16262 6799 Sln
16262 6799 16276 6799 Sln
16276 6799 16291 6799 Sln
16291 6799 16304 6799 Sln
16510 6827 16521 7292 Sln
16629 7420 16640 7420 Sln
16640 7420 16654 7420 Sln
16654 7420 16669 7420 Sln
16669 7420 16684 7420 Sln
16684 7420 16698 7420 Sln
16698 7420 16713 7420 Sln
16713 7420 16727 7420 Sln
16727 7420 16742 7420 Sln
16742 7420 16756 7420 Sln
16756 7420 16771 7420 Sln
16771 7420 16785 7420 Sln
16785 7420 16800 7420 Sln
16800 7420 16814 7420 Sln
16814 7420 16829 7420 Sln
16829 7420 16843 7420 Sln
16843 7420 16858 7420 Sln
16858 7420 16873 7420 Sln
16873 7420 16887 7420 Sln
16887 7420 16902 7420 Sln
16902 7420 16916 7420 Sln
16916 7420 16931 7420 Sln
16931 7420 16945 7420 Sln
16945 7420 16960 7420 Sln
16960 7420 16966 7554 Sln
17026 7734 17033 7734 Sln
17033 7734 17047 7734 Sln
17047 7734 17062 7734 Sln
17062 7734 17076 7734 Sln
17076 7734 17091 7734 Sln
17091 7734 17105 7734 Sln
17105 7734 17120 7734 Sln
17120 7734 17134 7734 Sln
17134 7734 17149 7734 Sln
17149 7734 17163 7734 Sln
17163 7734 17178 7734 Sln
17178 7734 17192 7734 Sln
17192 7734 17207 7734 Sln
17207 7734 17222 7734 Sln
17222 7734 17236 7734 Sln
17236 7734 17251 7734 Sln
17251 7734 17265 7734 Sln
17265 7734 17280 7734 Sln
17280 7734 17294 7734 Sln
17294 7734 17309 7734 Sln
17309 7734 17323 7734 Sln
17323 7734 17338 7734 Sln
17338 7734 17352 7734 Sln
17352 7734 17367 7734 Sln
17367 7734 17381 7734 Sln
17381 7734 17396 7734 Sln
17396 7734 17411 7734 Sln
17411 7734 17413 7653 Sln
17418 7421 17425 7107 Sln
17425 7107 17440 7107 Sln
17440 7107 17454 7107 Sln
17454 7107 17469 7107 Sln
17469 7107 17483 7107 Sln
17483 7107 17498 7107 Sln
17498 7107 17512 7107 Sln
17512 7107 17527 7107 Sln
17527 7107 17541 7107 Sln
17541 7107 17556 7107 Sln
17556 7107 17571 7107 Sln
17571 7107 17577 7107 Sln
17810 7107 17818 7107 Sln
17818 7107 17825 6650 Sln
17828 6417 17832 6171 Sln
17832 6171 17847 6171 Sln
17847 6171 17861 6171 Sln
17861 6171 17876 6171 Sln
17876 6171 17890 6171 Sln
17890 6171 17905 6171 Sln
17905 6171 17920 6171 Sln
17920 6171 17934 6171 Sln
17934 6171 17949 6171 Sln
17949 6171 17963 6171 Sln
17963 6171 17978 6171 Sln
17978 6171 17992 6171 Sln
17992 6171 18007 6171 Sln
18007 6171 18021 6171 Sln
18021 6171 18036 6171 Sln
18036 6171 18050 6171 Sln
18050 6171 18051 6171 Sln
18269 6155 18276 5690 Sln
18279 5457 18283 5247 Sln
18283 5247 18298 5247 Sln
18298 5247 18312 5247 Sln
18312 5247 18327 5247 Sln
18327 5247 18341 5247 Sln
18341 5247 18356 5247 Sln
18356 5247 18370 5247 Sln
18370 5247 18385 5247 Sln
18385 5247 18399 5247 Sln
18399 5247 18414 5247 Sln
18414 5247 18428 5247 Sln
18428 5247 18443 5247 Sln
18443 5247 18458 5247 Sln
18458 5247 18472 5247 Sln
18472 5247 18487 5247 Sln
18487 5247 18501 5247 Sln
18501 5247 18516 5247 Sln
18516 5247 18530 5247 Sln
18530 5247 18538 5247 Sln
18707 5312 18717 5778 Sln
18859 5871 18865 5871 Sln
18865 5871 18879 5871 Sln
18879 5871 18894 5871 Sln
18894 5871 18908 5871 Sln
18908 5871 18923 5871 Sln
18923 5871 18937 5871 Sln
18937 5871 18952 5871 Sln
18952 5871 18966 5871 Sln
18966 5871 18981 5871 Sln
18981 5871 18996 5871 Sln
18996 5871 19010 5871 Sln
19010 5871 19025 5871 Sln
19025 5871 19039 5871 Sln
19039 5871 19054 5871 Sln
19054 5871 19068 5871 Sln
19068 5871 19083 5871 Sln
19083 5871 19097 5871 Sln
19097 5871 19112 5871 Sln
19112 5871 19126 5871 Sln
19126 5871 19141 5871 Sln
19141 5871 19156 5871 Sln
19156 5871 19158 6039 Sln
19161 6272 19166 6737 Sln
19168 6970 19170 7112 Sln
19170 7112 19185 7112 Sln
19185 7112 19199 7112 Sln
19199 7112 19214 7112 Sln
19214 7112 19228 7112 Sln
19228 7112 19243 7112 Sln
19243 7112 19257 7112 Sln
19257 7112 19272 7112 Sln
19272 7112 19286 7112 Sln
19286 7112 19301 7112 Sln
19301 7112 19315 7112 Sln
19315 7112 19330 7112 Sln
19330 7112 19345 7112 Sln
19345 7112 19359 7112 Sln
19359 7112 19374 7112 Sln
19374 7112 19388 7112 Sln
19388 7112 19403 7112 Sln
19403 7112 19417 7112 Sln
19417 7112 19432 7112 Sln
19432 7112 19446 7112 Sln
19446 7112 19461 7112 Sln
19461 7112 19475 7112 Sln
19475 7112 19490 7112 Sln
19490 7112 19493 7112 Sln
19593 7246 19597 7711 Sln
19599 7944 19604 8409 Sln
19606 8642 19606 8675 Sln
19606 8675 19621 8675 Sln
19621 8675 19635 8675 Sln
19635 8675 19650 8675 Sln
19650 8675 19664 8675 Sln
19664 8675 19679 8675 Sln
19679 8675 19694 8675 Sln
19694 8675 19708 8675 Sln
19708 8675 19723 8675 Sln
19723 8675 19737 8675 Sln
19737 8675 19752 8675 Sln
19752 8675 19766 8675 Sln
19766 8675 19781 8675 Sln
19781 8675 19795 8675 Sln
19795 8675 19810 8675 Sln
19810 8675 19824 8675 Sln
19824 8675 19839 8675 Sln
19839 8675 19853 8675 Sln
19853 8675 19868 8675 Sln
19868 8675 19883 8675 Sln
19883 8675 19897 8675 Sln
19897 8675 19912 8675 Sln
19912 8675 19926 8675 Sln
19926 8675 19941 8675 Sln
19941 8675 19955 8675 Sln
19955 8675 19970 8675 Sln
19970 8675 19984 8675 Sln
19984 8675 19999 8675 Sln
19999 8675 20013 8675 Sln
20013 8675 20028 8675 Sln
20028 8675 20038 8675 Sln
20045 8903 20049 9369 Sln
20051 9601 20056 10067 Sln
20109 10248 20115 10248 Sln
20115 10248 20130 10248 Sln
20130 10248 20144 10248 Sln
20144 10248 20159 10248 Sln
20159 10248 20173 10248 Sln
20173 10248 20188 10248 Sln
20188 10248 20202 10248 Sln
20202 10248 20217 10248 Sln
20217 10248 20232 10248 Sln
20232 10248 20246 10248 Sln
20246 10248 20261 10248 Sln
20261 10248 20275 10248 Sln
20275 10248 20290 10248 Sln
20290 10248 20304 10248 Sln
20304 10248 20319 10248 Sln
20319 10248 20333 10248 Sln
20333 10248 20348 10248 Sln
20348 10248 20362 10248 Sln
20362 10248 20377 10248 Sln
20377 10248 20391 10248 Sln
20391 10248 20406 10248 Sln
20406 10248 20421 10248 Sln
20421 10248 20435 10248 Sln
20435 10248 20450 10248 Sln
20450 10248 20464 10248 Sln
20464 10248 20479 10248 Sln
20479 10248 20493 10248 Sln
20493 10248 20495 10329 Sln
20501 10562 20508 10874 Sln
20508 10874 20522 10874 Sln
20522 10874 20537 10874 Sln
20537 10874 20551 10874 Sln
20551 10874 20566 10874 Sln
20566 10874 20581 10874 Sln
20581 10874 20595 10874 Sln
20595 10874 20610 10874 Sln
20610 10874 20624 10874 Sln
20624 10874 20639 10874 Sln
20639 10874 20653 10874 Sln
20653 10874 20661 10874 Sln
20894 10874 20900 10874 Sln
20900 10874 20915 10874 Sln
20915 10874 20930 10874 Sln
20930 10874 20944 11182 Sln
20944 11182 20959 11182 Sln
20959 11182 20973 11182 Sln
20973 11182 20988 11182 Sln
20988 11182 21002 11182 Sln
21002 11182 21017 11182 Sln
21017 11182 21031 11182 Sln
21031 11182 21046 11182 Sln
21046 11182 21060 11182 Sln
21060 11182 21065 11182 Sln
21298 11182 21308 11182 Sln
21308 11182 21322 11182 Sln
21322 11182 21337 11182 Sln
21337 11182 21351 11182 Sln
21351 11182 21366 11182 Sln
21366 11182 21380 11182 Sln
21380 11182 21395 11495 Sln
21395 11495 21409 11495 Sln
21409 11495 21424 11495 Sln
21424 11495 21438 11495 Sln
21438 11495 21453 11495 Sln
21453 11495 21465 11495 Sln
21698 11495 21700 11495 Sln
21700 11495 21715 11495 Sln
21715 11495 21729 11495 Sln
21729 11495 21744 11495 Sln
21744 11495 21758 11495 Sln
21758 11495 21773 11495 Sln
21773 11495 21787 11495 Sln
21787 11495 21802 11495 Sln
21802 11495 21817 11495 Sln
21817 11495 21820 11841 Sln
21822 12074 21826 12539 Sln
21828 12772 21831 13083 Sln
21831 13083 21846 13083 Sln
21846 13083 21860 13083 Sln
21860 13083 21875 13083 Sln
21875 13083 21889 13083 Sln
21889 13083 21904 13083 Sln
21904 13083 21918 13083 Sln
21918 13083 21933 13083 Sln
21933 13083 21947 13083 Sln
21947 13083 21962 13083 Sln
21962 13083 21976 13083 Sln
21976 13083 21985 13083 Sln
22218 13083 22224 13083 Sln
22224 13083 22238 13083 Sln
22238 13083 22253 13083 Sln
22253 13083 22267 13083 Sln
22267 13083 22282 13078 Sln
22282 13078 22296 13078 Sln
22296 13078 22311 13078 Sln
22311 13078 22325 13078 Sln
22325 13078 22340 13078 Sln
22340 13078 22355 13078 Sln
22355 13078 22369 13078 Sln
22369 13078 22384 13078 Sln
22384 13078 22398 13078 Sln
22398 13078 22413 13078 Sln
22413 13078 22427 13078 Sln
22427 13078 22442 13078 Sln
22442 13078 22456 13078 Sln
22456 13078 22471 13078 Sln
22471 13078 22485 13078 Sln
22485 13078 22500 13078 Sln
22500 13078 22514 13078 Sln
22514 13078 22529 13078 Sln
22529 13078 22544 13078 Sln
22544 13078 22558 13078 Sln
22558 13078 22573 13078 Sln
22573 13078 22587 13078 Sln
22587 13078 22602 13078 Sln
22602 13078 22616 13078 Sln
22616 13078 22631 13078 Sln
22631 13078 22645 13078 Sln
22645 13078 22660 13078 Sln
22660 13078 22674 13078 Sln
22674 13078 22682 13078 Sln
22722 12881 22733 12449 Sln
22733 12449 22747 12449 Sln
22747 12449 22762 12449 Sln
22762 12449 22766 12449 Sln
22999 12449 23009 12449 Sln
23009 12449 23023 12449 Sln
23023 12449 23038 12449 Sln
23038 12449 23052 12449 Sln
23052 12449 23067 12449 Sln
23067 12449 23082 12449 Sln
23082 12449 23096 12449 Sln
23096 12449 23111 12449 Sln
23111 12449 23125 12449 Sln
23125 12449 23140 12768 Sln
23140 12768 23154 12768 Sln
23154 12768 23159 12768 Sln
23392 12768 23401 12768 Sln
23401 12768 23416 12768 Sln
23416 12768 23431 12768 Sln
23431 12768 23445 12768 Sln
23445 12768 23460 12768 Sln
23460 12768 23474 12768 Sln
23474 12768 23489 12768 Sln
23489 12768 23503 12768 Sln
23503 12768 23518 12768 Sln
23518 12768 23532 12768 Sln
23532 12768 23547 12768 Sln
23547 12768 23561 12768 Sln
23561 12768 23576 12768 Sln
23576 12768 23590 13049 Sln
23799 13073 23809 13073 Sln
23809 13073 23823 13073 Sln
23823 13073 23838 13073 Sln
23838 13073 23852 13073 Sln
23852 13073 23867 13073 Sln
23867 13073 23881 13073 Sln
23881 13073 23896 13073 Sln
23896 13073 23910 13073 Sln
23910 13073 23925 13073 Sln
23925 13073 23940 13073 Sln
23940 13073 23954 13073 Sln
23954 13073 23969 13073 Sln
23969 13073 23983 13073 Sln
23983 13073 23998 13073 Sln
23998 13073 24012 13073 Sln
24012 13073 24012 13326 Sln
24013 13559 24014 14024 Sln
24015 14257 24016 14722 Sln
24017 14955 24018 15420 Sln
24019 15653 24020 16118 Sln
24021 16351 24022 16816 Sln
24023 17049 24024 17514 Sln
24025 17747 24026 18212 Sln
24026 18445 24027 18693 Sln
24027 18693 24041 18693 Sln
24041 18693 24056 18693 Sln
24056 18693 24070 18693 Sln
24070 18693 24085 18693 Sln
24085 18693 24099 18693 Sln
24099 18693 24114 18693 Sln
24114 18693 24129 18693 Sln
24129 18693 24143 18693 Sln
24143 18693 24158 18693 Sln
24158 18693 24172 18693 Sln
24172 18693 24187 18693 Sln
24187 18693 24201 18693 Sln
24201 18693 24216 18693 Sln
24216 18693 24230 18693 Sln
24230 18693 24245 18693 Sln
24463 18708 24471 19173 Sln
24475 19406 24478 19621 Sln
24478 19621 24492 19621 Sln
24492 19621 24507 19621 Sln
24507 19621 24521 19621 Sln
24521 19621 24536 19621 Sln
24536 19621 24550 19621 Sln
24550 19621 24565 19621 Sln
24565 19621 24579 19621 Sln
24579 19621 24594 19621 Sln
24594 19621 24608 19621 Sln
24608 19621 24623 19621 Sln
24623 19621 24637 19621 Sln
24637 19621 24652 19621 Sln
24652 19621 24667 19621 Sln
24667 19621 24681 19621 Sln
24681 19621 24696 19621 Sln
24696 19621 24710 19621 Sln
24710 19621 24725 19621 Sln
24725 19621 24728 19621 Sln
24902 19559 24914 19308 Sln
24914 19308 24928 19308 Sln
24928 19308 24943 19308 Sln
24943 19308 24957 19308 Sln
24957 19308 24972 19308 Sln
24972 19308 24986 19308 Sln
24986 19308 25001 19308 Sln
25001 19308 25016 19308 Sln
25016 19308 25030 19308 Sln
25030 19308 25045 19308 Sln
25045 19308 25059 19308 Sln
25059 19308 25074 19308 Sln
25074 19308 25088 19308 Sln
25088 19308 25103 19308 Sln
25103 19308 25117 19308 Sln
25117 19308 25128 19308 Sln
25350 19297 25361 18832 Sln
25427 18661 25437 18661 Sln
25437 18661 25452 18661 Sln
25452 18661 25466 18661 Sln
25466 18661 25481 18661 Sln
25481 18661 25495 18661 Sln
25495 18661 25510 18661 Sln
25510 18661 25524 18661 Sln
25524 18661 25539 18661 Sln
25539 18661 25554 18661 Sln
25554 18661 25568 18661 Sln
25568 18661 25583 18661 Sln
25583 18661 25597 18661 Sln
25597 18661 25612 18661 Sln
25612 18661 25626 18661 Sln
25626 18661 25641 18661 Sln
25641 18661 25655 18661 Sln
25655 18661 25670 18661 Sln
25670 18661 25684 18661 Sln
25684 18661 25699 18661 Sln
25699 18661 25714 18661 Sln
25714 18661 25728 18661 Sln
25728 18661 25743 18661 Sln
25743 18661 25757 18661 Sln
25757 18661 25772 18661 Sln
25772 18661 25786 18661 Sln
25786 18661 25801 18661 Sln
25801 18661 25805 18569 Sln
25814 18336 25815 18318 Sln
25815 18318 25830 18318 Sln
25830 18318 25844 18318 Sln
25844 18318 25859 18318 Sln
25859 18318 25873 18318 Sln
25873 18318 25888 18318 Sln
25888 18318 25903 18318 Sln
25903 18318 25917 18318 Sln
25917 18318 25932 18318 Sln
25932 18318 25946 18318 Sln
25946 18318 25961 18318 Sln
25961 18318 25975 18318 Sln
25975 18318 25990 18318 Sln
25990 18318 26004 18318 Sln
26004 18318 26019 18318 Sln
26019 18318 26033 18318 Sln
26033 18318 26048 18318 Sln
26048 18318 26062 18318 Sln
26062 18318 26077 18318 Sln
26077 18318 26092 18318 Sln
26092 18318 26106 18318 Sln
26106 18318 26121 18318 Sln
26121 18318 26135 18318 Sln
26135 18318 26150 18318 Sln
26150 18318 26164 18318 Sln
26164 18318 26179 18318 Sln
26179 18318 26193 18318 Sln
26193 18318 26208 18318 Sln
26208 18318 26222 18318 Sln
26222 18318 26237 18318 Sln
26237 18318 26248 18296 Sln
26476 18288 26484 18288 Sln
26484 18288 26499 18288 Sln
26499 18288 26513 18288 Sln
26513 18288 26528 18288 Sln
26528 18288 26542 18288 Sln
26542 18288 26557 18288 Sln
26557 18288 26571 18288 Sln
26571 18288 26586 18288 Sln
26586 18288 26601 18288 Sln
26601 18288 26615 18288 Sln
26615 18288 26630 18288 Sln
26630 18288 26644 18288 Sln
26644 18288 26659 18288 Sln
26659 18288 26673 18288 Sln
26673 18288 26688 18288 Sln
26688 18288 26691 18035 Sln
26693 17802 26698 17337 Sln
26701 17104 26702 17038 Sln
26702 17038 26717 17038 Sln
26717 17038 26731 17038 Sln
26731 17038 26746 17038 Sln
26746 17038 26760 17038 Sln
26760 17038 26775 17038 Sln
26775 17038 26790 17038 Sln
26790 17038 26804 17038 Sln
26804 17038 26819 17038 Sln
26819 17038 26833 17038 Sln
26833 17038 26848 17038 Sln
26848 17038 26862 17038 Sln
26862 17038 26877 17038 Sln
26877 17038 26891 17038 Sln
26891 17038 26906 17038 Sln
26906 17038 26920 17038 Sln
26920 17038 26935 17038 Sln
26935 17038 26949 17038 Sln
26949 17038 26964 17038 Sln
26964 17038 26979 17038 Sln
26979 17038 26993 17038 Sln
26993 17038 27008 17038 Sln
27008 17038 27022 17038 Sln
27022 17038 27037 17038 Sln
27037 17038 27051 17038 Sln
27051 17038 27066 17038 Sln
27066 17038 27080 17038 Sln
27080 17038 27095 17038 Sln
27095 17038 27101 17038 Sln
27126 16828 27131 16363 Sln
27133 16130 27137 15665 Sln
27187 15480 27197 15480 Sln
27197 15480 27211 15480 Sln
27211 15480 27226 15480 Sln
27226 15480 27240 15480 Sln
27240 15480 27255 15480 Sln
27255 15480 27269 15480 Sln
27269 15480 27284 15480 Sln
27284 15480 27298 15480 Sln
27298 15480 27313 15480 Sln
27313 15480 27328 15480 Sln
27328 15480 27342 15480 Sln
27342 15480 27357 15480 Sln
27357 15480 27371 15480 Sln
27371 15480 27386 15480 Sln
27386 15480 27400 15480 Sln
27400 15480 27415 15480 Sln
27415 15480 27429 15480 Sln
27429 15480 27444 15480 Sln
27444 15480 27458 15480 Sln
27458 15480 27473 15480 Sln
27473 15480 27488 15480 Sln
27488 15480 27502 15480 Sln
27502 15480 27517 15480 Sln
27517 15480 27531 15480 Sln
27531 15480 27546 15480 Sln
27546 15480 27560 15480 Sln
27560 15480 27575 15480 Sln
27575 15480 27589 15473 Sln
27589 15473 27604 15473 Sln
27604 15473 27618 15473 Sln
27618 15473 27633 15473 Sln
27633 15473 27647 15473 Sln
27647 15473 27651 15473 Sln
27884 15473 27895 15473 Sln
27895 15473 27909 15473 Sln
27909 15473 27924 15473 Sln
27924 15473 27938 15473 Sln
27938 15473 27953 15473 Sln
27953 15473 27967 15473 Sln
27967 15473 27982 15473 Sln
27982 15473 27996 15473 Sln
27996 15473 28011 15473 Sln
28011 15473 28026 15473 Sln
28026 15473 28040 15488 Sln
28040 15488 28055 15488 Sln
28055 15488 28069 15488 Sln
28069 15488 28084 15488 Sln
28084 15488 28098 15488 Sln
28098 15488 28113 15488 Sln
28113 15488 28127 15488 Sln
28127 15488 28142 15488 Sln
28142 15488 28156 15488 Sln
28156 15488 28171 15488 Sln
28171 15488 28185 15488 Sln
28185 15488 28200 15488 Sln
28200 15488 28215 15488 Sln
28215 15488 28229 15488 Sln
28229 15488 28244 15488 Sln
28244 15488 28258 15488 Sln
28258 15488 28273 15488 Sln
28273 15488 28287 15488 Sln
28287 15488 28302 15488 Sln
28302 15488 28316 15488 Sln
28316 15488 28331 15488 Sln
28331 15488 28343 15488 Sln
28436 15346 28447 14880 Sln
28668 14868 28680 14868 Sln
28680 14868 28694 14868 Sln
28694 14868 28709 14868 Sln
28709 14868 28723 14868 Sln
28723 14868 28738 14868 Sln
28738 14868 28753 14868 Sln
28753 14868 28767 14868 Sln
28767 14868 28782 14868 Sln
28782 14868 28796 14868 Sln
28796 14868 28811 14868 Sln
28811 14868 28825 14868 Sln
28825 14868 28840 14868 Sln
28840 14868 28854 14868 Sln
28854 14868 28869 14868 Sln
28869 14868 28883 14868 Sln
28883 14868 28896 15117 Sln
29092 15156 29102 15156 Sln
29102 15156 29116 15156 Sln
29116 15156 29131 15156 Sln
29131 15156 29145 15156 Sln
29145 15156 29160 15156 Sln
29160 15156 29174 15156 Sln
29174 15156 29189 15156 Sln
29189 15156 29203 15156 Sln
29203 15156 29218 15156 Sln
29218 15156 29232 15156 Sln
29232 15156 29247 15156 Sln
29247 15156 29262 15156 Sln
29262 15156 29276 15156 Sln
29276 15156 29291 15156 Sln
29291 15156 29305 15156 Sln
29305 15156 29320 15156 Sln
29320 15156 29320 14919 Sln
29321 14686 29322 14221 Sln
29323 13988 29324 13523 Sln
29325 13290 29326 12825 Sln
29327 12592 29328 12127 Sln
29329 11894 29330 11428 Sln
29331 11196 29332 10730 Sln
29332 10497 29334 10032 Sln
29399 9864 29407 9864 Sln
29407 9864 29421 9864 Sln
29421 9864 29436 9864 Sln
29436 9864 29451 9864 Sln
29451 9864 29465 9864 Sln
29465 9864 29480 9864 Sln
29480 9864 29494 9864 Sln
29494 9864 29509 9864 Sln
29509 9864 29523 9864 Sln
29523 9864 29538 9864 Sln
29538 9864 29552 9864 Sln
29552 9864 29567 9864 Sln
29567 9864 29581 9864 Sln
29581 9864 29596 9864 Sln
29596 9864 29611 9864 Sln
29611 9864 29625 9864 Sln
29625 9864 29640 9864 Sln
29640 9864 29654 9864 Sln
29654 9864 29669 9864 Sln
29669 9864 29683 9864 Sln
29683 9864 29698 9864 Sln
29698 9864 29712 9864 Sln
29712 9864 29727 9864 Sln
29727 9864 29741 9864 Sln
29741 9864 29756 9864 Sln
29756 9864 29770 9864 Sln
29770 9864 29774 9770 Sln
29804 9556 29814 9556 Sln
29814 9556 29829 9556 Sln
29829 9556 29843 9556 Sln
29843 9556 29858 9556 Sln
29858 9556 29872 9556 Sln
29872 9556 29887 9556 Sln
29887 9556 29901 9556 Sln
29901 9556 29916 9556 Sln
29916 9556 29930 9556 Sln
29930 9556 29945 9556 Sln
29945 9556 29959 9556 Sln
29959 9556 29974 9556 Sln
29974 9556 29989 9556 Sln
29989 9556 30003 9556 Sln
30003 9556 30018 9556 Sln
30018 9556 30032 9556 Sln
30032 9556 30047 9556 Sln
30047 9556 30061 9556 Sln
30061 9556 30076 9556 Sln
30076 9556 30090 9556 Sln
30090 9556 30105 9556 Sln
30105 9556 30119 9556 Sln
30119 9556 30134 9556 Sln
30134 9556 30149 9556 Sln
30149 9556 30163 9556 Sln
30163 9556 30178 9556 Sln
30178 9556 30192 9556 Sln
30192 9556 30207 9556 Sln
30207 9556 30210 9494 Sln
30220 9261 30221 9255 Sln
/Slw 0.576 def
3158 4415 3158 21047 Sln
3158 4926 2835 4926 Sln
2431 4926 0
/Helvetica-0 findfont 808 yratio mul scalefont setfont
(-1) stringwidth pop add
2 div xratio div
dup 4 3 roll exch 90.000 cos mul sub 3 1 roll 90.000 sin mul sub 2 copy
/fntsize {/Helvetica-0 findfont exch scalefont setfont } def
90.000 808
(-1) Stxtl
(-1) stringwidth pop xratio div
dup 4 3 roll exch 90.000 cos mul add 3 1 roll 90.000 sin mul add 2 copy
pop pop pop pop
3158 8048 2835 8048 Sln
2431 8048 0
/Helvetica-0 findfont 808 yratio mul scalefont setfont
(0) stringwidth pop add
2 div xratio div
dup 4 3 roll exch 90.000 cos mul sub 3 1 roll 90.000 sin mul sub 2 copy
/fntsize {/Helvetica-0 findfont exch scalefont setfont } def
90.000 808
(0) Stxtl
(0) stringwidth pop xratio div
dup 4 3 roll exch 90.000 cos mul add 3 1 roll 90.000 sin mul add 2 copy
pop pop pop pop
3158 11170 2835 11170 Sln
2431 11170 0
/Helvetica-0 findfont 808 yratio mul scalefont setfont
(1) stringwidth pop add
2 div xratio div
dup 4 3 roll exch 90.000 cos mul sub 3 1 roll 90.000 sin mul sub 2 copy
/fntsize {/Helvetica-0 findfont exch scalefont setfont } def
90.000 808
(1) Stxtl
(1) stringwidth pop xratio div
dup 4 3 roll exch 90.000 cos mul add 3 1 roll 90.000 sin mul add 2 copy
pop pop pop pop
3158 14292 2835 14292 Sln
2431 14292 0
/Helvetica-0 findfont 808 yratio mul scalefont setfont
(2) stringwidth pop add
2 div xratio div
dup 4 3 roll exch 90.000 cos mul sub 3 1 roll 90.000 sin mul sub 2 copy
/fntsize {/Helvetica-0 findfont exch scalefont setfont } def
90.000 808
(2) Stxtl
(2) stringwidth pop xratio div
dup 4 3 roll exch 90.000 cos mul add 3 1 roll 90.000 sin mul add 2 copy
pop pop pop pop
3158 17413 2835 17413 Sln
2431 17413 0
/Helvetica-0 findfont 808 yratio mul scalefont setfont
(3) stringwidth pop add
2 div xratio div
dup 4 3 roll exch 90.000 cos mul sub 3 1 roll 90.000 sin mul sub 2 copy
/fntsize {/Helvetica-0 findfont exch scalefont setfont } def
90.000 808
(3) Stxtl
(3) stringwidth pop xratio div
dup 4 3 roll exch 90.000 cos mul add 3 1 roll 90.000 sin mul add 2 copy
pop pop pop pop
3158 20535 2835 20535 Sln
2431 20535 0
/Helvetica-0 findfont 808 yratio mul scalefont setfont
(4) stringwidth pop add
2 div xratio div
dup 4 3 roll exch 90.000 cos mul sub 3 1 roll 90.000 sin mul sub 2 copy
/fntsize {/Helvetica-0 findfont exch scalefont setfont } def
90.000 808
(4) Stxtl
(4) stringwidth pop xratio div
dup 4 3 roll exch 90.000 cos mul add 3 1 roll 90.000 sin mul add 2 copy
pop pop pop pop
1542 12731 0
/Helvetica-0 findfont 808 yratio mul scalefont setfont
(%) stringwidth pop add
2 div xratio div
dup 4 3 roll exch 90.000 cos mul sub 3 1 roll 90.000 sin mul sub 2 copy
/fntsize {/Helvetica-0 findfont exch scalefont setfont } def
90.000 808
(%) Stxtl
(%) stringwidth pop xratio div
dup 4 3 roll exch 90.000 cos mul add 3 1 roll 90.000 sin mul add 2 copy
pop pop pop pop
3158 4415 31184 4415 Sln
3670 4415 3670 4091 Sln
3670 3364 0
/Helvetica-0 findfont 808 yratio mul scalefont setfont
(Jul-2010) stringwidth pop add
2 div xratio div
dup 4 3 roll exch 0.000 cos mul sub 3 1 roll 0.000 sin mul sub 2 copy
/fntsize {/Helvetica-0 findfont exch scalefont setfont } def
0.000 808
(Jul-2010) Stxtl
(Jul-2010) stringwidth pop xratio div
dup 4 3 roll exch 0.000 cos mul add 3 1 roll 0.000 sin mul add 2 copy
pop pop pop pop
8977 4415 8977 4091 Sln
8977 3364 0
/Helvetica-0 findfont 808 yratio mul scalefont setfont
(Jul-2011) stringwidth pop add
2 div xratio div
dup 4 3 roll exch 0.000 cos mul sub 3 1 roll 0.000 sin mul sub 2 copy
/fntsize {/Helvetica-0 findfont exch scalefont setfont } def
0.000 808
(Jul-2011) Stxtl
(Jul-2011) stringwidth pop xratio div
dup 4 3 roll exch 0.000 cos mul add 3 1 roll 0.000 sin mul add 2 copy
pop pop pop pop
14299 4415 14299 4091 Sln
14299 3364 0
/Helvetica-0 findfont 808 yratio mul scalefont setfont
(Jul-2012) stringwidth pop add
2 div xratio div
dup 4 3 roll exch 0.000 cos mul sub 3 1 roll 0.000 sin mul sub 2 copy
/fntsize {/Helvetica-0 findfont exch scalefont setfont } def
0.000 808
(Jul-2012) Stxtl
(Jul-2012) stringwidth pop xratio div
dup 4 3 roll exch 0.000 cos mul add 3 1 roll 0.000 sin mul add 2 copy
pop pop pop pop
19607 4415 19607 4091 Sln
19607 3364 0
/Helvetica-0 findfont 808 yratio mul scalefont setfont
(Jul-2013) stringwidth pop add
2 div xratio div
dup 4 3 roll exch 0.000 cos mul sub 3 1 roll 0.000 sin mul sub 2 copy
/fntsize {/Helvetica-0 findfont exch scalefont setfont } def
0.000 808
(Jul-2013) Stxtl
(Jul-2013) stringwidth pop xratio div
dup 4 3 roll exch 0.000 cos mul add 3 1 roll 0.000 sin mul add 2 copy
pop pop pop pop
24914 4415 24914 4091 Sln
24914 3364 0
/Helvetica-0 findfont 808 yratio mul scalefont setfont
(Jul-2014) stringwidth pop add
2 div xratio div
dup 4 3 roll exch 0.000 cos mul sub 3 1 roll 0.000 sin mul sub 2 copy
/fntsize {/Helvetica-0 findfont exch scalefont setfont } def
0.000 808
(Jul-2014) Stxtl
(Jul-2014) stringwidth pop xratio div
dup 4 3 roll exch 0.000 cos mul add 3 1 roll 0.000 sin mul add 2 copy
pop pop pop pop
30222 4415 30222 4091 Sln
30222 3364 0
/Helvetica-0 findfont 808 yratio mul scalefont setfont
(Jul-2015) stringwidth pop add
2 div xratio div
dup 4 3 roll exch 0.000 cos mul sub 3 1 roll 0.000 sin mul sub 2 copy
/fntsize {/Helvetica-0 findfont exch scalefont setfont } def
0.000 808
(Jul-2015) Stxtl
(Jul-2015) stringwidth pop xratio div
dup 4 3 roll exch 0.000 cos mul add 3 1 roll 0.000 sin mul add 2 copy
pop pop pop pop
/Slrgb {1.000 1.000 1.000} def
10873 1094 23470 2600 1 Srect
/Slw 0.864 def
/Slrgb {0.000 0.000 0.000} def
11222 1847 14247 1847 Sln
18220 1847 18685 1847 Sln
18918 1847 19383 1847 Sln
19616 1847 20081 1847 Sln
20314 1847 20779 1847 Sln
21012 1847 21245 1847 Sln
14732 1564 2 copy
/fntsize {/Helvetica-0 findfont exch scalefont setfont } def
0.000 808
(Online) Stxtl
(Online) stringwidth pop xratio div
dup 4 3 roll exch 0.000 cos mul add 3 1 roll 0.000 sin mul add 2 copy
pop pop pop pop
21730 1564 2 copy
/fntsize {/Helvetica-0 findfont exch scalefont setfont } def
0.000 808
(CPI) Stxtl
(CPI) stringwidth pop xratio div
dup 4 3 roll exch 0.000 cos mul add 3 1 roll 0.000 sin mul add 2 copy
pop pop pop pop
17171 21526 0
/Helvetica-0 findfont 1131 yratio mul scalefont setfont
(Annual Inflation Rate) stringwidth pop add
2 div xratio div
dup 4 3 roll exch 0.000 cos mul sub 3 1 roll 0.000 sin mul sub 2 copy
/fntsize {/Helvetica-0 findfont exch scalefont setfont } def
0.000 1131
(Annual Inflation Rate) Stxtl
(Annual Inflation Rate) stringwidth pop xratio div
dup 4 3 roll exch 0.000 cos mul add 3 1 roll 0.000 sin mul add 2 copy
pop pop pop pop
S showpage
%%EOF
