\select@language {brazil}
\beamer@subsectionintoc {0}{1}{Introdu\IeC {\c c}\IeC {\~a}o/Motiva\IeC {\c c}\IeC {\~a}o}{3}{0}{0}
\beamer@subsectionintoc {0}{2}{Metodologia}{6}{0}{0}
\beamer@subsectionintoc {0}{3}{Resultados}{14}{0}{0}
\beamer@subsectionintoc {0}{4}{Conclus\IeC {\~o}es}{16}{0}{0}
\beamer@subsectionintoc {0}{5}{Referencial Te\IeC {\'o}rico}{17}{0}{0}
