[[1]]

Title:
 GARCH Modelling 

Call:
 garchFit(formula = formula, data = data, cond.dist = ll$dist, 
    include.mean = TRUE, trace = FALSE) 

Mean and Variance Equation:
 data ~ arma(0, 0) + garch(1, 2)
<environment: 0x000000002cdf65f0>
 [data = data]

Conditional Distribution:
 sstd 

Coefficient(s):
        mu       omega      alpha1       beta1       beta2        skew       shape  
2.3023e-18  3.4760e-05  1.0000e+00  5.4992e-01  1.0000e-08  9.6543e-01  2.5517e+00  

Std. Errors:
 based on Hessian 

Error Analysis:
        Estimate  Std. Error  t value Pr(>|t|)    
mu     2.302e-18   2.237e-04    0.000        1    
omega  3.476e-05   4.376e-06    7.943    2e-15 ***
alpha1 1.000e+00   8.636e-02   11.580   <2e-16 ***
beta1  5.499e-01   2.751e-02   19.989   <2e-16 ***
beta2  1.000e-08   2.850e-02    0.000        1    
skew   9.654e-01   1.298e-02   74.369   <2e-16 ***
shape  2.552e+00   5.877e-02   43.417   <2e-16 ***
---
Signif. codes:  0 ‘***’ 0.001 ‘**’ 0.01 ‘*’ 0.05 ‘.’ 0.1 ‘ ’ 1

Log Likelihood:
 6301.158    normalized:  1.509983 

Description:
 Sat Sep 01 14:31:52 2018 by user: Appus 


[[2]]

Title:
 GARCH Modelling 

Call:
 garchFit(formula = formula, data = data, cond.dist = ll$dist, 
    include.mean = TRUE, trace = FALSE) 

Mean and Variance Equation:
 data ~ arma(2, 2) + garch(2, 1)
<environment: 0x000000002e0360c0>
 [data = data]

Conditional Distribution:
 sstd 

Coefficient(s):
         mu          ar1          ar2          ma1          ma2        omega       alpha1       alpha2        beta1  
-9.3520e-18   4.5652e-01   8.5403e-02  -6.1939e-01  -1.5469e-02   7.2108e-07   1.0000e+00   1.0000e+00   4.3165e-01  
       skew        shape  
 1.0022e+00   2.4382e+00  

Std. Errors:
 based on Hessian 

Error Analysis:
         Estimate  Std. Error  t value Pr(>|t|)    
mu     -9.352e-18   3.027e-05    0.000  1.00000    
ar1     4.565e-01   3.408e-01    1.339  0.18043    
ar2     8.540e-02   1.129e-01    0.756  0.44935    
ma1    -6.194e-01   3.410e-01   -1.817  0.06929 .  
ma2    -1.547e-02   1.522e-01   -0.102  0.91905    
omega   7.211e-07   2.193e-05    0.033  0.97377    
alpha1  1.000e+00   1.382e-01    7.237 4.59e-13 ***
alpha2  1.000e+00   3.355e-01    2.980  0.00288 ** 
beta1   4.317e-01   2.879e-02   14.992  < 2e-16 ***
skew    1.002e+00   1.354e-02   74.021  < 2e-16 ***
shape   2.438e+00   9.378e-02   25.998  < 2e-16 ***
---
Signif. codes:  0 ‘***’ 0.001 ‘**’ 0.01 ‘*’ 0.05 ‘.’ 0.1 ‘ ’ 1

Log Likelihood:
 9624.264    normalized:  2.306318 

Description:
 Sat Sep 01 14:35:45 2018 by user: Appus 


[[3]]

Title:
 GARCH Modelling 

Call:
 garchFit(formula = formula, data = data, cond.dist = ll$dist, 
    include.mean = TRUE, trace = FALSE) 

Mean and Variance Equation:
 data ~ arma(1, 2) + garch(2, 1)
<environment: 0x00000000233f0e40>
 [data = data]

Conditional Distribution:
 sstd 

Coefficient(s):
         mu          ar1          ma1          ma2        omega       alpha1       alpha2        beta1         skew  
 9.0670e-18   4.9905e-01  -5.2672e-01  -4.1342e-02   3.3683e-05   8.3034e-01   2.2470e-01   5.8382e-01   9.8709e-01  
      shape  
 2.5147e+00  

Std. Errors:
 based on Hessian 

Error Analysis:
         Estimate  Std. Error  t value Pr(>|t|)    
mu      9.067e-18   9.717e-05    0.000 1.000000    
ar1     4.990e-01   1.417e-01    3.522 0.000428 ***
ma1    -5.267e-01   1.417e-01   -3.716 0.000202 ***
ma2    -4.134e-02   1.914e-02   -2.160 0.030764 *  
omega   3.368e-05   3.849e-06    8.752  < 2e-16 ***
alpha1  8.303e-01   1.338e-01    6.205 5.46e-10 ***
alpha2  2.247e-01   1.035e-01    2.171 0.029956 *  
beta1   5.838e-01   2.479e-02   23.554  < 2e-16 ***
skew    9.871e-01   1.481e-02   66.649  < 2e-16 ***
shape   2.515e+00   8.256e-02   30.460  < 2e-16 ***
---
Signif. codes:  0 ‘***’ 0.001 ‘**’ 0.01 ‘*’ 0.05 ‘.’ 0.1 ‘ ’ 1

Log Likelihood:
 8360.097    normalized:  2.003378 

Description:
 Sat Sep 01 14:36:55 2018 by user: Appus 


[[4]]

Title:
 GARCH Modelling 

Call:
 garchFit(formula = formula, data = data, cond.dist = ll$dist, 
    include.mean = TRUE, trace = FALSE) 

Mean and Variance Equation:
 data ~ arma(1, 0) + garch(2, 1)
<environment: 0x000000002317a128>
 [data = data]

Conditional Distribution:
 sstd 

Coefficient(s):
         mu          ar1        omega       alpha1       alpha2        beta1         skew        shape  
 8.0631e-18  -4.4149e-02   6.3410e-05   1.0000e+00   1.0000e+00   3.6475e-01   1.0375e+00   2.2389e+00  

Std. Errors:
 based on Hessian 

Error Analysis:
         Estimate  Std. Error  t value Pr(>|t|)    
mu      8.063e-18   1.556e-04    0.000   1.0000    
ar1    -4.415e-02   1.382e-02   -3.195   0.0014 ** 
omega   6.341e-05   6.990e-06    9.072  < 2e-16 ***
alpha1  1.000e+00   1.243e-01    8.048 8.88e-16 ***
alpha2  1.000e+00   1.579e-01    6.332 2.42e-10 ***
beta1   3.648e-01   2.292e-02   15.916  < 2e-16 ***
skew    1.038e+00   1.225e-02   84.712  < 2e-16 ***
shape   2.239e+00   2.317e-02   96.649  < 2e-16 ***
---
Signif. codes:  0 ‘***’ 0.001 ‘**’ 0.01 ‘*’ 0.05 ‘.’ 0.1 ‘ ’ 1

Log Likelihood:
 9535.277    normalized:  2.284993 

Description:
 Sat Sep 01 14:38:27 2018 by user: Appus 


[[5]]

Title:
 GARCH Modelling 

Call:
 garchFit(formula = formula, data = data, cond.dist = ll$dist, 
    include.mean = TRUE, trace = FALSE) 

Mean and Variance Equation:
 data ~ arma(0, 2) + garch(2, 1)
<environment: 0x0000000028ef60a0>
 [data = data]

Conditional Distribution:
 sstd 

Coefficient(s):
         mu          ma1          ma2        omega       alpha1       alpha2        beta1         skew        shape  
 1.1224e-17  -9.0835e-02  -2.0784e-02   8.5998e-05   1.0000e+00   1.0000e+00   3.4350e-01   1.0178e+00   2.3191e+00  

Std. Errors:
 based on Hessian 

Error Analysis:
         Estimate  Std. Error  t value Pr(>|t|)    
mu      1.122e-17   1.645e-04    0.000    1.000    
ma1    -9.083e-02   1.563e-02   -5.812 6.17e-09 ***
ma2    -2.078e-02   1.471e-02   -1.413    0.158    
omega   8.600e-05   5.695e-06   15.100  < 2e-16 ***
alpha1  1.000e+00   1.188e-01    8.418  < 2e-16 ***
alpha2  1.000e+00   1.646e-01    6.076 1.23e-09 ***
beta1   3.435e-01   2.419e-02   14.202  < 2e-16 ***
skew    1.018e+00   1.368e-02   74.382  < 2e-16 ***
shape   2.319e+00   3.196e-02   72.574  < 2e-16 ***
---
Signif. codes:  0 ‘***’ 0.001 ‘**’ 0.01 ‘*’ 0.05 ‘.’ 0.1 ‘ ’ 1

Log Likelihood:
 9052.777    normalized:  2.169369 

Description:
 Sat Sep 01 14:40:29 2018 by user: Appus 


[[6]]

Title:
 GARCH Modelling 

Call:
 garchFit(formula = formula, data = data, cond.dist = ll$dist, 
    include.mean = TRUE, trace = FALSE) 

Mean and Variance Equation:
 data ~ arma(1, 1) + garch(2, 2)
<environment: 0x0000000027648ae0>
 [data = data]

Conditional Distribution:
 sstd 

Coefficient(s):
         mu          ar1          ma1        omega       alpha1       alpha2        beta1        beta2         skew  
 2.0002e-17   4.8057e-01  -5.5381e-01   2.2580e-04   1.0000e+00   9.6415e-01   3.5001e-01   1.0000e-08   9.9105e-01  
      shape  
 2.4140e+00  

Std. Errors:
 based on Hessian 

Error Analysis:
         Estimate  Std. Error  t value Pr(>|t|)    
mu      2.000e-17   1.820e-04    0.000        1    
ar1     4.806e-01   1.220e-01    3.940 8.15e-05 ***
ma1    -5.538e-01   1.136e-01   -4.876 1.08e-06 ***
omega   2.258e-04   1.298e-05   17.389  < 2e-16 ***
alpha1  1.000e+00   1.311e-01    7.625 2.44e-14 ***
alpha2  9.641e-01   2.179e-01    4.425 9.64e-06 ***
beta1   3.500e-01   3.863e-02    9.060  < 2e-16 ***
beta2   1.000e-08   1.895e-02    0.000        1    
skew    9.911e-01   1.490e-02   66.514  < 2e-16 ***
shape   2.414e+00   5.965e-02   40.468  < 2e-16 ***
---
Signif. codes:  0 ‘***’ 0.001 ‘**’ 0.01 ‘*’ 0.05 ‘.’ 0.1 ‘ ’ 1

Log Likelihood:
 6885.593    normalized:  1.650034 

Description:
 Sat Sep 01 14:43:06 2018 by user: Appus 


[[7]]

Title:
 GARCH Modelling 

Call:
 garchFit(formula = formula, data = data, cond.dist = ll$dist, 
    include.mean = TRUE, trace = FALSE) 

Mean and Variance Equation:
 data ~ arma(1, 2) + garch(2, 1)
<environment: 0x0000000024a05cc8>
 [data = data]

Conditional Distribution:
 sstd 

Coefficient(s):
         mu          ar1          ma1          ma2        omega       alpha1       alpha2        beta1         skew  
 1.0615e-17  -6.4120e-01   5.6223e-01  -7.1495e-02   4.2628e-06   1.0000e+00   5.4998e-01   6.0348e-01   1.0078e+00  
      shape  
 2.2571e+00  

Std. Errors:
 based on Hessian 

Error Analysis:
         Estimate  Std. Error  t value Pr(>|t|)    
mu      1.061e-17   2.008e-04    0.000  1.00000    
ar1    -6.412e-01   2.271e-01   -2.823  0.00476 ** 
ma1     5.622e-01   2.276e-01    2.470  0.01351 *  
ma2    -7.149e-02   1.621e-02   -4.410 1.03e-05 ***
omega   4.263e-06   1.372e-05    0.311  0.75604    
alpha1  1.000e+00   1.417e-01    7.056 1.72e-12 ***
alpha2  5.500e-01   1.895e-01    2.902  0.00370 ** 
beta1   6.035e-01   2.123e-02   28.424  < 2e-16 ***
skew    1.008e+00   1.096e-02   91.917  < 2e-16 ***
shape   2.257e+00   4.741e-02   47.612  < 2e-16 ***
---
Signif. codes:  0 ‘***’ 0.001 ‘**’ 0.01 ‘*’ 0.05 ‘.’ 0.1 ‘ ’ 1

Log Likelihood:
 7319.925    normalized:  1.754116 

Description:
 Sat Sep 01 14:45:32 2018 by user: Appus 


[[8]]

Title:
 GARCH Modelling 

Call:
 garchFit(formula = formula, data = data, cond.dist = ll$dist, 
    include.mean = TRUE, trace = FALSE) 

Mean and Variance Equation:
 data ~ arma(0, 2) + garch(2, 1)
<environment: 0x0000000029047a40>
 [data = data]

Conditional Distribution:
 sstd 

Coefficient(s):
         mu          ma1          ma2        omega       alpha1       alpha2        beta1         skew        shape  
-2.6750e-17  -6.7190e-03  -4.1044e-02   4.5862e-04   1.0000e+00   7.4848e-01   3.4346e-01   9.8526e-01   2.4072e+00  

Std. Errors:
 based on Hessian 

Error Analysis:
         Estimate  Std. Error  t value Pr(>|t|)    
mu     -2.675e-17   4.283e-04    0.000   1.0000    
ma1    -6.719e-03   1.624e-02   -0.414   0.6791    
ma2    -4.104e-02   1.606e-02   -2.555   0.0106 *  
omega   4.586e-04   2.594e-05   17.678  < 2e-16 ***
alpha1  1.000e+00   1.284e-01    7.787 6.88e-15 ***
alpha2  7.485e-01   1.436e-01    5.212 1.87e-07 ***
beta1   3.435e-01   3.752e-02    9.154  < 2e-16 ***
skew    9.853e-01   1.513e-02   65.108  < 2e-16 ***
shape   2.407e+00   4.840e-02   49.733  < 2e-16 ***
---
Signif. codes:  0 ‘***’ 0.001 ‘**’ 0.01 ‘*’ 0.05 ‘.’ 0.1 ‘ ’ 1

Log Likelihood:
 6348.086    normalized:  1.521228 

Description:
 Sat Sep 01 14:46:57 2018 by user: Appus 


[[9]]

Title:
 GARCH Modelling 

Call:
 garchFit(formula = formula, data = data, cond.dist = ll$dist, 
    include.mean = TRUE, trace = FALSE) 

Mean and Variance Equation:
 data ~ arma(0, 2) + garch(2, 1)
<environment: 0x0000000026ff9228>
 [data = data]

Conditional Distribution:
 sstd 

Coefficient(s):
         mu          ma1          ma2        omega       alpha1       alpha2        beta1         skew        shape  
 1.2722e-18  -1.0723e-01  -2.5864e-02   2.3249e-07   1.0000e+00   1.0000e+00   4.1416e-01   1.0072e+00   2.2453e+00  

Std. Errors:
 based on Hessian 

Error Analysis:
         Estimate  Std. Error  t value Pr(>|t|)    
mu      1.272e-18   6.270e-05    0.000   1.0000    
ma1    -1.072e-01   1.390e-02   -7.712 1.24e-14 ***
ma2    -2.586e-02   1.410e-02   -1.835   0.0666 .  
omega   2.325e-07   2.652e-05    0.009   0.9930    
alpha1  1.000e+00   9.548e-02   10.474  < 2e-16 ***
alpha2  1.000e+00   1.685e-01    5.936 2.91e-09 ***
beta1   4.142e-01   3.132e-02   13.225  < 2e-16 ***
skew    1.007e+00   9.242e-03  108.983  < 2e-16 ***
shape   2.245e+00   1.985e-02  113.124  < 2e-16 ***
---
Signif. codes:  0 ‘***’ 0.001 ‘**’ 0.01 ‘*’ 0.05 ‘.’ 0.1 ‘ ’ 1

Log Likelihood:
 5887.257    normalized:  1.410797 

Description:
 Sat Sep 01 14:49:15 2018 by user: Appus 


[[10]]

Title:
 GARCH Modelling 

Call:
 garchFit(formula = formula, data = data, cond.dist = ll$dist, 
    include.mean = TRUE, trace = FALSE) 

Mean and Variance Equation:
 data ~ arma(2, 2) + garch(2, 0)
<environment: 0x00000000259217a8>
 [data = data]

Conditional Distribution:
 sstd 

Coefficient(s):
         mu          ar1          ar2          ma1          ma2        omega       alpha1       alpha2         skew  
 8.4425e-18  -3.5274e-01   2.6565e-01   2.8563e-01  -3.2146e-01   3.7141e-04   1.0000e+00   1.0000e+00   9.5111e-01  
      shape  
 2.6555e+00  

Std. Errors:
 based on Hessian 

Error Analysis:
         Estimate  Std. Error  t value Pr(>|t|)    
mu      8.443e-18   3.280e-04    0.000 1.000000    
ar1    -3.527e-01   1.248e-01   -2.827 0.004694 ** 
ar2     2.656e-01   6.971e-02    3.811 0.000138 ***
ma1     2.856e-01   1.233e-01    2.316 0.020572 *  
ma2    -3.215e-01   6.918e-02   -4.647 3.37e-06 ***
omega   3.714e-04   2.437e-05   15.238  < 2e-16 ***
alpha1  1.000e+00   7.580e-02   13.193  < 2e-16 ***
alpha2  1.000e+00   8.387e-02   11.924  < 2e-16 ***
skew    9.511e-01   1.450e-02   65.599  < 2e-16 ***
shape   2.655e+00   4.868e-02   54.550  < 2e-16 ***
---
Signif. codes:  0 ‘***’ 0.001 ‘**’ 0.01 ‘*’ 0.05 ‘.’ 0.1 ‘ ’ 1

Log Likelihood:
 6652.235    normalized:  1.594113 

Description:
 Sat Sep 01 14:53:07 2018 by user: Appus 


[[11]]

Title:
 GARCH Modelling 

Call:
 garchFit(formula = formula, data = data, cond.dist = ll$dist, 
    include.mean = TRUE, trace = FALSE) 

Mean and Variance Equation:
 data ~ arma(2, 1) + garch(1, 2)
<environment: 0x00000000233b1878>
 [data = data]

Conditional Distribution:
 sstd 

Coefficient(s):
         mu          ar1          ar2          ma1        omega       alpha1        beta1        beta2         skew  
-7.3459e-19  -2.8330e-01  -3.1330e-02   2.3543e-01   6.0162e-05   1.0000e+00   5.3147e-01   1.8069e-01   1.0765e+00  
      shape  
 2.2111e+00  

Std. Errors:
 based on Hessian 

Error Analysis:
         Estimate  Std. Error  t value Pr(>|t|)    
mu     -7.346e-19   3.020e-04    0.000  1.00000    
ar1    -2.833e-01   2.574e-02  -11.006  < 2e-16 ***
ar2    -3.133e-02   1.448e-02   -2.164  0.03047 *  
ma1     2.354e-01   2.735e-02    8.607  < 2e-16 ***
omega   6.016e-05   2.478e-05    2.428  0.01517 *  
alpha1  1.000e+00   3.713e-01    2.693  0.00708 ** 
beta1   5.315e-01   1.094e-01    4.856  1.2e-06 ***
beta2   1.807e-01   9.047e-02    1.997  0.04579 *  
skew    1.077e+00   1.658e-02   64.912  < 2e-16 ***
shape   2.211e+00   8.781e-02   25.181  < 2e-16 ***
---
Signif. codes:  0 ‘***’ 0.001 ‘**’ 0.01 ‘*’ 0.05 ‘.’ 0.1 ‘ ’ 1

Log Likelihood:
 10443.82    normalized:  2.502713 

Description:
 Sat Sep 01 14:55:06 2018 by user: Appus 


[[12]]

Title:
 GARCH Modelling 

Call:
 garchFit(formula = formula, data = data, cond.dist = ll$dist, 
    include.mean = TRUE, trace = FALSE) 

Mean and Variance Equation:
 data ~ arma(2, 1) + garch(2, 1)
<environment: 0x0000000030073ee8>
 [data = data]

Conditional Distribution:
 sstd 

Coefficient(s):
         mu          ar1          ar2          ma1        omega       alpha1       alpha2        beta1         skew  
 8.0115e-18  -9.1865e-01  -4.3777e-02   8.7327e-01   5.2032e-04   1.0000e+00   5.0069e-01   3.9407e-01   1.0136e+00  
      shape  
 2.1497e+00  

Std. Errors:
 based on Hessian 

Error Analysis:
         Estimate  Std. Error  t value Pr(>|t|)    
mu      8.012e-18   5.234e-04    0.000   1.0000    
ar1    -9.186e-01   4.912e-02  -18.701  < 2e-16 ***
ar2    -4.378e-02   1.114e-02   -3.930 8.50e-05 ***
ma1     8.733e-01   4.728e-02   18.472  < 2e-16 ***
omega   5.203e-04   9.121e-05    5.704 1.17e-08 ***
alpha1  1.000e+00   1.333e-01    7.501 6.35e-14 ***
alpha2  5.007e-01   2.124e-01    2.357   0.0184 *  
beta1   3.941e-01   4.466e-02    8.824  < 2e-16 ***
skew    1.014e+00   1.217e-02   83.320  < 2e-16 ***
shape   2.150e+00   2.037e-02  105.534  < 2e-16 ***
---
Signif. codes:  0 ‘***’ 0.001 ‘**’ 0.01 ‘*’ 0.05 ‘.’ 0.1 ‘ ’ 1

Log Likelihood:
 8157.157    normalized:  1.954746 

Description:
 Sat Sep 01 14:57:33 2018 by user: Appus 


[[13]]

Title:
 GARCH Modelling 

Call:
 garchFit(formula = formula, data = data, cond.dist = ll$dist, 
    include.mean = TRUE, trace = FALSE) 

Mean and Variance Equation:
 data ~ arma(0, 2) + garch(2, 1)
<environment: 0x00000000266702e0>
 [data = data]

Conditional Distribution:
 sstd 

Coefficient(s):
         mu          ma1          ma2        omega       alpha1       alpha2        beta1         skew        shape  
 2.1212e-18  -7.2605e-02  -3.7011e-02   4.5841e-05   1.0000e+00   1.0000e+00   4.5005e-01   9.9741e-01   2.2517e+00  

Std. Errors:
 based on Hessian 

Error Analysis:
         Estimate  Std. Error  t value Pr(>|t|)    
mu      2.121e-18   1.507e-04    0.000  1.00000    
ma1    -7.260e-02   1.459e-02   -4.975 6.51e-07 ***
ma2    -3.701e-02   1.415e-02   -2.616  0.00889 ** 
omega   4.584e-05   3.784e-06   12.116  < 2e-16 ***
alpha1  1.000e+00   1.130e-01    8.849  < 2e-16 ***
alpha2  1.000e+00   1.845e-01    5.419 5.98e-08 ***
beta1   4.500e-01   2.354e-02   19.119  < 2e-16 ***
skew    9.974e-01   1.136e-02   87.778  < 2e-16 ***
shape   2.252e+00   2.716e-02   82.906  < 2e-16 ***
---
Signif. codes:  0 ‘***’ 0.001 ‘**’ 0.01 ‘*’ 0.05 ‘.’ 0.1 ‘ ’ 1

Log Likelihood:
 7978.583    normalized:  1.911954 

Description:
 Sat Sep 01 14:58:33 2018 by user: Appus 


[[14]]

Title:
 GARCH Modelling 

Call:
 garchFit(formula = formula, data = data, cond.dist = ll$dist, 
    include.mean = TRUE, trace = FALSE) 

Mean and Variance Equation:
 data ~ arma(2, 1) + garch(2, 1)
<environment: 0x0000000023c7f9a0>
 [data = data]

Conditional Distribution:
 sstd 

Coefficient(s):
         mu          ar1          ar2          ma1        omega       alpha1       alpha2        beta1         skew  
 7.9892e-18   7.9508e-01  -3.4571e-02  -7.6849e-01   2.6561e-05   1.0000e+00   8.6718e-01   4.7296e-01   1.0155e+00  
      shape  
 2.3997e+00  

Std. Errors:
 based on Hessian 

Error Analysis:
         Estimate  Std. Error  t value Pr(>|t|)    
mu      7.989e-18   5.009e-05    0.000   1.0000    
ar1     7.951e-01   8.232e-02    9.659  < 2e-16 ***
ar2    -3.457e-02   1.493e-02   -2.316   0.0206 *  
ma1    -7.685e-01   8.213e-02   -9.357  < 2e-16 ***
omega   2.656e-05   3.639e-06    7.299 2.91e-13 ***
alpha1  1.000e+00   1.669e-01    5.991 2.09e-09 ***
alpha2  8.672e-01   1.723e-01    5.034 4.81e-07 ***
beta1   4.730e-01   2.217e-02   21.335  < 2e-16 ***
skew    1.016e+00   1.502e-02   67.627  < 2e-16 ***
shape   2.400e+00   6.888e-02   34.840  < 2e-16 ***
---
Signif. codes:  0 ‘***’ 0.001 ‘**’ 0.01 ‘*’ 0.05 ‘.’ 0.1 ‘ ’ 1

Log Likelihood:
 8254.541    normalized:  1.978083 

Description:
 Sat Sep 01 15:02:04 2018 by user: Appus 


[[15]]

Title:
 GARCH Modelling 

Call:
 garchFit(formula = formula, data = data, cond.dist = ll$dist, 
    include.mean = TRUE, trace = FALSE) 

Mean and Variance Equation:
 data ~ arma(0, 0) + garch(2, 2)
<environment: 0x000000002b2f28d0>
 [data = data]

Conditional Distribution:
 sstd 

Coefficient(s):
         mu        omega       alpha1       alpha2        beta1        beta2         skew        shape  
-7.6627e-18   1.5582e-05   1.0000e+00   1.0000e+00   4.6297e-01   1.0000e-08   9.9299e-01   2.3476e+00  

Std. Errors:
 based on Hessian 

Error Analysis:
         Estimate  Std. Error  t value Pr(>|t|)    
mu     -7.663e-18   1.529e-04    0.000        1    
omega   1.558e-05   1.098e-06   14.195  < 2e-16 ***
alpha1  1.000e+00   2.345e-01    4.264 2.01e-05 ***
alpha2  1.000e+00   1.892e-01    5.285 1.25e-07 ***
beta1   4.630e-01   6.284e-02    7.368 1.73e-13 ***
beta2   1.000e-08   4.904e-02    0.000        1    
skew    9.930e-01   1.270e-02   78.215  < 2e-16 ***
shape   2.348e+00   6.833e-02   34.359  < 2e-16 ***
---
Signif. codes:  0 ‘***’ 0.001 ‘**’ 0.01 ‘*’ 0.05 ‘.’ 0.1 ‘ ’ 1

Log Likelihood:
 8274.17    normalized:  1.982787 

Description:
 Sat Sep 01 15:02:40 2018 by user: Appus 


[[16]]

Title:
 GARCH Modelling 

Call:
 garchFit(formula = formula, data = data, cond.dist = ll$dist, 
    include.mean = TRUE, trace = FALSE) 

Mean and Variance Equation:
 data ~ arma(2, 1) + garch(1, 2)
<environment: 0x0000000028d98518>
 [data = data]

Conditional Distribution:
 sstd 

Coefficient(s):
         mu          ar1          ar2          ma1        omega       alpha1        beta1        beta2         skew  
-6.1416e-18   9.0572e-01   7.7752e-02  -9.7851e-01   1.1357e-05   4.8577e-01   3.3811e-01   4.3047e-01   1.0456e+00  
      shape  
 2.6071e+00  

Std. Errors:
 based on Hessian 

Error Analysis:
         Estimate  Std. Error  t value Pr(>|t|)    
mu     -6.142e-18   1.211e-05    0.000  1.00000    
ar1     9.057e-01   2.012e-02   45.020  < 2e-16 ***
ar2     7.775e-02   1.551e-02    5.013 5.35e-07 ***
ma1    -9.785e-01   1.218e-02  -80.352  < 2e-16 ***
omega   1.136e-05   4.388e-06    2.588  0.00964 ** 
alpha1  4.858e-01   8.836e-02    5.497 3.85e-08 ***
beta1   3.381e-01   7.635e-02    4.428 9.50e-06 ***
beta2   4.305e-01   6.839e-02    6.294 3.09e-10 ***
skew    1.046e+00   1.708e-02   61.207  < 2e-16 ***
shape   2.607e+00   1.462e-01   17.832  < 2e-16 ***
---
Signif. codes:  0 ‘***’ 0.001 ‘**’ 0.01 ‘*’ 0.05 ‘.’ 0.1 ‘ ’ 1

Log Likelihood:
 7056.137    normalized:  1.690903 

Description:
 Sat Sep 01 15:06:09 2018 by user: Appus 


[[17]]

Title:
 GARCH Modelling 

Call:
 garchFit(formula = formula, data = data, cond.dist = ll$dist, 
    include.mean = TRUE, trace = FALSE) 

Mean and Variance Equation:
 data ~ arma(1, 2) + garch(2, 0)
<environment: 0x0000000028672030>
 [data = data]

Conditional Distribution:
 sstd 

Coefficient(s):
         mu          ar1          ma1          ma2        omega       alpha1       alpha2         skew        shape  
 2.4283e-18   5.7327e-02  -5.4948e-02  -8.5994e-02   3.9941e-04   1.0000e+00   1.0000e+00   1.0186e+00   2.5947e+00  

Std. Errors:
 based on Hessian 

Error Analysis:
         Estimate  Std. Error  t value Pr(>|t|)    
mu      2.428e-18   2.940e-04    0.000   1.0000    
ar1     5.733e-02   2.335e-02    2.455   0.0141 *  
ma1    -5.495e-02   3.065e-02   -1.793   0.0730 .  
ma2    -8.599e-02   1.743e-02   -4.933 8.08e-07 ***
omega   3.994e-04   4.893e-05    8.162 2.22e-16 ***
alpha1  1.000e+00   1.319e-01    7.581 3.42e-14 ***
alpha2  1.000e+00   1.240e-01    8.063 6.66e-16 ***
skew    1.019e+00   1.710e-02   59.569  < 2e-16 ***
shape   2.595e+00   9.207e-02   28.183  < 2e-16 ***
---
Signif. codes:  0 ‘***’ 0.001 ‘**’ 0.01 ‘*’ 0.05 ‘.’ 0.1 ‘ ’ 1

Log Likelihood:
 8631.505    normalized:  2.068417 

Description:
 Sat Sep 01 15:07:47 2018 by user: Appus 


[[18]]

Title:
 GARCH Modelling 

Call:
 garchFit(formula = formula, data = data, cond.dist = ll$dist, 
    include.mean = TRUE, trace = FALSE) 

Mean and Variance Equation:
 data ~ arma(2, 1) + garch(2, 2)
<environment: 0x0000000023d81c38>
 [data = data]

Conditional Distribution:
 sstd 

Coefficient(s):
         mu          ar1          ar2          ma1        omega       alpha1       alpha2        beta1        beta2  
-1.4371e-18   6.1800e-01   3.2260e-02  -7.3562e-01   4.4551e-07   2.4844e-01   1.0000e-08   7.0581e-01   1.1059e-01  
       skew        shape  
 9.9854e-01   4.0302e+00  

Std. Errors:
 based on Hessian 

Error Analysis:
         Estimate  Std. Error  t value Pr(>|t|)    
mu     -1.437e-18   5.136e-05    0.000    1.000    
ar1     6.180e-01   1.019e-01    6.066 1.31e-09 ***
ar2     3.226e-02   2.521e-02    1.279    0.201    
ma1    -7.356e-01   1.019e-01   -7.217 5.30e-13 ***
omega   4.455e-07   1.497e-06    0.298    0.766    
alpha1  2.484e-01   2.259e-01    1.100    0.271    
alpha2  1.000e-08   9.242e-01    0.000    1.000    
beta1   7.058e-01   3.263e+00    0.216    0.829    
beta2   1.106e-01   2.731e+00    0.040    0.968    
skew    9.985e-01   1.809e-02   55.184  < 2e-16 ***
shape   4.030e+00   4.714e-01    8.550  < 2e-16 ***
---
Signif. codes:  0 ‘***’ 0.001 ‘**’ 0.01 ‘*’ 0.05 ‘.’ 0.1 ‘ ’ 1

Log Likelihood:
 8583.474    normalized:  2.056907 

Description:
 Sat Sep 01 15:10:17 2018 by user: Appus 


[[19]]

Title:
 GARCH Modelling 

Call:
 garchFit(formula = formula, data = data, cond.dist = ll$dist, 
    include.mean = TRUE, trace = FALSE) 

Mean and Variance Equation:
 data ~ arma(2, 2) + garch(2, 1)
<environment: 0x000000002a998630>
 [data = data]

Conditional Distribution:
 sstd 

Coefficient(s):
         mu          ar1          ar2          ma1          ma2        omega       alpha1       alpha2        beta1  
-3.1175e-17   7.8068e-01  -1.4965e-01  -8.6764e-01   1.7236e-01   4.1992e-05   1.0000e+00   9.9507e-01   4.3000e-01  
       skew        shape  
 9.7771e-01   2.3836e+00  

Std. Errors:
 based on Hessian 

Error Analysis:
         Estimate  Std. Error  t value Pr(>|t|)    
mu     -3.117e-17   9.275e-05    0.000  1.00000    
ar1     7.807e-01   2.937e-01    2.658  0.00785 ** 
ar2    -1.496e-01   1.836e-01   -0.815  0.41495    
ma1    -8.676e-01   2.988e-01   -2.904  0.00368 ** 
ma2     1.724e-01   2.006e-01    0.859  0.39021    
omega   4.199e-05   4.960e-06    8.466  < 2e-16 ***
alpha1  1.000e+00   1.249e-01    8.006 1.11e-15 ***
alpha2  9.951e-01   1.994e-01    4.990 6.04e-07 ***
beta1   4.300e-01   2.338e-02   18.388  < 2e-16 ***
skew    9.777e-01   1.469e-02   66.556  < 2e-16 ***
shape   2.384e+00   5.152e-02   46.261  < 2e-16 ***
---
Signif. codes:  0 ‘***’ 0.001 ‘**’ 0.01 ‘*’ 0.05 ‘.’ 0.1 ‘ ’ 1

Log Likelihood:
 5920.842    normalized:  1.418846 

Description:
 Sat Sep 01 15:12:25 2018 by user: Appus 


[[20]]

Title:
 GARCH Modelling 

Call:
 garchFit(formula = formula, data = data, cond.dist = ll$dist, 
    include.mean = TRUE, trace = FALSE) 

Mean and Variance Equation:
 data ~ arma(0, 1) + garch(2, 1)
<environment: 0x000000002db43110>
 [data = data]

Conditional Distribution:
 sstd 

Coefficient(s):
         mu          ma1        omega       alpha1       alpha2        beta1         skew        shape  
 3.4791e-18  -1.9693e-02   1.5560e-04   1.0000e+00   7.7647e-01   4.5477e-01   1.0100e+00   2.2747e+00  

Std. Errors:
 based on Hessian 

Error Analysis:
         Estimate  Std. Error  t value Pr(>|t|)    
mu      3.479e-18   2.482e-04    0.000 1.000000    
ma1    -1.969e-02   1.543e-02   -1.277 0.201764    
omega   1.556e-04   4.224e-05    3.684 0.000230 ***
alpha1  1.000e+00   2.588e-01    3.863 0.000112 ***
alpha2  7.765e-01   2.465e-01    3.150 0.001635 ** 
beta1   4.548e-01   3.421e-02   13.293  < 2e-16 ***
skew    1.010e+00   1.475e-02   68.498  < 2e-16 ***
shape   2.275e+00   7.622e-02   29.843  < 2e-16 ***
---
Signif. codes:  0 ‘***’ 0.001 ‘**’ 0.01 ‘*’ 0.05 ‘.’ 0.1 ‘ ’ 1

Log Likelihood:
 9522.501    normalized:  2.281932 

Description:
 Sat Sep 01 15:12:48 2018 by user: Appus 


[[21]]

Title:
 GARCH Modelling 

Call:
 garchFit(formula = formula, data = data, cond.dist = ll$dist, 
    include.mean = TRUE, trace = FALSE) 

Mean and Variance Equation:
 data ~ arma(1, 2) + garch(2, 1)
<environment: 0x000000002cca2a00>
 [data = data]

Conditional Distribution:
 sstd 

Coefficient(s):
         mu          ar1          ma1          ma2        omega       alpha1       alpha2        beta1         skew  
 3.0807e-17   6.9498e-01  -7.3985e-01   2.9512e-02   1.0729e-06   1.0000e+00   1.0000e+00   6.7954e-02   9.3220e-01  
      shape  
 2.0837e+00  

Std. Errors:
 based on Hessian 

Error Analysis:
         Estimate  Std. Error  t value Pr(>|t|)    
mu      3.081e-17   1.391e-05    0.000    1.000    
ar1     6.950e-01   1.416e-01    4.909 9.14e-07 ***
ma1    -7.398e-01   1.462e-01   -5.060 4.20e-07 ***
ma2     2.951e-02   1.188e-02    2.484    0.013 *  
omega   1.073e-06   1.573e-06    0.682    0.495    
alpha1  1.000e+00   7.621e-02   13.121  < 2e-16 ***
alpha2  1.000e+00   1.342e-01    7.454 9.06e-14 ***
beta1   6.795e-02   1.001e-02    6.787 1.15e-11 ***
skew    9.322e-01   9.068e-03  102.806  < 2e-16 ***
shape   2.084e+00   7.559e-03  275.664  < 2e-16 ***
---
Signif. codes:  0 ‘***’ 0.001 ‘**’ 0.01 ‘*’ 0.05 ‘.’ 0.1 ‘ ’ 1

Log Likelihood:
 7462.008    normalized:  1.788164 

Description:
 Sat Sep 01 15:16:11 2018 by user: Appus 


[[22]]

Title:
 GARCH Modelling 

Call:
 garchFit(formula = formula, data = data, cond.dist = ll$dist, 
    include.mean = TRUE, trace = FALSE) 

Mean and Variance Equation:
 data ~ arma(2, 1) + garch(1, 2)
<environment: 0x000000002ad844a8>
 [data = data]

Conditional Distribution:
 sstd 

Coefficient(s):
         mu          ar1          ar2          ma1        omega       alpha1        beta1        beta2         skew  
-2.8121e-18  -3.6183e-01  -2.1246e-02   3.3687e-01   1.2629e-05   3.6226e-01   5.3227e-01   2.0997e-01   1.0504e+00  
      shape  
 3.1627e+00  

Std. Errors:
 based on Hessian 

Error Analysis:
         Estimate  Std. Error  t value Pr(>|t|)    
mu     -2.812e-18   3.146e-04    0.000 1.000000    
ar1    -3.618e-01   9.487e-02   -3.814 0.000137 ***
ar2    -2.125e-02   1.524e-02   -1.394 0.163346    
ma1     3.369e-01   9.590e-02    3.513 0.000444 ***
omega   1.263e-05   2.719e-06    4.644 3.41e-06 ***
alpha1  3.623e-01   5.375e-02    6.740 1.58e-11 ***
beta1   5.323e-01   1.097e-01    4.851 1.23e-06 ***
beta2   2.100e-01   9.580e-02    2.192 0.028401 *  
skew    1.050e+00   1.692e-02   62.062  < 2e-16 ***
shape   3.163e+00   1.971e-01   16.044  < 2e-16 ***
---
Signif. codes:  0 ‘***’ 0.001 ‘**’ 0.01 ‘*’ 0.05 ‘.’ 0.1 ‘ ’ 1

Log Likelihood:
 10000.86    normalized:  2.396564 

Description:
 Sat Sep 01 15:18:34 2018 by user: Appus 


[[23]]

Title:
 GARCH Modelling 

Call:
 garchFit(formula = formula, data = data, cond.dist = ll$dist, 
    include.mean = TRUE, trace = FALSE) 

Mean and Variance Equation:
 data ~ arma(1, 0) + garch(2, 1)
<environment: 0x000000002e5e5488>
 [data = data]

Conditional Distribution:
 sstd 

Coefficient(s):
         mu          ar1        omega       alpha1       alpha2        beta1         skew        shape  
 1.7257e-17  -7.1386e-02   2.0149e-07   1.0000e+00   1.0000e+00   4.1492e-01   9.8941e-01   2.2388e+00  

Std. Errors:
 based on Hessian 

Error Analysis:
         Estimate  Std. Error  t value Pr(>|t|)    
mu      1.726e-17   2.472e-05    0.000    1.000    
ar1    -7.139e-02   1.419e-02   -5.031 4.87e-07 ***
omega   2.015e-07   8.695e-06    0.023    0.982    
alpha1  1.000e+00   1.137e-01    8.795  < 2e-16 ***
alpha2  1.000e+00   1.162e-01    8.607  < 2e-16 ***
beta1   4.149e-01   1.725e-02   24.057  < 2e-16 ***
skew    9.894e-01   9.066e-03  109.135  < 2e-16 ***
shape   2.239e+00   2.132e-02  105.020  < 2e-16 ***
---
Signif. codes:  0 ‘***’ 0.001 ‘**’ 0.01 ‘*’ 0.05 ‘.’ 0.1 ‘ ’ 1

Log Likelihood:
 9431.865    normalized:  2.260212 

Description:
 Sat Sep 01 15:19:41 2018 by user: Appus 


[[24]]

Title:
 GARCH Modelling 

Call:
 garchFit(formula = formula, data = data, cond.dist = ll$dist, 
    include.mean = TRUE, trace = FALSE) 

Mean and Variance Equation:
 data ~ arma(0, 2) + garch(2, 1)
<environment: 0x000000002f98a4d0>
 [data = data]

Conditional Distribution:
 sstd 

Coefficient(s):
         mu          ma1          ma2        omega       alpha1       alpha2        beta1         skew        shape  
 8.8810e-18   1.2826e-05  -3.7239e-02   2.5447e-04   1.0000e+00   4.2472e-01   5.5860e-01   9.9534e-01   2.3448e+00  

Std. Errors:
 based on Hessian 

Error Analysis:
         Estimate  Std. Error  t value Pr(>|t|)    
mu      8.881e-18   4.756e-04    0.000  1.00000    
ma1     1.283e-05   1.575e-02    0.001  0.99935    
ma2    -3.724e-02   1.539e-02   -2.420  0.01551 *  
omega   2.545e-04   4.774e-05    5.330 9.81e-08 ***
alpha1  1.000e+00   1.844e-01    5.422 5.90e-08 ***
alpha2  4.247e-01   1.647e-01    2.579  0.00991 ** 
beta1   5.586e-01   3.097e-02   18.036  < 2e-16 ***
skew    9.953e-01   1.396e-02   71.287  < 2e-16 ***
shape   2.345e+00   6.649e-02   35.263  < 2e-16 ***
---
Signif. codes:  0 ‘***’ 0.001 ‘**’ 0.01 ‘*’ 0.05 ‘.’ 0.1 ‘ ’ 1

Log Likelihood:
 5533.556    normalized:  1.326038 

Description:
 Sat Sep 01 15:21:57 2018 by user: Appus 


[[25]]

Title:
 GARCH Modelling 

Call:
 garchFit(formula = formula, data = data, cond.dist = ll$dist, 
    include.mean = TRUE, trace = FALSE) 

Mean and Variance Equation:
 data ~ arma(1, 1) + garch(2, 2)
<environment: 0x000000002e37b8a8>
 [data = data]

Conditional Distribution:
 sstd 

Coefficient(s):
         mu          ar1          ma1        omega       alpha1       alpha2        beta1        beta2         skew  
 4.9663e-18   6.2342e-01  -6.4732e-01   4.7067e-05   1.0000e+00   8.8609e-01   4.8473e-01   1.0000e-08   9.8947e-01  
      shape  
 2.3523e+00  

Std. Errors:
 based on Hessian 

Error Analysis:
         Estimate  Std. Error  t value Pr(>|t|)    
mu      4.966e-18   8.863e-05    0.000  1.00000    
ar1     6.234e-01   2.234e-01    2.790  0.00527 ** 
ma1    -6.473e-01   2.248e-01   -2.880  0.00398 ** 
omega   4.707e-05   9.281e-06    5.072 3.95e-07 ***
alpha1  1.000e+00   1.520e-01    6.578 4.78e-11 ***
alpha2  8.861e-01   1.779e-01    4.982 6.30e-07 ***
beta1   4.847e-01   5.221e-02    9.285  < 2e-16 ***
beta2   1.000e-08   1.871e-02    0.000  1.00000    
skew    9.895e-01   1.339e-02   73.918  < 2e-16 ***
shape   2.352e+00   5.385e-02   43.680  < 2e-16 ***
---
Signif. codes:  0 ‘***’ 0.001 ‘**’ 0.01 ‘*’ 0.05 ‘.’ 0.1 ‘ ’ 1

Log Likelihood:
 6977.159    normalized:  1.671977 

Description:
 Sat Sep 01 15:24:22 2018 by user: Appus 


[[26]]

Title:
 GARCH Modelling 

Call:
 garchFit(formula = formula, data = data, cond.dist = ll$dist, 
    include.mean = TRUE, trace = FALSE) 

Mean and Variance Equation:
 data ~ arma(1, 2) + garch(2, 2)
<environment: 0x0000000028443468>
 [data = data]

Conditional Distribution:
 sstd 

Coefficient(s):
         mu          ar1          ma1          ma2        omega       alpha1       alpha2        beta1        beta2  
 1.9345e-17   4.6619e-01  -4.6784e-01  -4.1349e-02   2.3275e-05   1.0000e+00   1.0000e+00   4.8932e-01   1.0000e-08  
       skew        shape  
 9.7615e-01   2.2887e+00  

Std. Errors:
 based on Hessian 

Error Analysis:
         Estimate  Std. Error  t value Pr(>|t|)    
mu      1.934e-17   8.502e-05    0.000 1.000000    
ar1     4.662e-01   1.709e-01    2.728 0.006363 ** 
ma1    -4.678e-01   1.707e-01   -2.741 0.006126 ** 
ma2    -4.135e-02   1.605e-02   -2.577 0.009973 ** 
omega   2.327e-05   6.067e-06    3.836 0.000125 ***
alpha1  1.000e+00   1.659e-01    6.026 1.68e-09 ***
alpha2  1.000e+00   1.889e-01    5.294 1.20e-07 ***
beta1   4.893e-01   5.250e-02    9.321  < 2e-16 ***
beta2   1.000e-08   4.979e-02    0.000 1.000000    
skew    9.762e-01   1.218e-02   80.112  < 2e-16 ***
shape   2.289e+00   3.825e-02   59.834  < 2e-16 ***
---
Signif. codes:  0 ‘***’ 0.001 ‘**’ 0.01 ‘*’ 0.05 ‘.’ 0.1 ‘ ’ 1

Log Likelihood:
 7329.768    normalized:  1.756474 

Description:
 Sat Sep 01 15:26:48 2018 by user: Appus 


[[27]]

Title:
 GARCH Modelling 

Call:
 garchFit(formula = formula, data = data, cond.dist = ll$dist, 
    include.mean = TRUE, trace = FALSE) 

Mean and Variance Equation:
 data ~ arma(1, 2) + garch(1, 2)
<environment: 0x0000000028e99090>
 [data = data]

Conditional Distribution:
 sstd 

Coefficient(s):
         mu          ar1          ma1          ma2        omega       alpha1        beta1        beta2         skew  
 7.1380e-18   5.8807e-01  -6.1242e-01  -1.0309e-02   8.0744e-05   4.9019e-01   5.1790e-01   1.5017e-01   1.0073e+00  
      shape  
 2.9935e+00  

Std. Errors:
 based on Hessian 

Error Analysis:
         Estimate  Std. Error  t value Pr(>|t|)    
mu      7.138e-18   1.560e-04    0.000    1.000    
ar1     5.881e-01   1.188e-01    4.951 7.39e-07 ***
ma1    -6.124e-01   1.192e-01   -5.138 2.77e-07 ***
ma2    -1.031e-02   1.600e-02   -0.644    0.519    
omega   8.074e-05   1.550e-05    5.210 1.89e-07 ***
alpha1  4.902e-01   6.909e-02    7.095 1.29e-12 ***
beta1   5.179e-01   1.273e-01    4.068 4.74e-05 ***
beta2   1.502e-01   1.017e-01    1.477    0.140    
skew    1.007e+00   1.540e-02   65.429  < 2e-16 ***
shape   2.994e+00   1.681e-01   17.808  < 2e-16 ***
---
Signif. codes:  0 ‘***’ 0.001 ‘**’ 0.01 ‘*’ 0.05 ‘.’ 0.1 ‘ ’ 1

Log Likelihood:
 7614.371    normalized:  1.824676 

Description:
 Sat Sep 01 15:28:36 2018 by user: Appus 


[[28]]

Title:
 GARCH Modelling 

Call:
 garchFit(formula = formula, data = data, cond.dist = ll$dist, 
    include.mean = TRUE, trace = FALSE) 

Mean and Variance Equation:
 data ~ arma(1, 1) + garch(2, 1)
<environment: 0x00000000287507e0>
 [data = data]

Conditional Distribution:
 sstd 

Coefficient(s):
         mu          ar1          ma1        omega       alpha1       alpha2        beta1         skew        shape  
 9.8977e-18   4.3201e-01  -5.0856e-01   2.2992e-04   1.0000e+00   1.0000e+00   3.8071e-01   9.7096e-01   2.2662e+00  

Std. Errors:
 based on Hessian 

Error Analysis:
         Estimate  Std. Error  t value Pr(>|t|)    
mu      9.898e-18   1.590e-04    0.000 1.000000    
ar1     4.320e-01   1.140e-01    3.788 0.000152 ***
ma1    -5.086e-01   1.083e-01   -4.695 2.67e-06 ***
omega   2.299e-04   1.401e-05   16.409  < 2e-16 ***
alpha1  1.000e+00   1.388e-01    7.203 5.88e-13 ***
alpha2  1.000e+00   1.948e-01    5.134 2.83e-07 ***
beta1   3.807e-01   2.671e-02   14.253  < 2e-16 ***
skew    9.710e-01   1.341e-02   72.431  < 2e-16 ***
shape   2.266e+00   2.997e-02   75.611  < 2e-16 ***
---
Signif. codes:  0 ‘***’ 0.001 ‘**’ 0.01 ‘*’ 0.05 ‘.’ 0.1 ‘ ’ 1

Log Likelihood:
 7727.283    normalized:  1.851733 

Description:
 Sat Sep 01 15:30:23 2018 by user: Appus 


[[29]]

Title:
 GARCH Modelling 

Call:
 garchFit(formula = formula, data = data, cond.dist = ll$dist, 
    include.mean = TRUE, trace = FALSE) 

Mean and Variance Equation:
 data ~ arma(2, 0) + garch(2, 1)
<environment: 0x000000002be95bb8>
 [data = data]

Conditional Distribution:
 sstd 

Coefficient(s):
         mu          ar1          ar2        omega       alpha1       alpha2        beta1         skew        shape  
-5.2732e-18   3.4806e-02   7.5584e-03   2.1114e-04   1.0000e+00   9.2866e-01   3.6683e-01   1.0040e+00   2.2689e+00  

Std. Errors:
 based on Hessian 

Error Analysis:
         Estimate  Std. Error  t value Pr(>|t|)    
mu     -5.273e-18   2.559e-04    0.000   1.0000    
ar1     3.481e-02   1.502e-02    2.317   0.0205 *  
ar2     7.558e-03   1.489e-02    0.508   0.6117    
omega   2.111e-04   3.528e-05    5.984 2.18e-09 ***
alpha1  1.000e+00   1.477e-01    6.770 1.29e-11 ***
alpha2  9.287e-01   2.189e-01    4.241 2.22e-05 ***
beta1   3.668e-01   3.026e-02   12.125  < 2e-16 ***
skew    1.004e+00   1.429e-02   70.264  < 2e-16 ***
shape   2.269e+00   4.275e-02   53.074  < 2e-16 ***
---
Signif. codes:  0 ‘***’ 0.001 ‘**’ 0.01 ‘*’ 0.05 ‘.’ 0.1 ‘ ’ 1

Log Likelihood:
 8711.102    normalized:  2.087492 

Description:
 Sat Sep 01 15:32:52 2018 by user: Appus 


[[30]]

Title:
 GARCH Modelling 

Call:
 garchFit(formula = formula, data = data, cond.dist = ll$dist, 
    include.mean = TRUE, trace = FALSE) 

Mean and Variance Equation:
 data ~ arma(1, 1) + garch(2, 1)
<environment: 0x000000002e3f8620>
 [data = data]

Conditional Distribution:
 sstd 

Coefficient(s):
         mu          ar1          ma1        omega       alpha1       alpha2        beta1         skew        shape  
 8.4798e-19   4.6354e-01  -5.5825e-01   5.4279e-05   1.0000e+00   5.5849e-01   4.9919e-01   1.0259e+00   2.3278e+00  

Std. Errors:
 based on Hessian 

Error Analysis:
         Estimate  Std. Error  t value Pr(>|t|)    
mu      8.480e-19   8.466e-05    0.000 1.000000    
ar1     4.635e-01   8.509e-02    5.447 5.11e-08 ***
ma1    -5.582e-01   7.874e-02   -7.090 1.34e-12 ***
omega   5.428e-05   1.012e-05    5.366 8.05e-08 ***
alpha1  1.000e+00   1.544e-01    6.475 9.49e-11 ***
alpha2  5.585e-01   1.638e-01    3.411 0.000648 ***
beta1   4.992e-01   2.767e-02   18.043  < 2e-16 ***
skew    1.026e+00   1.457e-02   70.388  < 2e-16 ***
shape   2.328e+00   5.232e-02   44.490  < 2e-16 ***
---
Signif. codes:  0 ‘***’ 0.001 ‘**’ 0.01 ‘*’ 0.05 ‘.’ 0.1 ‘ ’ 1

Log Likelihood:
 9663.758    normalized:  2.315782 

Description:
 Sat Sep 01 15:34:28 2018 by user: Appus 


[[31]]

Title:
 GARCH Modelling 

Call:
 garchFit(formula = formula, data = data, cond.dist = ll$dist, 
    include.mean = TRUE, trace = FALSE) 

Mean and Variance Equation:
 data ~ arma(0, 2) + garch(2, 2)
<environment: 0x0000000028d070b8>
 [data = data]

Conditional Distribution:
 sstd 

Coefficient(s):
         mu          ma1          ma2        omega       alpha1       alpha2        beta1        beta2         skew  
 1.2096e-17  -1.7416e-02  -2.0449e-02   7.8019e-05   1.0000e+00   9.5650e-01   4.8233e-01   1.0000e-08   9.9080e-01  
      shape  
 2.2821e+00  

Std. Errors:
 based on Hessian 

Error Analysis:
         Estimate  Std. Error  t value Pr(>|t|)    
mu      1.210e-17   2.296e-04    0.000    1.000    
ma1    -1.742e-02   1.520e-02   -1.146    0.252    
ma2    -2.045e-02   1.581e-02   -1.293    0.196    
omega   7.802e-05   1.127e-06   69.205  < 2e-16 ***
alpha1  1.000e+00   1.464e-01    6.830 8.50e-12 ***
alpha2  9.565e-01   1.871e-01    5.112 3.19e-07 ***
beta1   4.823e-01   2.440e-02   19.768  < 2e-16 ***
beta2   1.000e-08   3.430e-03    0.000    1.000    
skew    9.908e-01   1.281e-02   77.328  < 2e-16 ***
shape   2.282e+00   3.934e-02   58.015  < 2e-16 ***
---
Signif. codes:  0 ‘***’ 0.001 ‘**’ 0.01 ‘*’ 0.05 ‘.’ 0.1 ‘ ’ 1

Log Likelihood:
 7935.046    normalized:  1.901521 

Description:
 Sat Sep 01 15:36:07 2018 by user: Appus 


[[32]]

Title:
 GARCH Modelling 

Call:
 garchFit(formula = formula, data = data, cond.dist = ll$dist, 
    include.mean = TRUE, trace = FALSE) 

Mean and Variance Equation:
 data ~ arma(2, 1) + garch(2, 0)
<environment: 0x000000002a9fb6a8>
 [data = data]

Conditional Distribution:
 sstd 

Coefficient(s):
         mu          ar1          ar2          ma1        omega       alpha1       alpha2         skew        shape  
 2.6732e-17   4.7547e-01   5.1668e-01  -7.3683e-04   4.0775e-08   1.0000e+00   1.0000e+00   9.6398e-01   2.1480e+00  

Std. Errors:
 based on Hessian 

Error Analysis:
         Estimate  Std. Error  t value Pr(>|t|)    
mu      2.673e-17   4.774e-06    0.000    1.000    
ar1     4.755e-01   1.123e-02   42.338   <2e-16 ***
ar2     5.167e-01   1.096e-02   47.161   <2e-16 ***
ma1    -7.368e-04   6.972e-04   -1.057    0.291    
omega   4.077e-08   1.019e-06    0.040    0.968    
alpha1  1.000e+00   4.937e-02   20.255   <2e-16 ***
alpha2  1.000e+00   5.514e-02   18.136   <2e-16 ***
skew    9.640e-01   1.029e-02   93.701   <2e-16 ***
shape   2.148e+00   7.337e-03  292.763   <2e-16 ***
---
Signif. codes:  0 ‘***’ 0.001 ‘**’ 0.01 ‘*’ 0.05 ‘.’ 0.1 ‘ ’ 1

Log Likelihood:
 10409.48    normalized:  2.494484 

Description:
 Sat Sep 01 15:39:10 2018 by user: Appus 


[[33]]

Title:
 GARCH Modelling 

Call:
 garchFit(formula = formula, data = data, cond.dist = ll$dist, 
    include.mean = TRUE, trace = FALSE) 

Mean and Variance Equation:
 data ~ arma(1, 1) + garch(2, 0)
<environment: 0x00000000288ad698>
 [data = data]

Conditional Distribution:
 sstd 

Coefficient(s):
         mu          ar1          ma1        omega       alpha1       alpha2         skew        shape  
 8.1993e-18   9.6063e-02  -1.9386e-01   6.0003e-04   1.0000e+00   1.0000e+00   1.0256e+00   2.1895e+00  

Std. Errors:
 based on Hessian 

Error Analysis:
         Estimate  Std. Error  t value Pr(>|t|)    
mu      8.199e-18   2.444e-04    0.000  1.00000    
ar1     9.606e-02   6.320e-02    1.520  0.12850    
ma1    -1.939e-01   6.221e-02   -3.116  0.00183 ** 
omega   6.000e-04   9.819e-05    6.111 9.92e-10 ***
alpha1  1.000e+00   7.171e-02   13.946  < 2e-16 ***
alpha2  1.000e+00   1.348e-01    7.417 1.20e-13 ***
skew    1.026e+00   1.171e-02   87.600  < 2e-16 ***
shape   2.190e+00   1.370e-02  159.877  < 2e-16 ***
---
Signif. codes:  0 ‘***’ 0.001 ‘**’ 0.01 ‘*’ 0.05 ‘.’ 0.1 ‘ ’ 1

Log Likelihood:
 5622.574    normalized:  1.34737 

Description:
 Sat Sep 01 15:40:25 2018 by user: Appus 


[[34]]

Title:
 GARCH Modelling 

Call:
 garchFit(formula = formula, data = data, cond.dist = ll$dist, 
    include.mean = TRUE, trace = FALSE) 

Mean and Variance Equation:
 data ~ arma(1, 2) + garch(2, 2)
<environment: 0x00000000287676c0>
 [data = data]

Conditional Distribution:
 sstd 

Coefficient(s):
         mu          ar1          ma1          ma2        omega       alpha1       alpha2        beta1        beta2  
 3.9004e-18   7.1253e-01  -7.8409e-01   2.9078e-02   3.5071e-05   1.0000e+00   4.2488e-01   5.6183e-01   1.0000e-08  
       skew        shape  
 9.7628e-01   2.3914e+00  

Std. Errors:
 based on Hessian 

Error Analysis:
         Estimate  Std. Error  t value Pr(>|t|)    
mu      3.900e-18   1.025e-04    0.000 1.000000    
ar1     7.125e-01   3.342e-01    2.132 0.033013 *  
ma1    -7.841e-01   3.449e-01   -2.274 0.022991 *  
ma2     2.908e-02   5.444e-02    0.534 0.593254    
omega   3.507e-05   2.924e-06   11.994  < 2e-16 ***
alpha1  1.000e+00   2.920e-01    3.425 0.000615 ***
alpha2  4.249e-01   4.438e-01    0.957 0.338323    
beta1   5.618e-01   3.827e-01    1.468 0.142131    
beta2   1.000e-08   2.377e-01    0.000 1.000000    
skew    9.763e-01   1.613e-02   60.540  < 2e-16 ***
shape   2.391e+00   1.321e-01   18.101  < 2e-16 ***
---
Signif. codes:  0 ‘***’ 0.001 ‘**’ 0.01 ‘*’ 0.05 ‘.’ 0.1 ‘ ’ 1

Log Likelihood:
 8313.661    normalized:  1.99225 

Description:
 Sat Sep 01 15:42:44 2018 by user: Appus 


[[35]]

Title:
 GARCH Modelling 

Call:
 garchFit(formula = formula, data = data, cond.dist = ll$dist, 
    include.mean = TRUE, trace = FALSE) 

Mean and Variance Equation:
 data ~ arma(2, 2) + garch(2, 1)
<environment: 0x000000002c69c6b0>
 [data = data]

Conditional Distribution:
 sstd 

Coefficient(s):
         mu          ar1          ar2          ma1          ma2        omega       alpha1       alpha2        beta1  
 9.8122e-18  -4.7355e-01   4.9519e-01   4.0503e-01  -5.6003e-01   4.4528e-04   1.0000e+00   4.6856e-01   4.3080e-01  
       skew        shape  
 1.0028e+00   2.3402e+00  

Std. Errors:
 based on Hessian 

Error Analysis:
         Estimate  Std. Error  t value Pr(>|t|)    
mu      9.812e-18   3.613e-04    0.000 1.000000    
ar1    -4.736e-01   1.189e-01   -3.982 6.83e-05 ***
ar2     4.952e-01   1.138e-01    4.353 1.34e-05 ***
ma1     4.050e-01   1.131e-01    3.582 0.000341 ***
ma2    -5.600e-01   1.077e-01   -5.198 2.01e-07 ***
omega   4.453e-04   8.336e-05    5.342 9.20e-08 ***
alpha1  1.000e+00   1.595e-01    6.270 3.61e-10 ***
alpha2  4.686e-01   1.542e-01    3.038 0.002382 ** 
beta1   4.308e-01   3.248e-02   13.263  < 2e-16 ***
skew    1.003e+00   1.471e-02   68.177  < 2e-16 ***
shape   2.340e+00   5.888e-02   39.749  < 2e-16 ***
---
Signif. codes:  0 ‘***’ 0.001 ‘**’ 0.01 ‘*’ 0.05 ‘.’ 0.1 ‘ ’ 1

Log Likelihood:
 7012.122    normalized:  1.680355 

Description:
 Sat Sep 01 15:45:31 2018 by user: Appus 


[[36]]

Title:
 GARCH Modelling 

Call:
 garchFit(formula = formula, data = data, cond.dist = ll$dist, 
    include.mean = TRUE, trace = FALSE) 

Mean and Variance Equation:
 data ~ arma(1, 2) + garch(2, 1)
<environment: 0x000000002adfd028>
 [data = data]

Conditional Distribution:
 sstd 

Coefficient(s):
         mu          ar1          ma1          ma2        omega       alpha1       alpha2        beta1         skew  
-1.2932e-18   8.2269e-01  -9.6193e-01   9.7710e-02   1.9380e-05   1.0000e+00   5.7921e-01   5.2796e-01   1.0187e+00  
      shape  
 2.3762e+00  

Std. Errors:
 based on Hessian 

Error Analysis:
         Estimate  Std. Error  t value Pr(>|t|)    
mu     -1.293e-18   2.510e-05    0.000        1    
ar1     8.227e-01   1.842e-02   44.664  < 2e-16 ***
ma1    -9.619e-01   1.758e-02  -54.720  < 2e-16 ***
ma2     9.771e-02   1.271e-02    7.685 1.53e-14 ***
omega   1.938e-05   4.254e-07   45.559  < 2e-16 ***
alpha1  1.000e+00   1.322e-01    7.567 3.82e-14 ***
alpha2  5.792e-01   1.400e-01    4.138 3.50e-05 ***
beta1   5.280e-01   1.984e-02   26.610  < 2e-16 ***
skew    1.019e+00   1.421e-02   71.706  < 2e-16 ***
shape   2.376e+00   4.969e-02   47.822  < 2e-16 ***
---
Signif. codes:  0 ‘***’ 0.001 ‘**’ 0.01 ‘*’ 0.05 ‘.’ 0.1 ‘ ’ 1

Log Likelihood:
 8093.471    normalized:  1.939485 

Description:
 Sat Sep 01 15:46:35 2018 by user: Appus 


[[37]]

Title:
 GARCH Modelling 

Call:
 garchFit(formula = formula, data = data, cond.dist = ll$dist, 
    include.mean = TRUE, trace = FALSE) 

Mean and Variance Equation:
 data ~ arma(2, 1) + garch(2, 2)
<environment: 0x000000002ba42100>
 [data = data]

Conditional Distribution:
 sstd 

Coefficient(s):
         mu          ar1          ar2          ma1        omega       alpha1       alpha2        beta1        beta2  
 9.6300e-18  -1.8102e-01  -4.1234e-02   8.8917e-02   2.6827e-05   1.0000e+00   1.0000e+00   4.4874e-01   1.0000e-08  
       skew        shape  
 1.0187e+00   2.3238e+00  

Std. Errors:
 based on Hessian 

Error Analysis:
         Estimate  Std. Error  t value Pr(>|t|)    
mu      9.630e-18   1.898e-04    0.000   1.0000    
ar1    -1.810e-01   1.287e-01   -1.407   0.1595    
ar2    -4.123e-02   1.894e-02   -2.178   0.0294 *  
ma1     8.892e-02   1.287e-01    0.691   0.4896    
omega   2.683e-05   4.947e-06    5.423 5.85e-08 ***
alpha1  1.000e+00   1.417e-01    7.057 1.70e-12 ***
alpha2  1.000e+00   2.143e-01    4.666 3.07e-06 ***
beta1   4.487e-01   3.484e-02   12.881  < 2e-16 ***
beta2   1.000e-08   4.516e-02    0.000   1.0000    
skew    1.019e+00   1.293e-02   78.785  < 2e-16 ***
shape   2.324e+00   3.971e-02   58.516  < 2e-16 ***
---
Signif. codes:  0 ‘***’ 0.001 ‘**’ 0.01 ‘*’ 0.05 ‘.’ 0.1 ‘ ’ 1

Log Likelihood:
 7709.255    normalized:  1.847413 

Description:
 Sat Sep 01 15:49:10 2018 by user: Appus 


[[38]]

Title:
 GARCH Modelling 

Call:
 garchFit(formula = formula, data = data, cond.dist = ll$dist, 
    include.mean = TRUE, trace = FALSE) 

Mean and Variance Equation:
 data ~ arma(0, 1) + garch(2, 1)
<environment: 0x00000000269817a0>
 [data = data]

Conditional Distribution:
 sstd 

Coefficient(s):
         mu          ma1        omega       alpha1       alpha2        beta1         skew        shape  
 1.8337e-17  -9.7906e-02   1.6522e-04   1.0000e+00   7.8184e-01   3.3731e-01   1.0422e+00   2.2963e+00  

Std. Errors:
 based on Hessian 

Error Analysis:
         Estimate  Std. Error  t value Pr(>|t|)    
mu      1.834e-17   2.138e-04    0.000        1    
ma1    -9.791e-02   1.566e-02   -6.253 4.02e-10 ***
omega   1.652e-04   8.613e-06   19.183  < 2e-16 ***
alpha1  1.000e+00   1.217e-01    8.219 2.22e-16 ***
alpha2  7.818e-01   1.427e-01    5.479 4.27e-08 ***
beta1   3.373e-01   2.675e-02   12.608  < 2e-16 ***
skew    1.042e+00   1.378e-02   75.625  < 2e-16 ***
shape   2.296e+00   2.978e-02   77.118  < 2e-16 ***
---
Signif. codes:  0 ‘***’ 0.001 ‘**’ 0.01 ‘*’ 0.05 ‘.’ 0.1 ‘ ’ 1

Log Likelihood:
 9339.802    normalized:  2.238151 

Description:
 Sat Sep 01 15:49:31 2018 by user: Appus 


[[39]]

Title:
 GARCH Modelling 

Call:
 garchFit(formula = formula, data = data, cond.dist = ll$dist, 
    include.mean = TRUE, trace = FALSE) 

Mean and Variance Equation:
 data ~ arma(2, 2) + garch(2, 1)
<environment: 0x0000000028a81cc0>
 [data = data]

Conditional Distribution:
 sstd 

Coefficient(s):
         mu          ar1          ar2          ma1          ma2        omega       alpha1       alpha2        beta1  
-9.2843e-18   9.6549e-01  -4.3264e-01  -9.4457e-01   3.9881e-01   1.9285e-04   1.0000e+00   1.0000e+00   3.5951e-01  
       skew        shape  
 1.0007e+00   2.2974e+00  

Std. Errors:
 based on Hessian 

Error Analysis:
         Estimate  Std. Error  t value Pr(>|t|)    
mu     -9.284e-18   1.277e-04    0.000  1.00000    
ar1     9.655e-01   1.783e-01    5.416 6.09e-08 ***
ar2    -4.326e-01   1.634e-01   -2.648  0.00809 ** 
ma1    -9.446e-01   1.876e-01   -5.036 4.76e-07 ***
ma2     3.988e-01   1.764e-01    2.261  0.02375 *  
omega   1.928e-04   2.907e-05    6.635 3.25e-11 ***
alpha1  1.000e+00   1.264e-01    7.913 2.44e-15 ***
alpha2  1.000e+00   1.934e-01    5.170 2.35e-07 ***
beta1   3.595e-01   2.968e-02   12.114  < 2e-16 ***
skew    1.001e+00   1.350e-02   74.143  < 2e-16 ***
shape   2.297e+00   3.832e-02   59.951  < 2e-16 ***
---
Signif. codes:  0 ‘***’ 0.001 ‘**’ 0.01 ‘*’ 0.05 ‘.’ 0.1 ‘ ’ 1

Log Likelihood:
 7734.046    normalized:  1.853354 

Description:
 Sat Sep 01 15:53:22 2018 by user: Appus 


[[40]]

Title:
 GARCH Modelling 

Call:
 garchFit(formula = formula, data = data, cond.dist = ll$dist, 
    include.mean = TRUE, trace = FALSE) 

Mean and Variance Equation:
 data ~ arma(2, 1) + garch(2, 2)
<environment: 0x000000002ff6d948>
 [data = data]

Conditional Distribution:
 sstd 

Coefficient(s):
         mu          ar1          ar2          ma1        omega       alpha1       alpha2        beta1        beta2  
-4.0230e-18   4.1837e-01  -4.5120e-02  -4.2009e-01   2.1201e-05   1.0000e+00   1.0000e+00   4.6443e-01   1.0000e-08  
       skew        shape  
 9.7843e-01   2.3149e+00  

Std. Errors:
 based on Hessian 

Error Analysis:
         Estimate  Std. Error  t value Pr(>|t|)    
mu     -4.023e-18   1.050e-04    0.000  1.00000    
ar1     4.184e-01   1.840e-01    2.274  0.02296 *  
ar2    -4.512e-02   1.592e-02   -2.834  0.00459 ** 
ma1    -4.201e-01   1.837e-01   -2.287  0.02222 *  
omega   2.120e-05   1.252e-06   16.937  < 2e-16 ***
alpha1  1.000e+00   1.400e-01    7.144 9.07e-13 ***
alpha2  1.000e+00   1.643e-01    6.085 1.17e-09 ***
beta1   4.644e-01   2.300e-02   20.196  < 2e-16 ***
beta2   1.000e-08   2.250e-02    0.000  1.00000    
skew    9.784e-01   1.258e-02   77.767  < 2e-16 ***
shape   2.315e+00   3.733e-02   62.011  < 2e-16 ***
---
Signif. codes:  0 ‘***’ 0.001 ‘**’ 0.01 ‘*’ 0.05 ‘.’ 0.1 ‘ ’ 1

Log Likelihood:
 7932.779    normalized:  1.900978 

Description:
 Sat Sep 01 15:55:05 2018 by user: Appus 


[[41]]

Title:
 GARCH Modelling 

Call:
 garchFit(formula = formula, data = data, cond.dist = ll$dist, 
    include.mean = TRUE, trace = FALSE) 

Mean and Variance Equation:
 data ~ arma(2, 2) + garch(2, 2)
<environment: 0x000000002bbb89e8>
 [data = data]

Conditional Distribution:
 sstd 

Coefficient(s):
         mu          ar1          ar2          ma1          ma2        omega       alpha1       alpha2        beta1  
 1.7330e-17   3.4993e-01   1.3198e-01  -3.8844e-01  -1.5716e-01   7.0060e-06   1.0000e+00   1.0000e+00   4.8268e-01  
      beta2         skew        shape  
 1.0000e-08   9.9770e-01   2.3027e+00  

Std. Errors:
 based on Hessian 

Error Analysis:
         Estimate  Std. Error  t value Pr(>|t|)    
mu      1.733e-17   6.912e-05    0.000 1.000000    
ar1     3.499e-01   9.160e-02    3.820 0.000133 ***
ar2     1.320e-01   8.016e-02    1.646 0.099686 .  
ma1    -3.884e-01   9.121e-02   -4.259 2.05e-05 ***
ma2    -1.572e-01   7.679e-02   -2.046 0.040710 *  
omega   7.006e-06   2.054e-06    3.412 0.000646 ***
alpha1  1.000e+00   1.379e-01    7.252 4.10e-13 ***
alpha2  1.000e+00   1.842e-01    5.428 5.71e-08 ***
beta1   4.827e-01   4.809e-02   10.036  < 2e-16 ***
beta2   1.000e-08   4.759e-02    0.000 1.000000    
skew    9.977e-01   1.199e-02   83.242  < 2e-16 ***
shape   2.303e+00   3.500e-02   65.782  < 2e-16 ***
---
Signif. codes:  0 ‘***’ 0.001 ‘**’ 0.01 ‘*’ 0.05 ‘.’ 0.1 ‘ ’ 1

Log Likelihood:
 7117.357    normalized:  1.705573 

Description:
 Sat Sep 01 15:57:32 2018 by user: Appus 


[[42]]

Title:
 GARCH Modelling 

Call:
 garchFit(formula = formula, data = data, cond.dist = ll$dist, 
    include.mean = TRUE, trace = FALSE) 

Mean and Variance Equation:
 data ~ arma(1, 2) + garch(2, 2)
<environment: 0x000000002e379138>
 [data = data]

Conditional Distribution:
 sstd 

Coefficient(s):
         mu          ar1          ma1          ma2        omega       alpha1       alpha2        beta1        beta2  
 8.9875e-18   3.8865e-01  -4.1436e-01  -5.1251e-02   9.6961e-06   1.0000e+00   1.0000e+00   4.9428e-01   1.0000e-08  
       skew        shape  
 9.9615e-01   2.2906e+00  

Std. Errors:
 based on Hessian 

Error Analysis:
         Estimate  Std. Error  t value Pr(>|t|)    
mu      8.987e-18   6.914e-05    0.000  1.00000    
ar1     3.887e-01   1.998e-01    1.945  0.05176 .  
ma1    -4.144e-01   1.994e-01   -2.078  0.03775 *  
ma2    -5.125e-02   1.989e-02   -2.577  0.00998 ** 
omega   9.696e-06   1.113e-06    8.714  < 2e-16 ***
alpha1  1.000e+00   1.394e-01    7.173 7.33e-13 ***
alpha2  1.000e+00   1.739e-01    5.749 8.95e-09 ***
beta1   4.943e-01   1.220e-01    4.051 5.09e-05 ***
beta2   1.000e-08   8.592e-02    0.000  1.00000    
skew    9.961e-01   1.158e-02   86.055  < 2e-16 ***
shape   2.291e+00   5.499e-02   41.656  < 2e-16 ***
---
Signif. codes:  0 ‘***’ 0.001 ‘**’ 0.01 ‘*’ 0.05 ‘.’ 0.1 ‘ ’ 1

Log Likelihood:
 7305.926    normalized:  1.750761 

Description:
 Sat Sep 01 15:58:46 2018 by user: Appus 


